{"pageProps":{"siteDescription":"Description of local dev version","siteTitle":"Local dev version","currentPage":"14","categories":[{"id":"all","title":"All","count":70},{"id":"with-pictures","title":"With pictures or videos","count":49},{"id":"ToTheEastCoast","title":"ToTheEastCoast","count":39},{"id":"recumbent","title":"recumbent","count":38}],"pages":35,"category":"all","index":[{"title":"Daily ride 2022-05-14 #44","description":"Day 12. Wyoming. Motel. I'm The King Of I-80.","tags":["recumbent","ToTheEastCoast"],"gpx":["track.gpx"],"date":"2022-05-14","hash":["5e47baedd9c9c2c449c709cb169076a1e444646ab24986312ac10c84d90a2a53"],"id":"20220514","objects":[{"type":"image","img":"20220514-photo0","timestamp":1652511061000,"lat":41.58256111111111,"lng":-109.25666111111111},{"type":"image","img":"20220514-photo1","timestamp":1652521315000,"lat":41.65216111111111,"lng":-109.00521666666667},{"type":"image","img":"20220514-photo2","timestamp":1652530337000,"lat":41.647475,"lng":-108.59618055555555},{"type":"image","img":"20220514-photo3","timestamp":1652550219000,"lat":41.784727777777775,"lng":-107.26372222222223},{"type":"image","img":"20220514-photo4","timestamp":1652551218000,"lat":41.78731944444444,"lng":-107.24104722222222},{"type":"image","img":"20220514-photo5","timestamp":1652551223000,"lat":41.78731944444444,"lng":-107.24104722222222},{"type":"image","img":"20220514-photo6","timestamp":1652556296000,"lat":41.759908333333335,"lng":-106.99510555555555},{"type":"image","img":"20220514-photo7","timestamp":1652556303000,"lat":41.759908333333335,"lng":-106.99510555555555}],"time":41953000,"distance":207424.00175190612,"uphill":445,"pointCount":387,"categories":["all","recumbent","ToTheEastCoast","with-pictures"]},{"title":"Daily ride 2022-05-13 #43","description":"Day 11. Wyoming. Tent. Moved along I-80, that is legal,","tags":["recumbent","ToTheEastCoast"],"gpx":["track.gpx"],"date":"2022-05-13","hash":["bd141d05ec7b792582be0f2fb87b7170b809cbde55f5b11780c14fea36124a80"],"id":"20220513","objects":[{"type":"image","img":"20220513-photo0","timestamp":1652421920000,"lat":41.016555555555556,"lng":-111.03324444444445},{"type":"image","img":"20220513-photo1","timestamp":1652425098000,"lat":41.01659444444444,"lng":-111.03325555555556},{"type":"image","img":"20220513-photo2","timestamp":1652425108000,"lat":41.01659444444444,"lng":-111.03325555555556},{"type":"image","img":"20220513-photo3","timestamp":1652425126000,"lat":41.01659444444444,"lng":-111.03325555555556},{"type":"image","img":"20220513-photo4","timestamp":1652448478000,"lat":41.29829722222222,"lng":-110.62629444444444},{"type":"image","img":"20220513-photo5","timestamp":1652452810000,"lat":41.31933333333334,"lng":-110.38974166666668},{"type":"image","img":"20220513-photo6","timestamp":1652452850000,"lat":41.31933333333334,"lng":-110.38974166666668},{"type":"image","img":"20220513-photo7","timestamp":1652453249000,"lat":41.316430555555556,"lng":-110.37490555555554},{"type":"image","img":"20220513-photo8","timestamp":1652456972000,"lat":41.409219444444446,"lng":-110.14376666666668},{"type":"image","img":"20220513-photo9","timestamp":1652464695000,"lat":41.542430555555555,"lng":-109.74464722222223},{"type":"image","img":"20220513-photo10","timestamp":1652468904000,"lat":41.544802777777775,"lng":-109.48114166666667},{"type":"image","img":"20220513-photo11","timestamp":1652469763000,"lat":41.530055555555556,"lng":-109.45716388888889}],"time":43302000,"distance":200760.79193756776,"uphill":1263,"pointCount":427,"categories":["all","recumbent","ToTheEastCoast","with-pictures"]}]},"__N_SSG":true}