{"pageProps":{"siteDescription":"Description of local dev version","siteTitle":"Local dev version","currentPage":"19","categories":[{"id":"all","title":"All","count":70},{"id":"with-pictures","title":"With pictures or videos","count":49},{"id":"ToTheEastCoast","title":"ToTheEastCoast","count":39},{"id":"recumbent","title":"recumbent","count":38}],"pages":35,"category":"all","index":[{"title":"Daily ride 2022-05-04 #34","description":"Day 2. California. Tent.","tags":["ToTheEastCoast","recumbent"],"gpx":["track.gpx"],"date":"2022-05-04","hash":["c197c71558e266de2af2fc0f63a133079996885da16da3715e1c6c7314d3433d"],"id":"20220504","objects":[{"type":"image","img":"20220504-photo0","timestamp":1651644102000,"lat":38.112991666666666,"lng":-121.69656388888889},{"type":"image","img":"20220504-photo1","timestamp":1651646803000,"lat":38.11271111111111,"lng":-121.69752222222223},{"type":"image","img":"20220504-photo2","timestamp":1651647808000,"lat":38.123,"lng":-121.69004722222222},{"type":"image","img":"20220504-photo3","timestamp":1651657229000,"lat":38.24261111111111,"lng":-121.51571388888888},{"type":"image","img":"20220504-photo4","timestamp":1651676255000,"lat":38.358830555555556,"lng":-120.93995555555556},{"type":"image","img":"20220504-photo5","timestamp":1651697294000,"lat":38.42283055555556,"lng":-120.64446111111111},{"type":"image","img":"20220504-photo6","timestamp":1651701074000,"lat":38.42276666666667,"lng":-120.64438611111112}],"time":42599000,"distance":121144.79786510556,"uphill":871,"pointCount":383,"categories":["all","ToTheEastCoast","recumbent","with-pictures"]},{"title":"To The East Coast, All 38 Days. #33","description":null,"tags":["ToTheEastCoast"],"gpx":["track1.gpx","track2.gpx","track3.gpx","track4.gpx","track5.gpx","track6.gpx","track7.gpx","track8.gpx","track9.gpx","track10.gpx","track11.gpx","track12.gpx","track13.gpx","track14.gpx","track15.gpx","track16.gpx","track17.gpx","track18.gpx","track19.gpx","track20.gpx","track21.gpx","track22.gpx","track23.gpx","track24.gpx","track25.gpx","track26.gpx","track27.gpx","track28.gpx","track29.gpx","track30.gpx","track31.gpx","track32.gpx","track33.gpx","track34.gpx","track35.gpx","track36.gpx","track37.gpx","track38.gpx"],"date":"2022-05-03","id":"20220610-all","objects":[],"time":1683501000,"distance":5962366.326456119,"uphill":29052,"pointCount":15850,"categories":["all","ToTheEastCoast"]}]},"__N_SSG":true}