{"pageProps":{"siteDescription":"Description of local dev version","siteTitle":"Local dev version","currentPage":"23","categories":[{"id":"all","title":"All","count":70},{"id":"with-pictures","title":"With pictures or videos","count":49},{"id":"ToTheEastCoast","title":"ToTheEastCoast","count":39},{"id":"recumbent","title":"recumbent","count":38}],"pages":35,"category":"all","index":[{"title":"To Seattle #26","description":"Day 10","gpx":["track.gpx"],"date":"2021-05-24","id":"20210524","objects":[{"type":"image","img":"20210524-photo0","timestamp":0,"lat":44.63071877,"lng":-123.08707987},{"type":"image","img":"20210524-photo1","timestamp":0,"lat":44.77790988,"lng":-123.02529041},{"type":"image","img":"20210524-photo2","timestamp":0,"lat":44.84099865,"lng":-123.02536125},{"type":"image","img":"20210524-photo3","timestamp":0,"lat":44.84167478,"lng":-123.02579664},{"type":"image","img":"20210524-photo4","timestamp":0,"lat":45.19298198,"lng":-122.89624369}],"time":47889000,"distance":162862.90158392373,"uphill":608,"pointCount":720,"tags":[],"categories":["all","with-pictures"]},{"title":"To Seattle #25","description":"Day 9. Distance is so huge in the day also becouse it was downhill from 1.5km","gpx":["track.gpx"],"date":"2021-05-23","id":"20210523","objects":[{"type":"image","img":"20210523-photo0","timestamp":0,"lat":43.28972988,"lng":-121.76664174},{"type":"image","img":"20210523-photo1","timestamp":0,"lat":43.32880243,"lng":-121.75666185},{"type":"image","img":"20210523-photo10","timestamp":0,"lat":44.02192208,"lng":-122.92247653},{"type":"image","img":"20210523-photo11","timestamp":0,"lat":44.04448848,"lng":-123.04750666},{"type":"image","img":"20210523-photo12","timestamp":0,"lat":44.05489514,"lng":-123.09268023},{"type":"image","img":"20210523-photo13","timestamp":0,"lat":44.04326153,"lng":-123.07879513},{"type":"image","img":"20210523-photo14","timestamp":0,"lat":44.04326153,"lng":-123.07879513},{"type":"image","img":"20210523-photo15","timestamp":0,"lat":44.04363733,"lng":-123.07819652},{"type":"image","img":"20210523-photo16","timestamp":0,"lat":44.04363733,"lng":-123.07819652},{"type":"image","img":"20210523-photo17","timestamp":0,"lat":44.0449574,"lng":-123.05235544},{"type":"image","img":"20210523-photo2","timestamp":0,"lat":43.44030749,"lng":-121.86503246},{"type":"image","img":"20210523-photo3","timestamp":0,"lat":43.48743687,"lng":-121.90884223},{"type":"image","img":"20210523-photo4","timestamp":0,"lat":43.57313516,"lng":-121.97375644},{"type":"image","img":"20210523-photo5","timestamp":0,"lat":43.57313516,"lng":-121.97375644},{"type":"image","img":"20210523-photo6","timestamp":0,"lat":43.5938161,"lng":-122.02704987},{"type":"image","img":"20210523-photo7","timestamp":0,"lat":43.61322705,"lng":-122.06789836},{"type":"image","img":"20210523-photo8","timestamp":0,"lat":43.7470639,"lng":-122.51061398},{"type":"image","img":"20210523-photo9","timestamp":0,"lat":43.74654155,"lng":-122.52768401}],"time":49759000,"distance":189024.75198956404,"uphill":1470,"pointCount":747,"tags":[],"categories":["all","with-pictures"]}]},"__N_SSG":true}