{"pageProps":{"siteDescription":"Description of local dev version","siteTitle":"Local dev version","currentPage":"24","categories":[{"id":"all","title":"All","count":70},{"id":"with-pictures","title":"With pictures or videos","count":49},{"id":"ToTheEastCoast","title":"ToTheEastCoast","count":39},{"id":"recumbent","title":"recumbent","count":38}],"pages":35,"category":"all","index":[{"title":"To Seattle #24","description":"Day 8. I spent all morning for searching and setting of a new tire but after that average speed was increased on 3-4 km per hours (tires make matters a lot definitely)","gpx":["track.gpx"],"date":"2021-05-22","id":"20210522","objects":[],"time":35770000,"distance":126478.0647311592,"uphill":1140,"pointCount":536,"tags":[],"categories":["all"]},{"title":"To Seattle #23","description":"Day 7. In the morning my tent was frozen since temperature decreased less than 0 in the night. In the end of the day, 20 km before Klamath Falls I got a heavy rain in the border of Oregon and became totally wet. Also some kind of dust storm made me a little dirty.","gpx":["track.gpx"],"date":"2021-05-21","id":"20210521","objects":[],"time":42369000,"distance":114079.27649340169,"uphill":491,"pointCount":641,"tags":[],"categories":["all"]}]},"__N_SSG":true}