{"pageProps":{"siteDescription":"Description of local dev version","siteTitle":"Local dev version","currentPage":"25","categories":[{"id":"all","title":"All","count":70},{"id":"with-pictures","title":"With pictures or videos","count":49},{"id":"ToTheEastCoast","title":"ToTheEastCoast","count":39},{"id":"recumbent","title":"recumbent","count":38}],"pages":35,"category":"all","index":[{"title":"To Seattle #22","description":"Day 6. Rain, snow, and temperature is around 0 degree of celsius. 1.3-1.4km of elevation","gpx":["track.gpx"],"date":"2021-05-20","id":"20210520","objects":[{"type":"image","img":"20210520-photo0","timestamp":0,"lat":41.00256236,"lng":-121.44531857},{"type":"image","img":"20210520-photo1","timestamp":0,"lat":41.00534303,"lng":-121.43729829},{"type":"image","img":"20210520-photo2","timestamp":0,"lat":41.07115692,"lng":-121.33684643},{"type":"image","img":"20210520-photo3","timestamp":0,"lat":41.08687463,"lng":-121.26697521},{"type":"image","img":"20210520-photo4","timestamp":0,"lat":41.08503319,"lng":-121.26646791},{"type":"image","img":"20210520-photo5","timestamp":0,"lat":41.05999878,"lng":-121.2167708},{"type":"image","img":"20210520-photo6","timestamp":0,"lat":41.19064884,"lng":-120.9443114},{"type":"image","img":"20210520-photo7","timestamp":0,"lat":41.19064884,"lng":-120.9443114},{"type":"image","img":"20210520-photo8","timestamp":0,"lat":41.22849309,"lng":-120.92124541},{"type":"image","img":"20210520-photo9","timestamp":0,"lat":41.2881427,"lng":-120.89120322}],"time":46075000,"distance":107626.39099234238,"uphill":627,"pointCount":689,"tags":[],"categories":["all","with-pictures"]},{"title":"To Seattle #21","description":"Day 5. Uphill til 1800m, my personal record of altitude on a bike.","gpx":["track.gpx"],"date":"2021-05-19","id":"20210519","objects":[{"type":"image","img":"20210519-photo0","timestamp":0,"lat":40.50463165,"lng":-121.83489495},{"type":"image","img":"20210519-photo1","timestamp":0,"lat":40.51817638,"lng":-121.68623009},{"type":"image","img":"20210519-photo10","timestamp":0,"lat":40.98861927,"lng":-121.51379804},{"type":"image","img":"20210519-photo11","timestamp":0,"lat":40.99696919,"lng":-121.49640902},{"type":"image","img":"20210519-photo12","timestamp":0,"lat":40.99696919,"lng":-121.49640902},{"type":"image","img":"20210519-photo2","timestamp":0,"lat":40.53227303,"lng":-121.62943512},{"type":"image","img":"20210519-photo3","timestamp":0,"lat":40.56005489,"lng":-121.57665377},{"type":"image","img":"20210519-photo4","timestamp":0,"lat":40.56131436,"lng":-121.5761863},{"type":"image","img":"20210519-photo5","timestamp":0,"lat":40.56237183,"lng":-121.57572686},{"type":"image","img":"20210519-photo6","timestamp":0,"lat":40.97245552,"lng":-121.56363366},{"type":"image","img":"20210519-photo7","timestamp":0,"lat":40.97245552,"lng":-121.56363366},{"type":"image","img":"20210519-photo8","timestamp":0,"lat":40.97245552,"lng":-121.56363366},{"type":"image","img":"20210519-photo9","timestamp":0,"lat":40.98080268,"lng":-121.54682239}],"time":41515000,"distance":117384.65206480635,"uphill":1093,"pointCount":632,"tags":[],"categories":["all","with-pictures"]}]},"__N_SSG":true}