{"pageProps":{"siteDescription":"Description of local dev version","siteTitle":"Local dev version","currentPage":"26","categories":[{"id":"all","title":"All","count":70},{"id":"with-pictures","title":"With pictures or videos","count":49},{"id":"ToTheEastCoast","title":"ToTheEastCoast","count":39},{"id":"recumbent","title":"recumbent","count":38}],"pages":35,"category":"all","index":[{"title":"To Seattle #20","description":"Day 4. Tire corruption on a gravel road, uphill to 1km","gpx":["track.gpx"],"date":"2021-05-18","id":"20210518","objects":[{"type":"image","img":"20210518-photo0","timestamp":0,"lat":39.92752181,"lng":-122.19744308},{"type":"image","img":"20210518-photo1","timestamp":0,"lat":40.32373763,"lng":-122.06458669},{"type":"image","img":"20210518-photo2","timestamp":0,"lat":40.40477011,"lng":-121.99178789}],"time":40110000,"distance":93685.80922221683,"uphill":931,"pointCount":595,"tags":[],"categories":["all","with-pictures"]},{"title":"To Seattle #19","description":"Day 3","gpx":["track.gpx"],"date":"2021-05-17","id":"20210517","objects":[{"type":"image","img":"20210517-photo0","timestamp":0,"lat":39.19328415,"lng":-121.65996399},{"type":"image","img":"20210517-photo1","timestamp":0,"lat":39.48258734,"lng":-121.74478026}],"time":47750000,"distance":161376.7420239237,"uphill":67,"pointCount":711,"tags":[],"categories":["all","with-pictures"]}]},"__N_SSG":true}