{"pageProps":{"siteDescription":"Description of local dev version","siteTitle":"Local dev version","currentPage":"27","categories":[{"id":"all","title":"All","count":70},{"id":"with-pictures","title":"With pictures or videos","count":49},{"id":"ToTheEastCoast","title":"ToTheEastCoast","count":39},{"id":"recumbent","title":"recumbent","count":38}],"pages":35,"category":"all","index":[{"title":"To Seattle #18","description":"Day 2. To Sacromento","gpx":["track.gpx"],"date":"2021-05-16","id":"20210516","objects":[{"type":"image","img":"20210516-photo0","timestamp":0,"lat":38.1867639,"lng":-121.66270979},{"type":"image","img":"20210516-photo1","timestamp":0,"lat":38.20472719,"lng":-121.65515269},{"type":"image","img":"20210516-photo2","timestamp":0,"lat":38.20683203,"lng":-121.65580372},{"type":"image","img":"20210516-photo3","timestamp":0,"lat":38.25058253,"lng":-121.65613333},{"type":"image","img":"20210516-photo4","timestamp":0,"lat":38.25416576,"lng":-121.65513972},{"type":"image","img":"20210516-photo5","timestamp":0,"lat":38.55769554,"lng":-121.53046108},{"type":"image","img":"20210516-photo6","timestamp":0,"lat":38.90893669,"lng":-121.57114766}],"time":35942000,"distance":118502.16533537605,"uphill":60,"pointCount":540,"tags":[],"categories":["all","with-pictures"]},{"title":"To Seattle, All 15 days #17","description":null,"gpx":["track1.gpx","track2.gpx","track3.gpx","track4.gpx","track5.gpx","track6.gpx","track7.gpx","track8.gpx","track9.gpx","track10.gpx","track11.gpx","track12.gpx","track13.gpx","track14.gpx","track15.gpx"],"date":"2021-05-15","id":"20210529-all","objects":[],"time":595284000,"distance":1787670.8965024275,"uphill":8552,"pointCount":8885,"tags":[],"categories":["all"]}]},"__N_SSG":true}