{"pageProps":{"siteDescription":"Description of local dev version","siteTitle":"Local dev version","currentPage":"28","categories":[{"id":"all","title":"All","count":70},{"id":"with-pictures","title":"With pictures or videos","count":49},{"id":"ToTheEastCoast","title":"ToTheEastCoast","count":39},{"id":"recumbent","title":"recumbent","count":38}],"pages":35,"category":"all","index":[{"title":"To Seattle #16","description":"Day 1. The first day wasn't lucky I spent 4 patches for flatten tire","gpx":["track.gpx"],"date":"2021-05-15","id":"20210515","objects":[{"type":"image","img":"20210515-photo0","timestamp":0,"lat":37.30109975,"lng":-122.01097021},{"type":"image","img":"20210515-photo1","timestamp":0,"lat":37.58916038,"lng":-121.95792147}],"time":45611000,"distance":153486.16847696507,"uphill":314,"pointCount":708,"tags":[],"categories":["all","with-pictures"]},{"title":"To The Ocean with The Son #15","description":"The most longest and durable ride with my son on this moment to the ocean coast near by Santa Cruz. We got a tent and took overnight on the coast.","gpx":["track.gpx"],"date":"2021-01-09","id":"20210109","objects":[],"time":25064000,"distance":56213.88462738025,"uphill":504,"pointCount":342,"tags":[],"categories":["all"]}]},"__N_SSG":true}