{"pageProps":{"siteDescription":"Description of local dev version","siteTitle":"Local dev version","currentPage":"30","categories":[{"id":"all","title":"All","count":70},{"id":"with-pictures","title":"With pictures or videos","count":49},{"id":"ToTheEastCoast","title":"ToTheEastCoast","count":39},{"id":"recumbent","title":"recumbent","count":38}],"pages":35,"category":"all","index":[{"title":"San Francisco to Los Angeles, Day 4 of 6 #12","description":"In this day I spent $70 for a motel room and shower, I think it is the most expensive day during of the trip","gpx":["track.gpx"],"date":"2020-10-06","id":"20201006","objects":[],"time":45612000,"distance":118184.91990313253,"uphill":539,"pointCount":642,"tags":[],"categories":["all"]},{"title":"San Francisco to Los Angeles, Day 3 of 6 #11","description":"The cheapest way to overnight is a tent which is on a road shoulder again","gpx":["track.gpx"],"date":"2020-10-05","id":"20201005","objects":[],"time":37864000,"distance":102088.73735676476,"uphill":493,"pointCount":571,"tags":[],"categories":["all"]}]},"__N_SSG":true}