{"pageProps":{"siteDescription":"Description of local dev version","siteTitle":"Local dev version","currentPage":"31","categories":[{"id":"all","title":"All","count":70},{"id":"with-pictures","title":"With pictures or videos","count":49},{"id":"ToTheEastCoast","title":"ToTheEastCoast","count":39},{"id":"recumbent","title":"recumbent","count":38}],"pages":35,"category":"all","index":[{"title":"San Francisco to Los Angeles, Day 2 of 6 #10","description":"The most longest day of the trip. In this day I had no luck to find any opened camping (for different reason, some of them was closed because of COVID and the last one was closed because it was too late) and I just overnight on a shoulder.","gpx":["track.gpx"],"date":"2020-10-04","id":"20201004","objects":[],"time":54406000,"distance":156596.89795408354,"uphill":601,"pointCount":806,"tags":[],"categories":["all"]},{"title":"San Francisco to Los Angeles, All 6 Days #9","description":"The first long journey after COVID lockdown, in the case, the goal is to reach Los Angeles.","gpx":["track1.gpx","track2.gpx","track3.gpx","track4.gpx","track5.gpx","track6.gpx"],"date":"2020-10-03","id":"20201003-all","objects":[],"time":232528000,"distance":635776.4377180738,"uphill":2709,"pointCount":3409,"tags":[],"categories":["all"]}]},"__N_SSG":true}