{"pageProps":{"siteDescription":"Description of local dev version","siteTitle":"Local dev version","currentPage":"33","categories":[{"id":"all","title":"All","count":70},{"id":"with-pictures","title":"With pictures or videos","count":49},{"id":"ToTheEastCoast","title":"ToTheEastCoast","count":39},{"id":"recumbent","title":"recumbent","count":38}],"pages":35,"category":"all","index":[{"title":"Family Triple Tandem Ride To Stanford #6","description":null,"gpx":["track.gpx"],"date":"2020-01-05","id":"20200105","objects":[],"time":13752000,"distance":40255.62231448085,"uphill":110,"pointCount":182,"tags":[],"categories":["all"]},{"title":"2019 New Year Trip, Day 2 #5","description":null,"gpx":["track.gpx"],"date":"2019-12-31","id":"20191231","objects":[{"type":"video","img":"20191231-d1-e1","youtubeId":"XukF5bA7Vu4","timestamp":0,"lat":36.884331,"lng":-121.826862},{"type":"video","img":"20191231-d1-e2","youtubeId":"B_g57DFX67w","timestamp":0,"lat":36.882982,"lng":-121.828021}],"time":49181000,"distance":143027.10554936973,"uphill":1569,"pointCount":736,"tags":[],"categories":["all","with-pictures"]}]},"__N_SSG":true}