{"pageProps":{"siteDescription":"Description of local dev version","siteTitle":"Local dev version","currentPage":"34","categories":[{"id":"all","title":"All","count":70},{"id":"with-pictures","title":"With pictures or videos","count":49},{"id":"ToTheEastCoast","title":"ToTheEastCoast","count":39},{"id":"recumbent","title":"recumbent","count":38}],"pages":35,"category":"all","index":[{"title":"2019 New Year Trip, Day 1 #4","description":null,"gpx":["track.gpx"],"date":"2019-12-30","id":"20191230","objects":[{"type":"video","img":"20191230-d1-e1","youtubeId":"_A7Hw6lRpJo","timestamp":0,"lat":37.358256,"lng":-122.031376},{"type":"video","img":"20191230-d1-e11","youtubeId":"ja4aEcJPbJc","timestamp":0,"lat":36.972335,"lng":-121.912292},{"type":"video","img":"20191230-d1-e12","youtubeId":"yOwItIDstAw","timestamp":0,"lat":36.969258,"lng":-121.903186},{"type":"video","img":"20191230-d1-e4","youtubeId":"6D-ISuoCQk8","timestamp":0,"lat":37.146962,"lng":-121.973965},{"type":"video","img":"20191230-d1-e8","youtubeId":"17I4BLNUhRA","timestamp":0,"lat":37.134373,"lng":-121.964709},{"type":"video","img":"20191230-d1-e9","youtubeId":"6O8bJ27iBpE","timestamp":0,"lat":37.120377,"lng":-121.928881}],"time":25554000,"distance":75124.85037989946,"uphill":466,"pointCount":349,"tags":[],"categories":["all","with-pictures"]},{"title":"Black Moutain Trip, Day 2 #3","description":"The trip to Black Moutain (Los Altos, CA) with Iakov, 800m above mean sea level","gpx":["track.gpx"],"date":"2019-12-22","id":"20191222","objects":[],"time":7114000,"distance":22021.244054975807,"uphill":170,"pointCount":104,"tags":[],"categories":["all"]}]},"__N_SSG":true}