{"pageProps":{"siteDescription":"Description of local dev version","siteTitle":"Local dev version","currentPage":"3","categories":[{"id":"all","title":"All","count":70},{"id":"with-pictures","title":"With pictures or videos","count":49},{"id":"ToTheEastCoast","title":"ToTheEastCoast","count":39},{"id":"recumbent","title":"recumbent","count":38}],"pages":20,"category":"ToTheEastCoast","index":[{"title":"Daily ride 2022-06-06 #66","description":"Day 35. New York. Tent.","tags":["recumbent","ToTheEastCoast"],"gpx":["track.gpx"],"date":"2022-06-06","hash":["2fcfd7077ebcb37017a4be11cda9f2b25ffba8f3e1c6c6bb16c888724181952b"],"id":"20220606","objects":[{"type":"image","img":"20220606-photo0","timestamp":1654493965000,"lat":44.29185277777778,"lng":-76.30979722222222},{"type":"image","img":"20220606-photo1","timestamp":1654499908000,"lat":44.32779722222222,"lng":-76.16448333333334},{"type":"image","img":"20220606-photo2","timestamp":1654530120000,"lat":43.974291666666666,"lng":-75.9090638888889}],"time":52529000,"distance":148641.22576592962,"uphill":1020,"pointCount":480,"categories":["all","recumbent","ToTheEastCoast","with-pictures"]},{"title":"Daily ride 2022-06-05 #65","description":"Day 34. Canada. Tent.","tags":["recumbent","ToTheEastCoast"],"gpx":["track.gpx"],"date":"2022-06-05","hash":["730c683b9a2057dd6e12cfc04a8c1358f7b1a4b41a98e7d36e3c3cb5f63086c3"],"id":"20220605","objects":[{"type":"image","img":"20220605-photo0","timestamp":1654412242000,"lat":43.975008333333335,"lng":-78.11253888888888},{"type":"image","img":"20220605-photo1","timestamp":1654431430000,"lat":44.102494444444446,"lng":-77.574225},{"type":"image","img":"20220605-photo2","timestamp":1654457322000,"lat":44.25833055555555,"lng":-76.56912222222222},{"type":"image","img":"20220605-photo3","timestamp":1654460234000,"lat":44.2327,"lng":-76.48941944444445}],"time":42753000,"distance":157898.80418933652,"uphill":693,"pointCount":379,"categories":["all","recumbent","ToTheEastCoast","with-pictures"]}]},"__N_SSG":true}