{"pageProps":{"siteDescription":"Description of local dev version","siteTitle":"Local dev version","currentPage":"13","categories":[{"id":"all","title":"All","count":69},{"id":"with-pictures","title":"With pictures or videos","count":49},{"id":"ToTheEastCoast","title":"ToTheEastCoast","count":38},{"id":"recumbent","title":"recumbent","count":38}],"pages":19,"category":"ToTheEastCoast","index":[{"title":"Daily ride 2022-05-16 #45","description":"Day 14. Wyoming, Colorado. Tent. I decided that I want to see Colorado, that is a little aside but sould be very interesting.","tags":["recumbent","ToTheEastCoast"],"gpx":["track.gpx"],"date":"2022-05-16","hash":["619c4e2b597aa7aec3078b6eeb12fa970a18185e05d2714f9a5b6c6cf7769947"],"id":"20220516","objects":[{"type":"image","img":"20220516-photo0","timestamp":1652680275000,"lat":41.250480555555555,"lng":-105.43420833333333},{"type":"image","img":"20220516-photo1","timestamp":1652695933000,"lat":41.134966666666664,"lng":-104.818075},{"type":"image","img":"20220516-photo2","timestamp":1652696184000,"lat":41.1397,"lng":-104.81991388888889},{"type":"image","img":"20220516-photo3","timestamp":1652701707000,"lat":41.141197222222225,"lng":-104.81932499999999},{"type":"image","img":"20220516-photo4","timestamp":1652706938000,"lat":40.99826111111111,"lng":-104.773125},{"type":"image","img":"20220516-photo5","timestamp":1652712565000,"lat":40.75877777777778,"lng":-104.791425},{"type":"image","img":"20220516-photo6","timestamp":1652715641000,"lat":40.64075555555556,"lng":-104.75390833333333},{"type":"image","img":"20220516-photo7","timestamp":1652716384000,"lat":40.60335277777778,"lng":-104.73969444444444},{"type":"image","img":"20220516-photo8","timestamp":1652716585000,"lat":40.58960277777778,"lng":-104.73576111111112},{"type":"image","img":"20220516-photo9","timestamp":1652728732000,"lat":40.452475,"lng":-105.08799722222221},{"type":"image","img":"20220516-photo10","timestamp":1652729373000,"lat":40.443797222222216,"lng":-105.09688055555556},{"type":"image","img":"20220516-photo11","timestamp":1652730163000,"lat":40.414341666666665,"lng":-105.09678888888888}],"time":53297000,"distance":228749.69680656923,"uphill":273,"pointCount":520,"categories":["all","recumbent","ToTheEastCoast","with-pictures"]},{"title":"Daily ride 2022-05-15 #44","description":"Day 13. Wyoming. Tent.","tags":["recumbent","ToTheEastCoast"],"gpx":["track.gpx"],"date":"2022-05-15","hash":["bfd9dcc79465c14524593bfd3ae74ebf90ada6153f9c3a7e1bafc4f7a4de03f5"],"id":"20220515","objects":[{"type":"image","img":"20220515-photo0","timestamp":1652595994000,"lat":41.76838333333333,"lng":-106.95022222222222},{"type":"image","img":"20220515-photo1","timestamp":1652615883000,"lat":41.68389722222222,"lng":-106.37867777777777},{"type":"image","img":"20220515-photo2","timestamp":1652619040000,"lat":41.639002777777776,"lng":-106.29288333333334},{"type":"image","img":"20220515-photo3","timestamp":1652624767000,"lat":41.50376388888889,"lng":-106.05179444444444},{"type":"image","img":"20220515-photo4","timestamp":1652634526000,"lat":41.31121666666667,"lng":-105.58168888888889},{"type":"image","img":"20220515-photo5","timestamp":1652634874000,"lat":41.312444444444445,"lng":-105.57999444444444},{"type":"image","img":"20220515-photo6","timestamp":1652634879000,"lat":41.312444444444445,"lng":-105.57999444444444},{"type":"image","img":"20220515-photo7","timestamp":1652635191000,"lat":41.31004166666666,"lng":-105.57580555555555},{"type":"image","img":"20220515-photo8","timestamp":1652635539000,"lat":41.30946944444444,"lng":-105.56884722222222},{"type":"image","img":"20220515-photo9","timestamp":1652642797000,"lat":41.272166666666664,"lng":-105.48653055555556}],"time":44872000,"distance":156992.88316652228,"uphill":992,"pointCount":424,"categories":["all","recumbent","ToTheEastCoast","with-pictures"]}]},"__N_SSG":true}