{"pageProps":{"siteDescription":"Description of local dev version","siteTitle":"Local dev version","currentPage":"16","categories":[{"id":"all","title":"All","count":69},{"id":"with-pictures","title":"With pictures or videos","count":49},{"id":"ToTheEastCoast","title":"ToTheEastCoast","count":38},{"id":"recumbent","title":"recumbent","count":38}],"pages":19,"category":"ToTheEastCoast","index":[{"title":"Daily ride 2022-05-10 #39","description":"Day 8. Utah. Tent.","tags":["recumbent","ToTheEastCoast"],"gpx":["track.gpx"],"date":"2022-05-10","hash":["2c98fe470aca9ee5e6de46a75674bad582a59314b4ec718c5b269663308fae34"],"id":"20220510","objects":[{"type":"image","img":"20220510-photo0","timestamp":1652169707000,"lat":39.07886666666667,"lng":-113.48426666666667},{"type":"image","img":"20220510-photo1","timestamp":1652169750000,"lat":39.07886666666667,"lng":-113.48426666666667},{"type":"image","img":"20220510-photo2","timestamp":1652171851000,"lat":39.07897222222223,"lng":-113.48406111111112},{"type":"image","img":"20220510-photo3","timestamp":1652174371000,"lat":39.04962777777778,"lng":-113.41771111111112},{"type":"image","img":"20220510-photo4","timestamp":1652180114000,"lat":39.06568333333333,"lng":-113.23306111111111},{"type":"image","img":"20220510-photo5","timestamp":1652186457000,"lat":39.2519,"lng":-112.89462222222222},{"type":"image","img":"20220510-photo6","timestamp":1652190482000,"lat":39.329169444444446,"lng":-112.67188611111112},{"type":"image","img":"20220510-photo7","timestamp":1652191360000,"lat":39.33043888888889,"lng":-112.62167777777778},{"type":"image","img":"20220510-photo8","timestamp":1652191544000,"lat":39.33060555555556,"lng":-112.61545833333332},{"type":"image","img":"20220510-photo9","timestamp":1652208493000,"lat":39.80905,"lng":-112.14339444444445},{"type":"image","img":"20220510-photo10","timestamp":1652213180000,"lat":39.95462777777778,"lng":-112.11930555555556},{"type":"image","img":"20220510-photo11","timestamp":1652213236000,"lat":39.954994444444445,"lng":-112.11973888888888},{"type":"image","img":"20220510-photo12","timestamp":1652213246000,"lat":39.954994444444445,"lng":-112.11973888888888},{"type":"image","img":"20220510-photo13","timestamp":1652214155000,"lat":39.97005277777778,"lng":-112.06074722222222},{"type":"image","img":"20220510-photo14","timestamp":1652214882000,"lat":39.95180555555556,"lng":-111.96867222222222}],"time":54620000,"distance":244759.88784088087,"uphill":659,"pointCount":562,"categories":["all","recumbent","ToTheEastCoast","with-pictures"]},{"title":"Daily ride 2022-05-09 #38","description":"Day 7. Nevada, Utah. Motel.","tags":["recumbent","ToTheEastCoast"],"gpx":["track.gpx"],"date":"2022-05-09","hash":["149d379dc69776a5cb14751a6308cab53854e523bd22edb9f50d3f652bfdcaa"],"id":"20220509","objects":[{"type":"image","img":"20220509-photo0","timestamp":1652088857000,"lat":39.220525,"lng":-114.857025},{"type":"image","img":"20220509-photo1","timestamp":1652100138000,"lat":39.03819444444444,"lng":-114.64956388888889},{"type":"image","img":"20220509-photo2","timestamp":1652100751000,"lat":39.03554166666667,"lng":-114.60653333333333},{"type":"image","img":"20220509-photo3","timestamp":1652101245000,"lat":39.02388055555556,"lng":-114.56045555555555},{"type":"image","img":"20220509-photo4","timestamp":1652114270000,"lat":39.143724999999996,"lng":-114.33710555555555},{"type":"image","img":"20220509-photo5","timestamp":1652114603000,"lat":39.139152777777774,"lng":-114.33205},{"type":"image","img":"20220509-photo6","timestamp":1652121292000,"lat":39.04989444444444,"lng":-113.95455},{"type":"image","img":"20220509-photo7","timestamp":1652122197000,"lat":39.04593055555555,"lng":-113.90292500000001}],"time":43538000,"distance":151065.74709801422,"uphill":981,"pointCount":417,"categories":["all","recumbent","ToTheEastCoast","with-pictures"]}]},"__N_SSG":true}