{"pageProps":{"siteDescription":"Description of local dev version","siteTitle":"Local dev version","currentPage":"17","categories":[{"id":"all","title":"All","count":69},{"id":"with-pictures","title":"With pictures or videos","count":49},{"id":"ToTheEastCoast","title":"ToTheEastCoast","count":38},{"id":"recumbent","title":"recumbent","count":38}],"pages":19,"category":"ToTheEastCoast","index":[{"title":"Daily ride 2022-05-08 #37","description":"Day 6. Nevada. Tent.","tags":["recumbent","ToTheEastCoast"],"gpx":["track.gpx"],"date":"2022-05-08","hash":["6eedd4c2fe5124550842c20a90f490364db4c2008edf0f8711cdca5036077244"],"id":"20220508","objects":[{"type":"image","img":"20220508-photo0","timestamp":1651993673000,"lat":39.483975,"lng":-116.59221111111111},{"type":"image","img":"20220508-photo1","timestamp":1651993688000,"lat":39.483975,"lng":-116.59221111111111},{"type":"image","img":"20220508-photo2","timestamp":1651993705000,"lat":39.483975,"lng":-116.59221111111111},{"type":"image","img":"20220508-photo3","timestamp":1652004710000,"lat":39.57330277777778,"lng":-116.07809722222221},{"type":"image","img":"20220508-photo4","timestamp":1652006372000,"lat":39.55533888888888,"lng":-115.99570277777778},{"type":"image","img":"20220508-photo5","timestamp":1652009543000,"lat":39.512658333333334,"lng":-115.96105277777778},{"type":"image","img":"20220508-photo6","timestamp":1652009550000,"lat":39.512658333333334,"lng":-115.96105277777778},{"type":"image","img":"20220508-photo7","timestamp":1652009600000,"lat":39.512658333333334,"lng":-115.96105277777778},{"type":"image","img":"20220508-photo8","timestamp":1652009606000,"lat":39.511783333333334,"lng":-115.96059166666667},{"type":"image","img":"20220508-photo9","timestamp":1652014604000,"lat":39.45342222222222,"lng":-115.936175},{"type":"image","img":"20220508-photo10","timestamp":1652027798000,"lat":39.39778333333333,"lng":-115.47023333333334},{"type":"image","img":"20220508-photo11","timestamp":1652032832000,"lat":39.35913055555556,"lng":-115.3525611111111},{"type":"image","img":"20220508-photo12","timestamp":1652042652000,"lat":39.28275555555555,"lng":-114.96419444444444},{"type":"image","img":"20220508-photo13","timestamp":1652043590000,"lat":39.247841666666666,"lng":-114.89416944444446}],"time":43697000,"distance":184268.7071672844,"uphill":1171,"pointCount":412,"categories":["all","recumbent","ToTheEastCoast","with-pictures"]},{"title":"Daily ride 2022-05-07 #36","description":"Day 5. Nevada. Tent.","tags":["recumbent","ToTheEastCoast"],"gpx":["track.gpx"],"date":"2022-05-07","hash":["3c178e035a24702c6b44f2294fcab3fe46ac417fd28100de996524f7c7def902"],"id":"20220507","objects":[{"type":"image","img":"20220507-photo0","timestamp":1651904269000,"lat":39.2904,"lng":-118.04742777777777},{"type":"image","img":"20220507-photo1","timestamp":1651915329000,"lat":39.50753531088604,"lng":-117.77122632964887},{"type":"image","img":"20220507-photo2","timestamp":1651920051000,"lat":39.57626666666667,"lng":-117.59782222222222},{"type":"image","img":"20220507-photo3","timestamp":1651929229000,"lat":39.504352777777775,"lng":-117.38210277777777},{"type":"image","img":"20220507-photo4","timestamp":1651930125000,"lat":39.47974444444445,"lng":-117.28091388888889},{"type":"image","img":"20220507-photo5","timestamp":1651938034000,"lat":39.49061388888889,"lng":-117.06883611111111},{"type":"image","img":"20220507-photo6","timestamp":1651938046000,"lat":39.49061388888889,"lng":-117.06883611111111},{"type":"image","img":"20220507-photo7","timestamp":1651938136000,"lat":39.490291666666664,"lng":-117.06841666666666}],"time":44924000,"distance":156545.91662921186,"uphill":1429,"pointCount":425,"categories":["all","recumbent","ToTheEastCoast","with-pictures"]}]},"__N_SSG":true}