{"pageProps":{"siteDescription":"Description of local dev version","siteTitle":"Local dev version","currentPage":"4","categories":[{"id":"all","title":"All","count":69},{"id":"with-pictures","title":"With pictures or videos","count":49},{"id":"ToTheEastCoast","title":"ToTheEastCoast","count":38},{"id":"recumbent","title":"recumbent","count":38}],"pages":19,"category":"ToTheEastCoast","index":[{"title":"Daily ride 2022-06-04 #63","description":"Day 33. Canada. Motel.","tags":["recumbent","ToTheEastCoast"],"gpx":["track.gpx"],"date":"2022-06-04","hash":["54da699aa61a1dafbadd6833193d6da74795b9f4218c87a36c0a09c77098b56b"],"id":"20220604","objects":[{"type":"image","img":"20220604-photo0","timestamp":1654358789000,"lat":43.77551944444444,"lng":-79.13419444444445},{"type":"image","img":"20220604-photo1","timestamp":1654359126000,"lat":43.783905555555556,"lng":-79.125975},{"type":"image","img":"20220604-photo2","timestamp":1654359739000,"lat":43.79461111111111,"lng":-79.117725},{"type":"image","img":"20220604-photo3","timestamp":1654360750000,"lat":43.815580555555556,"lng":-79.09750277777778},{"type":"image","img":"20220604-photo4","timestamp":1654360763000,"lat":43.81557222222222,"lng":-79.09750555555556},{"type":"image","img":"20220604-photo5","timestamp":1654363598000,"lat":43.84411388888889,"lng":-79.01738611111111}],"time":44593000,"distance":143865.21368704876,"uphill":461,"pointCount":430,"categories":["all","recumbent","ToTheEastCoast","with-pictures"]},{"title":"Daily ride 2022-06-02 #62","description":"Day 31. Canada. Tent. I arrived in Toronto for drinking beers.","tags":["recumbent","ToTheEastCoast"],"gpx":["track.gpx"],"date":"2022-06-02","hash":["62402d1438bde652fda107ce453c15658d8833b67f7d5a3064b4adb903331308"],"id":"20220602","objects":[],"time":35461000,"distance":112585.19053275339,"uphill":203,"pointCount":341,"categories":["all","recumbent","ToTheEastCoast"]}]},"__N_SSG":true}