{"pageProps":{"siteDescription":"Description of local dev version","siteTitle":"Local dev version","currentPage":"5","categories":[{"id":"all","title":"All","count":70},{"id":"with-pictures","title":"With pictures or videos","count":49},{"id":"ToTheEastCoast","title":"ToTheEastCoast","count":39},{"id":"recumbent","title":"recumbent","count":38}],"pages":19,"category":"recumbent","index":[{"title":"Daily ride 2022-06-01 #61","description":"Day 30. Canada. Tent.","tags":["recumbent","ToTheEastCoast"],"gpx":["track.gpx"],"date":"2022-06-01","hash":["3121c8ebf870be4b91a5eeb6eed59ad4f05bbf622bf2c53ef95ef941ac42044e"],"id":"20220601","objects":[],"time":46049000,"distance":175935.95571459684,"uphill":587,"pointCount":427,"categories":["all","recumbent","ToTheEastCoast"]},{"title":"Daily ride 2022-05-31 #60","description":"Day 29. Michigan, Canada. Motel.","tags":["recumbent","ToTheEastCoast"],"gpx":["track.gpx"],"date":"2022-05-31","hash":["7d3c9a8ae9f39e13fac0c226d038e45904a7f675db4e3dd72bcfbd5a1dc32b75"],"id":"20220531","objects":[],"time":43279000,"distance":167361.72546257536,"uphill":637,"pointCount":409,"categories":["all","recumbent","ToTheEastCoast"]}]},"__N_SSG":true}