{"pageProps":{"siteDescription":"Description of local dev version","siteTitle":"Local dev version","currentPage":"7","categories":[{"id":"all","title":"All","count":70},{"id":"with-pictures","title":"With pictures or videos","count":49},{"id":"ToTheEastCoast","title":"ToTheEastCoast","count":39},{"id":"recumbent","title":"recumbent","count":38}],"pages":19,"category":"recumbent","index":[{"title":"Daily ride 2022-05-28 #57","description":"Day 26. Illinois, Indiana, Michigan. Motel. Memorial Day in Chicago was Amazing","tags":["recumbent","ToTheEastCoast"],"gpx":["track.gpx"],"date":"2022-05-28","hash":["eec5e43ee194f23908845b027a4b2f2e87b7058aa2ef5e42fe7f8ffa7826d121"],"id":"20220528","objects":[{"type":"image","img":"20220528-photo0","timestamp":1653738059000,"lat":41.916888888888884,"lng":-87.6642638888889},{"type":"image","img":"20220528-photo1","timestamp":1653738067000,"lat":41.916888888888884,"lng":-87.6642638888889},{"type":"image","img":"20220528-photo2","timestamp":1653739046000,"lat":41.91509722222222,"lng":-87.6348388888889},{"type":"image","img":"20220528-photo3","timestamp":1653740164000,"lat":41.88887222222222,"lng":-87.62954444444443},{"type":"image","img":"20220528-photo4","timestamp":1653740341000,"lat":41.886919444444445,"lng":-87.62958888888888},{"type":"image","img":"20220528-photo5","timestamp":1653740713000,"lat":41.884569444444445,"lng":-87.62934722222222},{"type":"image","img":"20220528-photo6","timestamp":1653741457000,"lat":41.88305833333333,"lng":-87.62821666666666},{"type":"image","img":"20220528-photo7","timestamp":1653742400000,"lat":41.88281111111111,"lng":-87.62940833333333},{"type":"image","img":"20220528-photo8","timestamp":1653743000000,"lat":41.87275,"lng":-87.62911388888888},{"type":"image","img":"20220528-photo9","timestamp":1653743965000,"lat":41.86813333333333,"lng":-87.61498333333333},{"type":"image","img":"20220528-photo10","timestamp":1653745218000,"lat":41.82965,"lng":-87.60394444444444},{"type":"image","img":"20220528-photo11","timestamp":1653751856000,"lat":41.67315,"lng":-87.47835277777779},{"type":"image","img":"20220528-photo12","timestamp":1653752109000,"lat":41.667202777777774,"lng":-87.47000833333334},{"type":"image","img":"20220528-photo13","timestamp":1653755442000,"lat":41.601930555555555,"lng":-87.36101111111111},{"type":"image","img":"20220528-photo14","timestamp":1653766305000,"lat":41.70653055555556,"lng":-86.92818333333334},{"type":"image","img":"20220528-photo15","timestamp":1653766936000,"lat":41.71196666666667,"lng":-86.91831388888889},{"type":"image","img":"20220528-photo16","timestamp":1653766981000,"lat":41.71196666666667,"lng":-86.91831388888889},{"type":"image","img":"20220528-photo17","timestamp":1653767465000,"lat":41.72111666666667,"lng":-86.90610000000001},{"type":"image","img":"20220528-photo18","timestamp":1653767668000,"lat":41.72418888888889,"lng":-86.90280833333334},{"type":"image","img":"20220528-photo19","timestamp":1653768119000,"lat":41.72797222222223,"lng":-86.89758055555556},{"type":"image","img":"20220528-photo20","timestamp":1653769456000,"lat":41.74438055555556,"lng":-86.8595861111111},{"type":"image","img":"20220528-photo21","timestamp":1653769775000,"lat":41.747675,"lng":-86.85179444444444},{"type":"image","img":"20220528-photo22","timestamp":1653775451000,"lat":41.77591388888889,"lng":-86.77853055555555}],"time":45407000,"distance":150264.30081653147,"uphill":377,"pointCount":435,"categories":["all","recumbent","ToTheEastCoast","with-pictures"]},{"title":"Daily ride 2022-05-27 #56","description":"Day 25. Illinois. Motel. Very close to Chicago","tags":["recumbent","ToTheEastCoast"],"gpx":["track.gpx"],"date":"2022-05-27","hash":["f0f3d69cdbda9b38e77428ad5b1815f945afed0701ae5448666dcf2b4bee5d9d"],"id":"20220527","objects":[{"type":"image","img":"20220527-photo0","timestamp":1653646260000,"lat":41.32369722222222,"lng":-89.12565555555555},{"type":"image","img":"20220527-photo1","timestamp":1653646421000,"lat":41.324761111111115,"lng":-89.12122222222222},{"type":"image","img":"20220527-photo2","timestamp":1653647970000,"lat":41.32653055555556,"lng":-89.09396111111111},{"type":"image","img":"20220527-photo3","timestamp":1653648168000,"lat":41.32712222222222,"lng":-89.09145277777777},{"type":"image","img":"20220527-photo4","timestamp":1653648775000,"lat":41.328186111111116,"lng":-89.07685277777777},{"type":"image","img":"20220527-photo5","timestamp":1653649691000,"lat":41.334983333333334,"lng":-89.05555555555556},{"type":"image","img":"20220527-photo6","timestamp":1653651530000,"lat":41.32835277777778,"lng":-89.01046944444444},{"type":"image","img":"20220527-photo7","timestamp":1653652401000,"lat":41.32372777777778,"lng":-88.98205555555556},{"type":"image","img":"20220527-photo8","timestamp":1653655470000,"lat":41.34317222222222,"lng":-88.84258055555556},{"type":"image","img":"20220527-photo9","timestamp":1653667034000,"lat":41.53491388888889,"lng":-88.57930555555555},{"type":"image","img":"20220527-photo10","timestamp":1653672939000,"lat":41.64286111111111,"lng":-88.4462388888889},{"type":"image","img":"20220527-photo11","timestamp":1653673377000,"lat":41.648775,"lng":-88.44564722222222},{"type":"image","img":"20220527-photo12","timestamp":1653675859000,"lat":41.685224999999996,"lng":-88.355325},{"type":"image","img":"20220527-photo13","timestamp":1653678973000,"lat":41.75807777777778,"lng":-88.31814722222222},{"type":"image","img":"20220527-photo14","timestamp":1653681858000,"lat":41.799530555555556,"lng":-88.2320888888889}],"time":50308000,"distance":157940.473196779,"uphill":605,"pointCount":468,"categories":["all","recumbent","ToTheEastCoast","with-pictures"]}]},"__N_SSG":true}