{"pageProps":{"siteDescription":"Description of local dev version","siteTitle":"Local dev version","currentPage":"8","categories":[{"id":"all","title":"All","count":70},{"id":"with-pictures","title":"With pictures or videos","count":49},{"id":"ToTheEastCoast","title":"ToTheEastCoast","count":39},{"id":"recumbent","title":"recumbent","count":38}],"pages":19,"category":"recumbent","index":[{"title":"Daily ride 2022-05-26 #55","description":"Day 24. Illinois. Motel. I crossed Mississippi and now I'm in Illinois.","tags":["recumbent","ToTheEastCoast"],"gpx":["track.gpx"],"date":"2022-05-26","hash":["ca8eefd1ff81b69ca3ca1a9a67b133fd60ff683265fa19e28f319790169a80c6"],"id":"20220526","objects":[{"type":"image","img":"20220526-photo0","timestamp":1653558957000,"lat":41.53140833333333,"lng":-90.54490833333332},{"type":"image","img":"20220526-photo1","timestamp":1653561244000,"lat":41.531124999999996,"lng":-90.54536666666667},{"type":"image","img":"20220526-photo2","timestamp":1653562138000,"lat":41.52051111111111,"lng":-90.5688611111111},{"type":"image","img":"20220526-photo3","timestamp":1653562144000,"lat":41.52051111111111,"lng":-90.5688611111111},{"type":"image","img":"20220526-photo4","timestamp":1653562213000,"lat":41.52051111111111,"lng":-90.5688611111111},{"type":"image","img":"20220526-photo5","timestamp":1653562795000,"lat":41.51191388888889,"lng":-90.56571944444444},{"type":"image","img":"20220526-photo6","timestamp":1653563882000,"lat":41.50216388888889,"lng":-90.5493361111111},{"type":"image","img":"20220526-photo7","timestamp":1653563904000,"lat":41.502341666666666,"lng":-90.54928055555555},{"type":"image","img":"20220526-photo8","timestamp":1653564561000,"lat":41.49725277777778,"lng":-90.54274722222222},{"type":"image","img":"20220526-photo9","timestamp":1653564572000,"lat":41.49725277777778,"lng":-90.54274722222222},{"type":"image","img":"20220526-photo10","timestamp":1653564609000,"lat":41.49720277777778,"lng":-90.54281666666667},{"type":"image","img":"20220526-photo11","timestamp":1653572702000,"lat":41.47604166666667,"lng":-90.361775},{"type":"image","img":"20220526-photo12","timestamp":1653585906000,"lat":41.417608333333334,"lng":-90.06859166666666},{"type":"image","img":"20220526-photo13","timestamp":1653585913000,"lat":41.417608333333334,"lng":-90.06859166666666},{"type":"image","img":"20220526-photo14","timestamp":1653594518000,"lat":41.36533055555556,"lng":-89.67566666666667},{"type":"image","img":"20220526-photo15","timestamp":1653595361000,"lat":41.36538888888889,"lng":-89.62273055555555},{"type":"image","img":"20220526-photo16","timestamp":1653595466000,"lat":41.365375,"lng":-89.62210277777777}],"time":37708000,"distance":136847.36098356234,"uphill":764,"pointCount":348,"categories":["all","recumbent","ToTheEastCoast","with-pictures"]},{"title":"Daily ride 2022-05-25 #54","description":"Day 23. Iowa. Tent. Iowa is the state of hills.","tags":["recumbent","ToTheEastCoast"],"gpx":["track.gpx"],"date":"2022-05-25","hash":["b97cf9276e990a28e484bbb32ef1299e78b5edcdd6d697ea1f5650c8e1f39cca"],"id":"20220525","objects":[{"type":"image","img":"20220525-photo0","timestamp":1653488084000,"lat":41.662549999999996,"lng":-91.54874722222222},{"type":"image","img":"20220525-photo1","timestamp":1653488089000,"lat":41.662549999999996,"lng":-91.54874722222222},{"type":"image","img":"20220525-photo2","timestamp":1653488455000,"lat":41.661325,"lng":-91.53817222222222},{"type":"image","img":"20220525-photo3","timestamp":1653488793000,"lat":41.65995833333333,"lng":-91.53600833333333},{"type":"image","img":"20220525-photo4","timestamp":1653488803000,"lat":41.65995833333333,"lng":-91.53600833333333},{"type":"image","img":"20220525-photo5","timestamp":1653499181000,"lat":41.569944444444445,"lng":-91.25950833333333},{"type":"image","img":"20220525-photo6","timestamp":1653502222000,"lat":41.56708611111112,"lng":-91.10560555555556},{"type":"image","img":"20220525-photo7","timestamp":1653502227000,"lat":41.56708611111112,"lng":-91.10560555555556},{"type":"image","img":"20220525-photo8","timestamp":1653502828000,"lat":41.56684444444445,"lng":-91.0837},{"type":"image","img":"20220525-photo9","timestamp":1653508148000,"lat":41.596852777777784,"lng":-90.87740833333332},{"type":"image","img":"20220525-photo10","timestamp":1653508316000,"lat":41.596775,"lng":-90.87048333333333}],"time":42302000,"distance":151249.20039304259,"uphill":761,"pointCount":370,"categories":["all","recumbent","ToTheEastCoast","with-pictures"]}]},"__N_SSG":true}