{"pageProps":{"siteDescription":"Description of local dev version","siteTitle":"Local dev version","currentPage":"10","categories":[{"id":"all","title":"All","count":69},{"id":"with-pictures","title":"With pictures or videos","count":49},{"id":"ToTheEastCoast","title":"ToTheEastCoast","count":38},{"id":"recumbent","title":"recumbent","count":38}],"pages":25,"category":"with-pictures","index":[{"title":"Daily ride 2022-05-18 #47","description":"Day 16. Colorado. Tent.","tags":["recumbent","ToTheEastCoast"],"gpx":["track.gpx"],"date":"2022-05-18","hash":["9f38bbb3c756322b2ef43c58fbd009378eb119dc7503e9c75f3f6c736d2a9063"],"id":"20220518","objects":[{"type":"image","img":"20220518-photo0","timestamp":1652854540000,"lat":39.732725,"lng":-103.93457500000001},{"type":"image","img":"20220518-photo1","timestamp":1652854555000,"lat":39.732725,"lng":-103.93457500000001},{"type":"image","img":"20220518-photo2","timestamp":1652859814000,"lat":39.739875,"lng":-103.74288055555556},{"type":"image","img":"20220518-photo3","timestamp":1652891521000,"lat":39.658049999999996,"lng":-102.5168861111111},{"type":"image","img":"20220518-photo4","timestamp":1652896778000,"lat":39.70244166666667,"lng":-102.29261944444444},{"type":"image","img":"20220518-photo5","timestamp":1652898669000,"lat":39.746097222222225,"lng":-102.24412777777778},{"type":"image","img":"20220518-photo6","timestamp":1652902031000,"lat":39.74868611111111,"lng":-102.05515277777778},{"type":"image","img":"20220518-photo7","timestamp":1652902129000,"lat":39.75134166666667,"lng":-102.05013333333333}],"time":45113000,"distance":200187.81910314906,"uphill":305,"pointCount":426,"categories":["all","recumbent","ToTheEastCoast","with-pictures"]},{"title":"Daily ride 2022-05-17 #46","description":"Day 15. Colorado. Motel.","tags":["recumbent","ToTheEastCoast"],"gpx":["track.gpx"],"date":"2022-05-17","hash":["6678a7b7db90c22a64796b7876fb5e606fe807aa3e99ee9521f2b5561e64c8d1"],"id":"20220517","objects":[{"type":"image","img":"20220517-photo0","timestamp":1652783199000,"lat":40.10636111111111,"lng":-104.94176666666667},{"type":"image","img":"20220517-photo1","timestamp":1652788632000,"lat":39.94654722222222,"lng":-104.98620555555556},{"type":"image","img":"20220517-photo2","timestamp":1652789042000,"lat":39.94654166666666,"lng":-104.98619444444445},{"type":"image","img":"20220517-photo3","timestamp":1652789049000,"lat":39.94654166666666,"lng":-104.98619444444445},{"type":"image","img":"20220517-photo4","timestamp":1652794958000,"lat":39.83166666666667,"lng":-104.94874166666668},{"type":"image","img":"20220517-photo5","timestamp":1652800800000,"lat":39.74613333333333,"lng":-104.9875},{"type":"image","img":"20220517-photo6","timestamp":1652801065000,"lat":39.74051111111111,"lng":-104.9875888888889},{"type":"image","img":"20220517-photo7","timestamp":1652801231000,"lat":39.741216666666666,"lng":-104.98706666666666},{"type":"image","img":"20220517-photo8","timestamp":1652801723000,"lat":39.738533333333336,"lng":-104.9842},{"type":"image","img":"20220517-photo9","timestamp":1652803134000,"lat":39.75106111111111,"lng":-104.949}],"time":43878000,"distance":159658.58424678023,"uphill":380,"pointCount":438,"categories":["all","recumbent","ToTheEastCoast","with-pictures"]}]},"__N_SSG":true}