{"pageProps":{"siteDescription":"Description of local dev version","siteTitle":"Local dev version","currentPage":"20","categories":[{"id":"all","title":"All","count":69},{"id":"with-pictures","title":"With pictures or videos","count":49},{"id":"ToTheEastCoast","title":"ToTheEastCoast","count":38},{"id":"recumbent","title":"recumbent","count":38}],"pages":25,"category":"with-pictures","index":[{"title":"To Seattle #25","description":"Day 9. Distance is so huge in the day also becouse it was downhill from 1.5km","gpx":["track.gpx"],"date":"2021-05-23","id":"20210523","objects":[{"type":"image","img":"20210523-photo0","timestamp":0,"lat":43.28972988,"lng":-121.76664174},{"type":"image","img":"20210523-photo1","timestamp":0,"lat":43.32880243,"lng":-121.75666185},{"type":"image","img":"20210523-photo10","timestamp":0,"lat":44.02192208,"lng":-122.92247653},{"type":"image","img":"20210523-photo11","timestamp":0,"lat":44.04448848,"lng":-123.04750666},{"type":"image","img":"20210523-photo12","timestamp":0,"lat":44.05489514,"lng":-123.09268023},{"type":"image","img":"20210523-photo13","timestamp":0,"lat":44.04326153,"lng":-123.07879513},{"type":"image","img":"20210523-photo14","timestamp":0,"lat":44.04326153,"lng":-123.07879513},{"type":"image","img":"20210523-photo15","timestamp":0,"lat":44.04363733,"lng":-123.07819652},{"type":"image","img":"20210523-photo16","timestamp":0,"lat":44.04363733,"lng":-123.07819652},{"type":"image","img":"20210523-photo17","timestamp":0,"lat":44.0449574,"lng":-123.05235544},{"type":"image","img":"20210523-photo2","timestamp":0,"lat":43.44030749,"lng":-121.86503246},{"type":"image","img":"20210523-photo3","timestamp":0,"lat":43.48743687,"lng":-121.90884223},{"type":"image","img":"20210523-photo4","timestamp":0,"lat":43.57313516,"lng":-121.97375644},{"type":"image","img":"20210523-photo5","timestamp":0,"lat":43.57313516,"lng":-121.97375644},{"type":"image","img":"20210523-photo6","timestamp":0,"lat":43.5938161,"lng":-122.02704987},{"type":"image","img":"20210523-photo7","timestamp":0,"lat":43.61322705,"lng":-122.06789836},{"type":"image","img":"20210523-photo8","timestamp":0,"lat":43.7470639,"lng":-122.51061398},{"type":"image","img":"20210523-photo9","timestamp":0,"lat":43.74654155,"lng":-122.52768401}],"time":49759000,"distance":189024.75198956404,"uphill":1470,"pointCount":747,"tags":[],"categories":["all","with-pictures"]},{"title":"To Seattle #22","description":"Day 6. Rain, snow, and temperature is around 0 degree of celsius. 1.3-1.4km of elevation","gpx":["track.gpx"],"date":"2021-05-20","id":"20210520","objects":[{"type":"image","img":"20210520-photo0","timestamp":0,"lat":41.00256236,"lng":-121.44531857},{"type":"image","img":"20210520-photo1","timestamp":0,"lat":41.00534303,"lng":-121.43729829},{"type":"image","img":"20210520-photo2","timestamp":0,"lat":41.07115692,"lng":-121.33684643},{"type":"image","img":"20210520-photo3","timestamp":0,"lat":41.08687463,"lng":-121.26697521},{"type":"image","img":"20210520-photo4","timestamp":0,"lat":41.08503319,"lng":-121.26646791},{"type":"image","img":"20210520-photo5","timestamp":0,"lat":41.05999878,"lng":-121.2167708},{"type":"image","img":"20210520-photo6","timestamp":0,"lat":41.19064884,"lng":-120.9443114},{"type":"image","img":"20210520-photo7","timestamp":0,"lat":41.19064884,"lng":-120.9443114},{"type":"image","img":"20210520-photo8","timestamp":0,"lat":41.22849309,"lng":-120.92124541},{"type":"image","img":"20210520-photo9","timestamp":0,"lat":41.2881427,"lng":-120.89120322}],"time":46075000,"distance":107626.39099234238,"uphill":627,"pointCount":689,"tags":[],"categories":["all","with-pictures"]}]},"__N_SSG":true}