{"pageProps":{"siteDescription":"Description of local dev version","siteTitle":"Local dev version","currentPage":"14","categories":[{"id":"all","title":"All","count":31},{"id":"with-pictures","title":"With pictures or videos","count":15}],"pages":16,"category":"all","index":[{"title":"2019 New Year Trip, Day 2 #5","description":null,"gpx":["track.gpx"],"date":"2019-12-31","id":"20191231","objects":[{"type":"video","img":"20191231-d1-e1","youtubeId":"XukF5bA7Vu4","timestamp":0,"lat":36.884331,"lng":-121.826862},{"type":"video","img":"20191231-d1-e2","youtubeId":"B_g57DFX67w","timestamp":0,"lat":36.882982,"lng":-121.828021}],"time":49181000,"distance":143027.10554936973,"uphill":1569,"pointCount":736,"tags":[],"categories":["all","with-pictures"]},{"title":"2019 New Year Trip, Day 1 #4","description":null,"gpx":["track.gpx"],"date":"2019-12-30","id":"20191230","objects":[{"type":"video","img":"20191230-d1-e1","youtubeId":"_A7Hw6lRpJo","timestamp":0,"lat":37.358256,"lng":-122.031376},{"type":"video","img":"20191230-d1-e11","youtubeId":"ja4aEcJPbJc","timestamp":0,"lat":36.972335,"lng":-121.912292},{"type":"video","img":"20191230-d1-e12","youtubeId":"yOwItIDstAw","timestamp":0,"lat":36.969258,"lng":-121.903186},{"type":"video","img":"20191230-d1-e4","youtubeId":"6D-ISuoCQk8","timestamp":0,"lat":37.146962,"lng":-121.973965},{"type":"video","img":"20191230-d1-e8","youtubeId":"17I4BLNUhRA","timestamp":0,"lat":37.134373,"lng":-121.964709},{"type":"video","img":"20191230-d1-e9","youtubeId":"6O8bJ27iBpE","timestamp":0,"lat":37.120377,"lng":-121.928881}],"time":25554000,"distance":75124.85037989946,"uphill":466,"pointCount":349,"tags":[],"categories":["all","with-pictures"]}]},"__N_SSG":true}