{"pageProps":{"siteDescription":"Description of local dev version","siteTitle":"Local dev version","currentPage":"2","categories":[{"id":"all","title":"All","count":31},{"id":"with-pictures","title":"With pictures or videos","count":15}],"pages":16,"category":"all","index":[{"title":"To Seattle #29","description":"Day 13","gpx":["track.gpx"],"date":"2021-05-27","id":"20210527","objects":[{"type":"image","img":"20210527-photo0","timestamp":0,"lat":47.0364908,"lng":-122.90060517},{"type":"image","img":"20210527-photo1","timestamp":0,"lat":47.0364908,"lng":-122.90060517}],"time":33831000,"distance":94318.09823864975,"uphill":188,"pointCount":490,"tags":[],"categories":["all","with-pictures"]},{"title":"To Seattle #28","description":"Day 12","gpx":["track.gpx"],"date":"2021-05-26","id":"20210526","objects":[],"time":40591000,"distance":126467.43288342013,"uphill":317,"pointCount":613,"tags":[],"categories":["all"]}]},"__N_SSG":true}