{"pageProps":{"siteDescription":"Description of local dev version","siteTitle":"Local dev version","currentPage":"11","categories":[{"id":"all","title":"All","count":69},{"id":"with-pictures","title":"With pictures or videos","count":49},{"id":"ToTheEastCoast","title":"ToTheEastCoast","count":38},{"id":"recumbent","title":"recumbent","count":38}],"pages":19,"category":"recumbent","index":[{"title":"Daily ride 2022-05-20 #49","description":"Day 18. Nebraska. Tent.","tags":["recumbent","ToTheEastCoast"],"gpx":["track.gpx"],"date":"2022-05-20","hash":["a73d4d9552ffb91db20a1743dc856f7435e92d1138ebfbdc2db68ab36b84b9ef"],"id":"20220520","objects":[{"type":"image","img":"20220520-photo0","timestamp":1653037369000,"lat":40.29591666666666,"lng":-99.89758055555556},{"type":"image","img":"20220520-photo1","timestamp":1653038324000,"lat":40.30579722222222,"lng":-99.88367500000001},{"type":"image","img":"20220520-photo2","timestamp":1653070759000,"lat":40.56795833333334,"lng":-98.75800833333334},{"type":"image","img":"20220520-photo3","timestamp":1653074219000,"lat":40.567863888888894,"lng":-98.58050277777778},{"type":"image","img":"20220520-photo4","timestamp":1653074219000,"lat":40.567863888888894,"lng":-98.58050277777778},{"type":"image","img":"20220520-photo5","timestamp":1653074223000,"lat":40.567863888888894,"lng":-98.58050277777778},{"type":"image","img":"20220520-photo6","timestamp":1653074223000,"lat":40.567863888888894,"lng":-98.58050277777778},{"type":"image","img":"20220520-photo7","timestamp":1653074752000,"lat":40.56830277777778,"lng":-98.55937777777777},{"type":"image","img":"20220520-photo8","timestamp":1653074752000,"lat":40.56830277777778,"lng":-98.55937777777777}],"time":38451000,"distance":152107.46431764166,"uphill":146,"pointCount":355,"categories":["all","recumbent","ToTheEastCoast","with-pictures"]},{"title":"Daily ride 2022-05-19 #48","description":"Day 17. Kansas. Tent.","tags":["recumbent","ToTheEastCoast"],"gpx":["track.gpx"],"date":"2022-05-19","hash":["7be648093aa0babe014e12d6c308988c8926be6dfb71dd869cbfdc376e115e1f"],"id":"20220519","objects":[{"type":"image","img":"20220519-photo0","timestamp":1652943719000,"lat":39.75846666666666,"lng":-101.73026666666667},{"type":"image","img":"20220519-photo1","timestamp":1652948383000,"lat":39.75626388888889,"lng":-101.53387777777778},{"type":"image","img":"20220519-photo2","timestamp":1652958272000,"lat":39.813044444444444,"lng":-101.04290277777777},{"type":"image","img":"20220519-photo3","timestamp":1652958308000,"lat":39.81307222222222,"lng":-101.04288333333334},{"type":"image","img":"20220519-photo4","timestamp":1652970473000,"lat":39.828700000000005,"lng":-100.62375555555555},{"type":"image","img":"20220519-photo5","timestamp":1652972453000,"lat":39.82807777777778,"lng":-100.52901666666666},{"type":"image","img":"20220519-photo6","timestamp":1652972735000,"lat":39.82794166666667,"lng":-100.52573888888888},{"type":"image","img":"20220519-photo7","timestamp":1652977603000,"lat":39.82801666666667,"lng":-100.30571666666667},{"type":"image","img":"20220519-photo8","timestamp":1652987160000,"lat":39.838861111111115,"lng":-99.88251944444444},{"type":"image","img":"20220519-photo9","timestamp":1652988975000,"lat":39.844572222222226,"lng":-99.88870277777778},{"type":"image","img":"20220519-photo10","timestamp":1652992104000,"lat":40.00188611111111,"lng":-99.89072222222222},{"type":"image","img":"20220519-photo11","timestamp":1652992354000,"lat":40.00293333333333,"lng":-99.89062222222223}],"time":47046000,"distance":196987.6345886426,"uphill":429,"pointCount":445,"categories":["all","recumbent","ToTheEastCoast","with-pictures"]}]},"__N_SSG":true}