{"pageProps":{"siteDescription":"Description of local dev version","siteTitle":"Local dev version","currentPage":"6","categories":[{"id":"all","title":"All","count":69},{"id":"with-pictures","title":"With pictures or videos","count":49},{"id":"ToTheEastCoast","title":"ToTheEastCoast","count":38},{"id":"recumbent","title":"recumbent","count":38}],"pages":19,"category":"recumbent","index":[{"title":"Daily ride 2022-05-30 #59","description":"Day 28. Michigan. Tent.","tags":["recumbent","ToTheEastCoast"],"gpx":["track.gpx"],"date":"2022-05-30","hash":["f1c7fca54079a7b7d19106f604f0384631c6b5680763ec0d8e2268971f7262f0"],"id":"20220530","objects":[],"time":41274000,"distance":164155.33289892867,"uphill":498,"pointCount":375,"categories":["all","recumbent","ToTheEastCoast"]},{"title":"Daily ride 2022-05-29 #58","description":"Day 27. Michigan. Tent.","tags":["recumbent","ToTheEastCoast"],"gpx":["track.gpx"],"date":"2022-05-29","hash":["d38a5707b0b7a3b31f3069a0d75676b08d7c122c215238af7906e1dbccc7984e"],"id":"20220529","objects":[{"type":"image","img":"20220529-photo0","timestamp":1653812695000,"lat":41.94282777777777,"lng":-86.45843611111111},{"type":"image","img":"20220529-photo1","timestamp":1653828915000,"lat":41.911702777777776,"lng":-86.03486944444444},{"type":"image","img":"20220529-photo2","timestamp":1653829480000,"lat":41.91150555555556,"lng":-86.01335555555555},{"type":"image","img":"20220529-photo3","timestamp":1653829484000,"lat":41.91150555555556,"lng":-86.01335555555555},{"type":"image","img":"20220529-photo4","timestamp":1653836581000,"lat":41.925863888888884,"lng":-85.82668333333334},{"type":"image","img":"20220529-photo5","timestamp":1653836643000,"lat":41.92652222222222,"lng":-85.82271944444445},{"type":"image","img":"20220529-photo6","timestamp":1653836978000,"lat":41.92561388888889,"lng":-85.80920833333333},{"type":"image","img":"20220529-photo7","timestamp":1653838247000,"lat":41.925758333333334,"lng":-85.76819722222223},{"type":"image","img":"20220529-photo8","timestamp":1653847525000,"lat":42.00709722222222,"lng":-85.45418055555555},{"type":"image","img":"20220529-photo9","timestamp":1653853100000,"lat":42.06168611111111,"lng":-85.24485555555556}],"time":44627000,"distance":151374.80031650246,"uphill":696,"pointCount":392,"categories":["all","recumbent","ToTheEastCoast","with-pictures"]}]},"__N_SSG":true}