{"pageProps":{"siteDescription":"Collection of my favorite bike and walking tracks.","siteTitle":"Favorite Bike Tracks","currentPage":"2","categories":[{"id":"all","title":"All","count":70},{"id":"with-pictures","title":"With pictures or videos","count":49},{"id":"ToTheEastCoast","title":"ToTheEastCoast","count":39},{"id":"recumbent","title":"recumbent","count":38}],"pages":2,"category":"all","index":[{"title":"To Seattle #20","description":"Day 4. Tire corruption on a gravel road, uphill to 1km","gpx":["track.gpx"],"date":"2021-05-18","id":"20210518","objects":[{"type":"image","img":"20210518-photo0","timestamp":0,"lat":39.92752181,"lng":-122.19744308},{"type":"image","img":"20210518-photo1","timestamp":0,"lat":40.32373763,"lng":-122.06458669},{"type":"image","img":"20210518-photo2","timestamp":0,"lat":40.40477011,"lng":-121.99178789}],"time":40110000,"distance":93685.80922221683,"uphill":931,"pointCount":595,"tags":[],"categories":["all","with-pictures"]},{"title":"To Seattle #19","description":"Day 3","gpx":["track.gpx"],"date":"2021-05-17","id":"20210517","objects":[{"type":"image","img":"20210517-photo0","timestamp":0,"lat":39.19328415,"lng":-121.65996399},{"type":"image","img":"20210517-photo1","timestamp":0,"lat":39.48258734,"lng":-121.74478026}],"time":47750000,"distance":161376.7420239237,"uphill":67,"pointCount":711,"tags":[],"categories":["all","with-pictures"]},{"title":"To Seattle #18","description":"Day 2. To Sacromento","gpx":["track.gpx"],"date":"2021-05-16","id":"20210516","objects":[{"type":"image","img":"20210516-photo0","timestamp":0,"lat":38.1867639,"lng":-121.66270979},{"type":"image","img":"20210516-photo1","timestamp":0,"lat":38.20472719,"lng":-121.65515269},{"type":"image","img":"20210516-photo2","timestamp":0,"lat":38.20683203,"lng":-121.65580372},{"type":"image","img":"20210516-photo3","timestamp":0,"lat":38.25058253,"lng":-121.65613333},{"type":"image","img":"20210516-photo4","timestamp":0,"lat":38.25416576,"lng":-121.65513972},{"type":"image","img":"20210516-photo5","timestamp":0,"lat":38.55769554,"lng":-121.53046108},{"type":"image","img":"20210516-photo6","timestamp":0,"lat":38.90893669,"lng":-121.57114766}],"time":35942000,"distance":118502.16533537605,"uphill":60,"pointCount":540,"tags":[],"categories":["all","with-pictures"]},{"title":"To Seattle, All 15 days #17","description":null,"gpx":["track1.gpx","track2.gpx","track3.gpx","track4.gpx","track5.gpx","track6.gpx","track7.gpx","track8.gpx","track9.gpx","track10.gpx","track11.gpx","track12.gpx","track13.gpx","track14.gpx","track15.gpx"],"date":"2021-05-15","id":"20210529-all","objects":[],"time":595284000,"distance":1787670.8965024275,"uphill":8552,"pointCount":8885,"tags":[],"categories":["all"]},{"title":"To Seattle #16","description":"Day 1. The first day wasn't lucky I spent 4 patches for flatten tire","gpx":["track.gpx"],"date":"2021-05-15","id":"20210515","objects":[{"type":"image","img":"20210515-photo0","timestamp":0,"lat":37.30109975,"lng":-122.01097021},{"type":"image","img":"20210515-photo1","timestamp":0,"lat":37.58916038,"lng":-121.95792147}],"time":45611000,"distance":153486.16847696507,"uphill":314,"pointCount":708,"tags":[],"categories":["all","with-pictures"]},{"title":"To The Ocean with The Son #15","description":"The most longest and durable ride with my son on this moment to the ocean coast near by Santa Cruz. We got a tent and took overnight on the coast.","gpx":["track.gpx"],"date":"2021-01-09","id":"20210109","objects":[],"time":25064000,"distance":56213.88462738025,"uphill":504,"pointCount":342,"tags":[],"categories":["all"]},{"title":"San Francisco to Los Angeles, Day 6 of 6 #14","description":"Unfortunately afternoon my wife caught me in Oxnard a little before Los Angeles but I swear that I would get Malibu before sunset if would have more time","gpx":["track.gpx"],"date":"2020-10-08","id":"20201008","objects":[],"time":19592000,"distance":63030.776926914565,"uphill":0,"pointCount":298,"tags":[],"categories":["all"]},{"title":"San Francisco to Los Angeles, Day 5 of 6 #13","description":"In Santa Barbara I became so lazy that just slept in sleeping bag between the railroad and a some beach without setting up of the tent","gpx":["track.gpx"],"date":"2020-10-07","id":"20201007","objects":[],"time":48417000,"distance":119789.55344939276,"uphill":197,"pointCount":721,"tags":[],"categories":["all"]},{"title":"San Francisco to Los Angeles, Day 4 of 6 #12","description":"In this day I spent $70 for a motel room and shower, I think it is the most expensive day during of the trip","gpx":["track.gpx"],"date":"2020-10-06","id":"20201006","objects":[],"time":45612000,"distance":118184.91990313253,"uphill":539,"pointCount":642,"tags":[],"categories":["all"]},{"title":"San Francisco to Los Angeles, Day 3 of 6 #11","description":"The cheapest way to overnight is a tent which is on a road shoulder again","gpx":["track.gpx"],"date":"2020-10-05","id":"20201005","objects":[],"time":37864000,"distance":102088.73735676476,"uphill":493,"pointCount":571,"tags":[],"categories":["all"]},{"title":"San Francisco to Los Angeles, Day 2 of 6 #10","description":"The most longest day of the trip. In this day I had no luck to find any opened camping (for different reason, some of them was closed because of COVID and the last one was closed because it was too late) and I just overnight on a shoulder.","gpx":["track.gpx"],"date":"2020-10-04","id":"20201004","objects":[],"time":54406000,"distance":156596.89795408354,"uphill":601,"pointCount":806,"tags":[],"categories":["all"]},{"title":"San Francisco to Los Angeles, All 6 Days #9","description":"The first long journey after COVID lockdown, in the case, the goal is to reach Los Angeles.","gpx":["track1.gpx","track2.gpx","track3.gpx","track4.gpx","track5.gpx","track6.gpx"],"date":"2020-10-03","id":"20201003-all","objects":[],"time":232528000,"distance":635776.4377180738,"uphill":2709,"pointCount":3409,"tags":[],"categories":["all"]},{"title":"San Francisco to Los Angeles, Day 1 of 6 #8","description":"The first long journey after COVID lockdown, in the case, the goal is to reach Los Angeles. In the end of the day I stayed in Sunset State Beach Campground which has surprisingly opened","gpx":["track.gpx"],"date":"2020-10-03","id":"20201003","objects":[],"time":26637000,"distance":73939.28495378513,"uphill":845,"pointCount":371,"tags":[],"categories":["all"]},{"title":"Around the Bay #7","description":"In fact, it was 225 km for 16 hours approximately. The next increasing daily distance is possible only for increasing average speed and reducing navigation time","gpx":["track.gpx"],"date":"2020-01-19","id":"20200119","objects":[{"type":"video","img":"20200119-e01","youtubeId":"M3b-awmlwPo","timestamp":0,"lat":37.418892,"lng":-122.068846},{"type":"video","img":"20200119-e02","youtubeId":"iGJs_mebwR0","timestamp":0,"lat":37.498277,"lng":-122.129517},{"type":"video","img":"20200119-e03","youtubeId":"-QmPSswgI_k","timestamp":0,"lat":37.50174,"lng":-122.124405},{"type":"video","img":"20200119-e04","youtubeId":"oxNSr7QdJ7s","timestamp":0,"lat":37.532813,"lng":-122.074315},{"type":"video","img":"20200119-e05","youtubeId":"5bdX3a7Supg","timestamp":0,"lat":37.633878,"lng":-122.152371},{"type":"video","img":"20200119-e06","youtubeId":"LB1vycQ2TvM","timestamp":0,"lat":37.665951,"lng":-122.16081},{"type":"video","img":"20200119-e07","youtubeId":"7l8yg2H2A2A","timestamp":0,"lat":37.644555,"lng":-122.153894},{"type":"video","img":"20200119-e08","youtubeId":"M7d2OHUi6gw","timestamp":0,"lat":37.671491,"lng":-122.162008},{"type":"video","img":"20200119-e09","youtubeId":"u9Pl1-olrjw","timestamp":0,"lat":37.729454,"lng":-122.20691},{"type":"video","img":"20200119-e10","youtubeId":"ATnF0cM8XCQ","timestamp":0,"lat":37.733401,"lng":-122.211404}],"time":57818000,"distance":210811.23088367286,"uphill":89,"pointCount":895,"tags":[],"categories":["all","with-pictures"]},{"title":"Family Triple Tandem Ride To Stanford #6","description":null,"gpx":["track.gpx"],"date":"2020-01-05","id":"20200105","objects":[],"time":13752000,"distance":40255.62231448085,"uphill":110,"pointCount":182,"tags":[],"categories":["all"]},{"title":"2019 New Year Trip, Day 2 #5","description":null,"gpx":["track.gpx"],"date":"2019-12-31","id":"20191231","objects":[{"type":"video","img":"20191231-d1-e1","youtubeId":"XukF5bA7Vu4","timestamp":0,"lat":36.884331,"lng":-121.826862},{"type":"video","img":"20191231-d1-e2","youtubeId":"B_g57DFX67w","timestamp":0,"lat":36.882982,"lng":-121.828021}],"time":49181000,"distance":143027.10554936973,"uphill":1569,"pointCount":736,"tags":[],"categories":["all","with-pictures"]},{"title":"2019 New Year Trip, Day 1 #4","description":null,"gpx":["track.gpx"],"date":"2019-12-30","id":"20191230","objects":[{"type":"video","img":"20191230-d1-e1","youtubeId":"_A7Hw6lRpJo","timestamp":0,"lat":37.358256,"lng":-122.031376},{"type":"video","img":"20191230-d1-e11","youtubeId":"ja4aEcJPbJc","timestamp":0,"lat":36.972335,"lng":-121.912292},{"type":"video","img":"20191230-d1-e12","youtubeId":"yOwItIDstAw","timestamp":0,"lat":36.969258,"lng":-121.903186},{"type":"video","img":"20191230-d1-e4","youtubeId":"6D-ISuoCQk8","timestamp":0,"lat":37.146962,"lng":-121.973965},{"type":"video","img":"20191230-d1-e8","youtubeId":"17I4BLNUhRA","timestamp":0,"lat":37.134373,"lng":-121.964709},{"type":"video","img":"20191230-d1-e9","youtubeId":"6O8bJ27iBpE","timestamp":0,"lat":37.120377,"lng":-121.928881}],"time":25554000,"distance":75124.85037989946,"uphill":466,"pointCount":349,"tags":[],"categories":["all","with-pictures"]},{"title":"Black Moutain Trip, Day 2 #3","description":"The trip to Black Moutain (Los Altos, CA) with Iakov, 800m above mean sea level","gpx":["track.gpx"],"date":"2019-12-22","id":"20191222","objects":[],"time":7114000,"distance":22021.244054975807,"uphill":170,"pointCount":104,"tags":[],"categories":["all"]},{"title":"Black Moutain Trip, Day 1 #2","description":"The trip to Black Moutain (Los Altos, CA) with Iakov, 800m above mean sea level","gpx":["track.gpx"],"date":"2019-12-21","id":"20191221","objects":[],"time":15626000,"distance":25448.57976918434,"uphill":878,"pointCount":222,"tags":[],"categories":["all"]},{"title":"Recumbent Bike Climbing #1","description":"First serious uphill (700m) with the recumbent bike","gpx":["track.gpx"],"date":"2019-12-08","id":"20191208","objects":[{"type":"image","img":"20191208-photo1","timestamp":0,"lat":37.342971,"lng":-121.71584}],"time":23651000,"distance":73110.94079645569,"uphill":445,"pointCount":335,"tags":[],"categories":["all","with-pictures"]}]},"__N_SSG":true}