{"pageProps":{"siteDescription":"Description of local dev version","siteTitle":"Local dev version","currentPage":"1","categories":[{"id":"all","title":"All","count":69},{"id":"with-pictures","title":"With pictures or videos","count":49},{"id":"ToTheEastCoast","title":"ToTheEastCoast","count":38},{"id":"recumbent","title":"recumbent","count":38}],"pages":35,"category":"all","index":[{"title":"Daily ride 2022-06-10 #69","description":"Day 39. New York. Motel. The End.","tags":["recumbent","ToTheEastCoast"],"gpx":["track.gpx"],"date":"2022-06-10","hash":["60c8389cdd5881629c147dbb01dba4417ebe16efd90ca5b69dbd26d80d3b9b9d"],"id":"20220610","objects":[{"type":"image","img":"20220610-photo0","timestamp":1654851572000,"lat":41.41641666666666,"lng":-73.39680555555556},{"type":"image","img":"20220610-photo1","timestamp":1654866930000,"lat":41.08532777777778,"lng":-73.39336944444445},{"type":"image","img":"20220610-photo2","timestamp":1654866989000,"lat":41.085211111111114,"lng":-73.39266944444445},{"type":"image","img":"20220610-photo3","timestamp":1654867023000,"lat":41.085211111111114,"lng":-73.39266944444445},{"type":"image","img":"20220610-photo4","timestamp":1654867032000,"lat":41.085211111111114,"lng":-73.39266944444445},{"type":"image","img":"20220610-photo5","timestamp":1654872732000,"lat":41.09275,"lng":-73.45155833333334},{"type":"image","img":"20220610-photo6","timestamp":1654876321000,"lat":41.09274166666667,"lng":-73.45155555555556}],"time":20956000,"distance":52093.05387144306,"uphill":179,"pointCount":203,"categories":["all","recumbent","ToTheEastCoast","with-pictures"]},{"title":"Daily ride 2022-06-09 #68","description":"Day 38. New York, Connecticut. Tent.","tags":["recumbent","ToTheEastCoast"],"gpx":["track.gpx"],"date":"2022-06-09","hash":["d15f0affd3c1346c9ed0cbeaf8047c87c98b76048d6b8d7422ca42655584ddd6"],"id":"20220609","objects":[{"type":"image","img":"20220609-photo0","timestamp":1654770610000,"lat":41.99666111111111,"lng":-73.87434999999999},{"type":"image","img":"20220609-photo1","timestamp":1654772898000,"lat":41.963769444444445,"lng":-73.88598055555556},{"type":"image","img":"20220609-photo2","timestamp":1654793209000,"lat":41.632352777777776,"lng":-73.70737222222222},{"type":"image","img":"20220609-photo3","timestamp":1654798454000,"lat":41.55421944444444,"lng":-73.61642222222221},{"type":"image","img":"20220609-photo4","timestamp":1654799256000,"lat":41.53928888888889,"lng":-73.58446944444444},{"type":"image","img":"20220609-photo5","timestamp":1654801046000,"lat":41.496991666666666,"lng":-73.58137777777777},{"type":"image","img":"20220609-photo6","timestamp":1654801055000,"lat":41.49823333333333,"lng":-73.58146666666666},{"type":"image","img":"20220609-photo7","timestamp":1654805107000,"lat":41.43808055555555,"lng":-73.53744999999999},{"type":"image","img":"20220609-photo8","timestamp":1654806488000,"lat":41.41119444444444,"lng":-73.50737777777778},{"type":"image","img":"20220609-photo9","timestamp":1654806489000,"lat":41.41119444444444,"lng":-73.50737777777778},{"type":"image","img":"20220609-photo10","timestamp":1654810506000,"lat":41.416405555555556,"lng":-73.39678333333335},{"type":"image","img":"20220609-photo11","timestamp":1654810514000,"lat":41.416405555555556,"lng":-73.39678333333335}],"time":42325000,"distance":118042.23109726953,"uphill":790,"pointCount":385,"categories":["all","recumbent","ToTheEastCoast","with-pictures"]}]},"__N_SSG":true}