{"pageProps":{"siteDescription":"Description of local dev version","siteTitle":"Local dev version","currentPage":"18","categories":[{"id":"all","title":"All","count":69},{"id":"with-pictures","title":"With pictures or videos","count":49},{"id":"ToTheEastCoast","title":"ToTheEastCoast","count":38},{"id":"recumbent","title":"recumbent","count":38}],"pages":35,"category":"all","index":[{"title":"Daily ride 2022-05-06 #35","description":"Day 4. Nevada. Tent. Welcome To Nevada. High altitude, good state of roads,  and wind blowing to my back allowed me to reach a good average speed and  to ride more then 200 km. A huge advantage of Nevada is that the tent could be set up everywhere, all lands are not private (almost)","tags":["recumbent","ToTheEastCoast"],"gpx":["track.gpx"],"date":"2022-05-06","hash":["8281f4ab489d98c313385a85f46e80ebc6482f931199407f9945a7034218accd"],"id":"20220506","objects":[{"type":"image","img":"20220506-photo0","timestamp":1651817949000,"lat":38.76618333333333,"lng":-119.84521944444444},{"type":"image","img":"20220506-photo1","timestamp":1651819812000,"lat":38.766330555555555,"lng":-119.84539166666666},{"type":"image","img":"20220506-photo2","timestamp":1651823531000,"lat":38.91179722222222,"lng":-119.77914722222222},{"type":"image","img":"20220506-photo3","timestamp":1651826347000,"lat":38.96149722222223,"lng":-119.77846111111111},{"type":"image","img":"20220506-photo4","timestamp":1651840296000,"lat":39.370894444444446,"lng":-119.34840833333332},{"type":"image","img":"20220506-photo5","timestamp":1651840329000,"lat":39.371583333333334,"lng":-119.3463361111111},{"type":"image","img":"20220506-photo6","timestamp":1651843648000,"lat":39.44471944444444,"lng":-119.090775},{"type":"image","img":"20220506-photo7","timestamp":1651844089000,"lat":39.458125,"lng":-119.08259722222222},{"type":"image","img":"20220506-photo8","timestamp":1651853582000,"lat":39.46434166666667,"lng":-118.6809138888889},{"type":"image","img":"20220506-photo9","timestamp":1651858151000,"lat":39.29784166666666,"lng":-118.47068888888889},{"type":"image","img":"20220506-photo10","timestamp":1651862353000,"lat":39.27450555555556,"lng":-118.33212499999999},{"type":"image","img":"20220506-photo11","timestamp":1651869311000,"lat":39.29035833333333,"lng":-118.04748055555555}],"time":44910000,"distance":222641.2416935819,"uphill":679,"pointCount":407,"categories":["all","recumbent","ToTheEastCoast","with-pictures"]},{"title":"Daily ride 2022-05-05 #34","description":"Day 3. California. Tent. That was hard to climb to 2500m which is my personal record of altitude reached with a bicycle. It is not surprising that in the mountains were cold and windy. The wind was like a storm, I spent a lot of effort and 30 mins for setting the tent up.","tags":["ToTheEastCoast","recumbent"],"gpx":["track.gpx"],"date":"2022-05-05","hash":["989ffb2440fcd9f9e776e8c48bdebdd32a09f634514d82c1565fb615f0f94737"],"id":"20220505","objects":[{"type":"image","img":"20220505-photo0","timestamp":1651733012000,"lat":38.42216388888889,"lng":-120.64256111111112},{"type":"image","img":"20220505-photo1","timestamp":1651766373000,"lat":38.625125,"lng":-120.19748055555556},{"type":"image","img":"20220505-photo2","timestamp":1651767267000,"lat":38.63344722222222,"lng":-120.17670555555556},{"type":"image","img":"20220505-photo3","timestamp":1651767278000,"lat":38.63344722222222,"lng":-120.17670555555556},{"type":"image","img":"20220505-photo4","timestamp":1651768736000,"lat":38.63798333333333,"lng":-120.14455833333334},{"type":"image","img":"20220505-photo5","timestamp":1651768967000,"lat":38.641422222222225,"lng":-120.13631666666667},{"type":"image","img":"20220505-photo6","timestamp":1651768995000,"lat":38.64161388888889,"lng":-120.13640000000001},{"type":"image","img":"20220505-photo7","timestamp":1651774909000,"lat":38.70348333333334,"lng":-120.06341666666667}],"time":51184000,"distance":104500.68126188731,"uphill":2367,"pointCount":465,"categories":["all","ToTheEastCoast","recumbent","with-pictures"]}]},"__N_SSG":true}