{"pageProps":{"siteDescription":"Description of local dev version","siteTitle":"Local dev version","currentPage":"24","categories":[{"id":"all","title":"All","count":69},{"id":"with-pictures","title":"With pictures or videos","count":49},{"id":"ToTheEastCoast","title":"ToTheEastCoast","count":38},{"id":"recumbent","title":"recumbent","count":38}],"pages":35,"category":"all","index":[{"title":"To Seattle #23","description":"Day 7. In the morning my tent was frozen since temperature decreased less than 0 in the night. In the end of the day, 20 km before Klamath Falls I got a heavy rain in the border of Oregon and became totally wet. Also some kind of dust storm made me a little dirty.","gpx":["track.gpx"],"date":"2021-05-21","id":"20210521","objects":[],"time":42369000,"distance":114079.27649340169,"uphill":491,"pointCount":641,"tags":[],"categories":["all"]},{"title":"To Seattle #22","description":"Day 6. Rain, snow, and temperature is around 0 degree of celsius. 1.3-1.4km of elevation","gpx":["track.gpx"],"date":"2021-05-20","id":"20210520","objects":[{"type":"image","img":"20210520-photo0","timestamp":0,"lat":41.00256236,"lng":-121.44531857},{"type":"image","img":"20210520-photo1","timestamp":0,"lat":41.00534303,"lng":-121.43729829},{"type":"image","img":"20210520-photo2","timestamp":0,"lat":41.07115692,"lng":-121.33684643},{"type":"image","img":"20210520-photo3","timestamp":0,"lat":41.08687463,"lng":-121.26697521},{"type":"image","img":"20210520-photo4","timestamp":0,"lat":41.08503319,"lng":-121.26646791},{"type":"image","img":"20210520-photo5","timestamp":0,"lat":41.05999878,"lng":-121.2167708},{"type":"image","img":"20210520-photo6","timestamp":0,"lat":41.19064884,"lng":-120.9443114},{"type":"image","img":"20210520-photo7","timestamp":0,"lat":41.19064884,"lng":-120.9443114},{"type":"image","img":"20210520-photo8","timestamp":0,"lat":41.22849309,"lng":-120.92124541},{"type":"image","img":"20210520-photo9","timestamp":0,"lat":41.2881427,"lng":-120.89120322}],"time":46075000,"distance":107626.39099234238,"uphill":627,"pointCount":689,"tags":[],"categories":["all","with-pictures"]}]},"__N_SSG":true}