{"pageProps":{"siteDescription":"Description of local dev version","siteTitle":"Local dev version","currentPage":"27","categories":[{"id":"all","title":"All","count":69},{"id":"with-pictures","title":"With pictures or videos","count":49},{"id":"ToTheEastCoast","title":"ToTheEastCoast","count":38},{"id":"recumbent","title":"recumbent","count":38}],"pages":35,"category":"all","index":[{"title":"To Seattle, All 15 days #17","description":null,"gpx":["track1.gpx","track2.gpx","track3.gpx","track4.gpx","track5.gpx","track6.gpx","track7.gpx","track8.gpx","track9.gpx","track10.gpx","track11.gpx","track12.gpx","track13.gpx","track14.gpx","track15.gpx"],"date":"2021-05-15","id":"20210515-all","objects":[],"time":595284000,"distance":1787670.8965024275,"uphill":8552,"pointCount":8885,"tags":[],"categories":["all"]},{"title":"To Seattle #16","description":"Day 1. The first day wasn't lucky I spent 4 patches for flatten tire","gpx":["track.gpx"],"date":"2021-05-15","id":"20210515","objects":[{"type":"image","img":"20210515-photo0","timestamp":0,"lat":37.30109975,"lng":-122.01097021},{"type":"image","img":"20210515-photo1","timestamp":0,"lat":37.58916038,"lng":-121.95792147}],"time":45611000,"distance":153486.16847696507,"uphill":314,"pointCount":708,"tags":[],"categories":["all","with-pictures"]}]},"__N_SSG":true}