{"pageProps":{"siteDescription":"Description of local dev version","siteTitle":"Local dev version","currentPage":"28","categories":[{"id":"all","title":"All","count":69},{"id":"with-pictures","title":"With pictures or videos","count":49},{"id":"ToTheEastCoast","title":"ToTheEastCoast","count":38},{"id":"recumbent","title":"recumbent","count":38}],"pages":35,"category":"all","index":[{"title":"To The Ocean with The Son #15","description":"The most longest and durable ride with my son on this moment to the ocean coast near by Santa Cruz. We got a tent and took overnight on the coast.","gpx":["track.gpx"],"date":"2021-01-09","id":"20210109","objects":[],"time":25064000,"distance":56213.88462738025,"uphill":504,"pointCount":342,"tags":[],"categories":["all"]},{"title":"San Francisco to Los Angeles, Day 6 of 6 #14","description":"Unfortunately afternoon my wife caught me in Oxnard a little before Los Angeles but I swear that I would get Malibu before sunset if would have more time","gpx":["track.gpx"],"date":"2020-10-08","id":"20201008","objects":[],"time":19592000,"distance":63030.776926914565,"uphill":0,"pointCount":298,"tags":[],"categories":["all"]}]},"__N_SSG":true}