{"pageProps":{"siteDescription":"Description of local dev version","siteTitle":"Local dev version","currentPage":"29","categories":[{"id":"all","title":"All","count":69},{"id":"with-pictures","title":"With pictures or videos","count":49},{"id":"ToTheEastCoast","title":"ToTheEastCoast","count":38},{"id":"recumbent","title":"recumbent","count":38}],"pages":35,"category":"all","index":[{"title":"San Francisco to Los Angeles, Day 5 of 6 #13","description":"In Santa Barbara I became so lazy that just slept in sleeping bag between the railroad and a some beach without setting up of the tent","gpx":["track.gpx"],"date":"2020-10-07","id":"20201007","objects":[],"time":48417000,"distance":119789.55344939276,"uphill":197,"pointCount":721,"tags":[],"categories":["all"]},{"title":"San Francisco to Los Angeles, Day 4 of 6 #12","description":"In this day I spent $70 for a motel room and shower, I think it is the most expensive day during of the trip","gpx":["track.gpx"],"date":"2020-10-06","id":"20201006","objects":[],"time":45612000,"distance":118184.91990313253,"uphill":539,"pointCount":642,"tags":[],"categories":["all"]}]},"__N_SSG":true}