{"pageProps":{"siteDescription":"Description of local dev version","siteTitle":"Local dev version","currentPage":"30","categories":[{"id":"all","title":"All","count":69},{"id":"with-pictures","title":"With pictures or videos","count":49},{"id":"ToTheEastCoast","title":"ToTheEastCoast","count":38},{"id":"recumbent","title":"recumbent","count":38}],"pages":35,"category":"all","index":[{"title":"San Francisco to Los Angeles, Day 3 of 6 #11","description":"The cheapest way to overnight is a tent which is on a road shoulder again","gpx":["track.gpx"],"date":"2020-10-05","id":"20201005","objects":[],"time":37864000,"distance":102088.73735676476,"uphill":493,"pointCount":571,"tags":[],"categories":["all"]},{"title":"San Francisco to Los Angeles, Day 2 of 6 #10","description":"The most longest day of the trip. In this day I had no luck to find any opened camping (for different reason, some of them was closed because of COVID and the last one was closed because it was too late) and I just overnight on a shoulder.","gpx":["track.gpx"],"date":"2020-10-04","id":"20201004","objects":[],"time":54406000,"distance":156596.89795408354,"uphill":601,"pointCount":806,"tags":[],"categories":["all"]}]},"__N_SSG":true}