{"pageProps":{"siteDescription":"Description of local dev version","siteTitle":"Local dev version","currentPage":"34","categories":[{"id":"all","title":"All","count":69},{"id":"with-pictures","title":"With pictures or videos","count":49},{"id":"ToTheEastCoast","title":"ToTheEastCoast","count":38},{"id":"recumbent","title":"recumbent","count":38}],"pages":35,"category":"all","index":[{"title":"Black Moutain Trip, Day 2 #3","description":"The trip to Black Moutain (Los Altos, CA) with Iakov, 800m above mean sea level","gpx":["track.gpx"],"date":"2019-12-22","id":"20191222","objects":[],"time":7114000,"distance":22021.244054975807,"uphill":170,"pointCount":104,"tags":[],"categories":["all"]},{"title":"Black Moutain Trip, Day 1 #2","description":"The trip to Black Moutain (Los Altos, CA) with Iakov, 800m above mean sea level","gpx":["track.gpx"],"date":"2019-12-21","id":"20191221","objects":[],"time":15626000,"distance":25448.57976918434,"uphill":878,"pointCount":222,"tags":[],"categories":["all"]}]},"__N_SSG":true}