{"pageProps":{"siteDescription":"Description of local dev version","siteTitle":"Local dev version","currentPage":"10","categories":[{"id":"all","title":"All","count":70},{"id":"with-pictures","title":"With pictures or videos","count":49},{"id":"ToTheEastCoast","title":"ToTheEastCoast","count":39},{"id":"recumbent","title":"recumbent","count":38}],"pages":19,"category":"recumbent","index":[{"title":"Daily ride 2022-05-22 #52","description":"Day 20. Nebraska, Iowa. Motel. Welcome to Iowa.","tags":["recumbent","ToTheEastCoast"],"gpx":["track.gpx"],"date":"2022-05-22","hash":["4e0404ee11ab24eb68018d6df7b34b1af5d8612069f65a9b4ff9bd8178c0035b"],"id":"20220522","objects":[{"type":"image","img":"20220522-photo0","timestamp":1653216630000,"lat":41.051713888888884,"lng":-96.33836388888888},{"type":"image","img":"20220522-photo1","timestamp":1653228215000,"lat":41.212872222222224,"lng":-96.11709722222221},{"type":"image","img":"20220522-photo2","timestamp":1653236259000,"lat":41.245175,"lng":-95.98010000000001},{"type":"image","img":"20220522-photo3","timestamp":1653237404000,"lat":41.25386388888889,"lng":-95.94691111111112},{"type":"image","img":"20220522-photo4","timestamp":1653237491000,"lat":41.25622777777778,"lng":-95.9462388888889},{"type":"image","img":"20220522-photo5","timestamp":1653237733000,"lat":41.25651388888889,"lng":-95.937425},{"type":"image","img":"20220522-photo6","timestamp":1653238840000,"lat":41.266416666666665,"lng":-95.92358055555556},{"type":"image","img":"20220522-photo7","timestamp":1653238851000,"lat":41.266416666666665,"lng":-95.92358055555556},{"type":"image","img":"20220522-photo8","timestamp":1653239134000,"lat":41.26618611111111,"lng":-95.9243888888889},{"type":"image","img":"20220522-photo9","timestamp":1653239322000,"lat":41.26329166666667,"lng":-95.91763055555556},{"type":"image","img":"20220522-photo10","timestamp":1653239340000,"lat":41.26329166666667,"lng":-95.91763055555556},{"type":"image","img":"20220522-photo11","timestamp":1653239933000,"lat":41.250483333333335,"lng":-95.91640000000001}],"time":47864000,"distance":169977.07834040688,"uphill":341,"pointCount":520,"categories":["all","recumbent","ToTheEastCoast","with-pictures"]},{"title":"Daily ride 2022-05-21 #51","description":"Day 19. Nebraska. Motel. Reached the capital of Nebraska.","tags":["recumbent","ToTheEastCoast"],"gpx":["track.gpx"],"date":"2022-05-21","hash":["c414ef7a264f8611228235c807e49831f9b375ecd026b6ee79d61f4c0d644482"],"id":"20220521","objects":[{"type":"image","img":"20220521-photo0","timestamp":1653127705000,"lat":40.58260277777778,"lng":-98.05909444444444},{"type":"image","img":"20220521-photo1","timestamp":1653138907000,"lat":40.63652222222222,"lng":-97.58917222222222},{"type":"image","img":"20220521-photo2","timestamp":1653152086000,"lat":40.6487,"lng":-96.93114444444446},{"type":"image","img":"20220521-photo3","timestamp":1653152091000,"lat":40.65223888888889,"lng":-96.91649166666667},{"type":"image","img":"20220521-photo4","timestamp":1653154169000,"lat":40.68438611111111,"lng":-96.85705277777777},{"type":"image","img":"20220521-photo5","timestamp":1653155634000,"lat":40.73502777777778,"lng":-96.85381944444444},{"type":"image","img":"20220521-photo6","timestamp":1653156220000,"lat":40.74124444444445,"lng":-96.83669722222221},{"type":"image","img":"20220521-photo7","timestamp":1653161121000,"lat":40.809075,"lng":-96.70100555555555},{"type":"image","img":"20220521-photo8","timestamp":1653161187000,"lat":40.809127777777775,"lng":-96.69981944444444},{"type":"image","img":"20220521-photo9","timestamp":1653161228000,"lat":40.80949444444444,"lng":-96.69970555555555}],"time":44989000,"distance":176038.40616243187,"uphill":509,"pointCount":439,"categories":["all","recumbent","ToTheEastCoast","with-pictures"]}]},"__N_SSG":true}