{"pageProps":{"siteDescription":"Description of local dev version","siteTitle":"Local dev version","currentPage":"9","categories":[{"id":"all","title":"All","count":70},{"id":"with-pictures","title":"With pictures or videos","count":49},{"id":"ToTheEastCoast","title":"ToTheEastCoast","count":39},{"id":"recumbent","title":"recumbent","count":38}],"pages":19,"category":"recumbent","index":[{"title":"Daily ride 2022-05-24 #54","description":"Day 22. Iowa. Motel.","tags":["recumbent","ToTheEastCoast"],"gpx":["track.gpx"],"date":"2022-05-24","hash":["dcfb7f67a53051591789b85867714ff0c9688bd9dc9d0a54e52fcdc643bf2663"],"id":"20220524","objects":[{"type":"image","img":"20220524-photo0","timestamp":1653389341000,"lat":41.56641388888889,"lng":-93.66411111111111},{"type":"image","img":"20220524-photo1","timestamp":1653389344000,"lat":41.56641388888889,"lng":-93.66411111111111},{"type":"image","img":"20220524-photo2","timestamp":1653391014000,"lat":41.57463055555556,"lng":-93.63650833333334},{"type":"image","img":"20220524-photo3","timestamp":1653391709000,"lat":41.58133611111111,"lng":-93.62435277777777},{"type":"image","img":"20220524-photo4","timestamp":1653391871000,"lat":41.58370555555556,"lng":-93.62372777777777},{"type":"image","img":"20220524-photo5","timestamp":1653391978000,"lat":41.585975000000005,"lng":-93.62432222222222},{"type":"image","img":"20220524-photo6","timestamp":1653392005000,"lat":41.58614444444445,"lng":-93.62345833333333},{"type":"image","img":"20220524-photo7","timestamp":1653392884000,"lat":41.590275000000005,"lng":-93.60787222222221},{"type":"image","img":"20220524-photo8","timestamp":1653393226000,"lat":41.59134166666667,"lng":-93.60751111111111}],"time":55717000,"distance":155317.60356426888,"uphill":1230,"pointCount":460,"categories":["all","recumbent","ToTheEastCoast","with-pictures"]},{"title":"Daily ride 2022-05-23 #53","description":"Day 21. Iowa. Tent. Iowa is the state of hills.","tags":["recumbent","ToTheEastCoast"],"gpx":["track.gpx"],"date":"2022-05-23","hash":["4c08d682b095b9bb71400dd638fec7695fc86b31cf33d00c88c5b991c5b221ac"],"id":"20220523","objects":[{"type":"image","img":"20220523-photo0","timestamp":1653290451000,"lat":41.648288888888885,"lng":-95.46111944444445},{"type":"image","img":"20220523-photo1","timestamp":1653290465000,"lat":41.648241666666664,"lng":-95.4611},{"type":"image","img":"20220523-photo2","timestamp":1653290493000,"lat":41.648241666666664,"lng":-95.4611},{"type":"image","img":"20220523-photo3","timestamp":1653291820000,"lat":41.64832222222222,"lng":-95.46115555555556},{"type":"image","img":"20220523-photo4","timestamp":1653291831000,"lat":41.64832222222222,"lng":-95.46115555555556},{"type":"image","img":"20220523-photo5","timestamp":1653292120000,"lat":41.645922222222225,"lng":-95.45975},{"type":"image","img":"20220523-photo6","timestamp":1653292290000,"lat":41.64586944444444,"lng":-95.45889444444445},{"type":"image","img":"20220523-photo7","timestamp":1653337654000,"lat":41.61540277777778,"lng":-94.01229166666667},{"type":"image","img":"20220523-photo8","timestamp":1653337703000,"lat":41.61540277777778,"lng":-94.01229166666667},{"type":"image","img":"20220523-photo9","timestamp":1653337703000,"lat":41.61540277777778,"lng":-94.01229166666667}],"time":47843000,"distance":153301.7640710921,"uphill":788,"pointCount":485,"categories":["all","recumbent","ToTheEastCoast","with-pictures"]}]},"__N_SSG":true}