{"pageProps":{"siteDescription":"Description of local dev version","siteTitle":"Local dev version","currentPage":"25","categories":[{"id":"all","title":"All","count":70},{"id":"with-pictures","title":"With pictures or videos","count":49},{"id":"ToTheEastCoast","title":"ToTheEastCoast","count":39},{"id":"recumbent","title":"recumbent","count":38}],"pages":25,"category":"with-pictures","index":[{"title":"Recumbent Bike Climbing #1","description":"First serious uphill (700m) with the recumbent bike","gpx":["track.gpx"],"date":"2019-12-08","id":"20191208","objects":[{"type":"image","img":"20191208-photo1","timestamp":0,"lat":37.342971,"lng":-121.71584}],"time":23651000,"distance":73110.94079645569,"uphill":445,"pointCount":335,"tags":[],"categories":["all","with-pictures"]}]},"__N_SSG":true}