{"pageProps":{"siteDescription":"Description of local dev version","siteTitle":"Local dev version","currentPage":"1","categories":[{"id":"all","title":"All","count":70},{"id":"with-pictures","title":"With pictures or videos","count":49},{"id":"ToTheEastCoast","title":"ToTheEastCoast","count":39},{"id":"recumbent","title":"recumbent","count":38}],"pages":20,"category":"ToTheEastCoast","index":[{"title":"To The East Coast, All 38 Days. #70","description":null,"tags":["ToTheEastCoast"],"gpx":["track1.gpx","track2.gpx","track3.gpx","track4.gpx","track5.gpx","track6.gpx","track7.gpx","track8.gpx","track9.gpx","track10.gpx","track11.gpx","track12.gpx","track13.gpx","track14.gpx","track15.gpx","track16.gpx","track17.gpx","track18.gpx","track19.gpx","track20.gpx","track21.gpx","track22.gpx","track23.gpx","track24.gpx","track25.gpx","track26.gpx","track27.gpx","track28.gpx","track29.gpx","track30.gpx","track31.gpx","track32.gpx","track33.gpx","track34.gpx","track35.gpx","track36.gpx","track37.gpx","track38.gpx"],"date":"2022-06-10","id":"20220610-all","objects":[],"time":1683501000,"distance":5962366.326456119,"uphill":29052,"pointCount":15850,"categories":["all","ToTheEastCoast"]},{"title":"Daily ride 2022-06-10 #69","description":"Day 39. New York. Motel. The End.","tags":["recumbent","ToTheEastCoast"],"gpx":["track.gpx"],"date":"2022-06-10","hash":["60c8389cdd5881629c147dbb01dba4417ebe16efd90ca5b69dbd26d80d3b9b9d"],"id":"20220610","objects":[{"type":"image","img":"20220610-photo0","timestamp":1654851572000,"lat":41.41641666666666,"lng":-73.39680555555556},{"type":"image","img":"20220610-photo1","timestamp":1654866930000,"lat":41.08532777777778,"lng":-73.39336944444445},{"type":"image","img":"20220610-photo2","timestamp":1654866989000,"lat":41.085211111111114,"lng":-73.39266944444445},{"type":"image","img":"20220610-photo3","timestamp":1654867023000,"lat":41.085211111111114,"lng":-73.39266944444445},{"type":"image","img":"20220610-photo4","timestamp":1654867032000,"lat":41.085211111111114,"lng":-73.39266944444445},{"type":"image","img":"20220610-photo5","timestamp":1654872732000,"lat":41.09275,"lng":-73.45155833333334},{"type":"image","img":"20220610-photo6","timestamp":1654876321000,"lat":41.09274166666667,"lng":-73.45155555555556}],"time":20956000,"distance":52093.05387144306,"uphill":179,"pointCount":203,"categories":["all","recumbent","ToTheEastCoast","with-pictures"]}]},"__N_SSG":true}