{"pageProps":{"siteDescription":"Description of local dev version","siteTitle":"Local dev version","currentPage":"10","categories":[{"id":"all","title":"All","count":70},{"id":"with-pictures","title":"With pictures or videos","count":49},{"id":"ToTheEastCoast","title":"ToTheEastCoast","count":39},{"id":"recumbent","title":"recumbent","count":38}],"pages":20,"category":"ToTheEastCoast","index":[{"title":"Daily ride 2022-05-23 #52","description":"Day 21. Iowa. Tent. Iowa is the state of hills.","tags":["recumbent","ToTheEastCoast"],"gpx":["track.gpx"],"date":"2022-05-23","hash":["4c08d682b095b9bb71400dd638fec7695fc86b31cf33d00c88c5b991c5b221ac"],"id":"20220523","objects":[{"type":"image","img":"20220523-photo0","timestamp":1653290451000,"lat":41.648288888888885,"lng":-95.46111944444445},{"type":"image","img":"20220523-photo1","timestamp":1653290465000,"lat":41.648241666666664,"lng":-95.4611},{"type":"image","img":"20220523-photo2","timestamp":1653290493000,"lat":41.648241666666664,"lng":-95.4611},{"type":"image","img":"20220523-photo3","timestamp":1653291820000,"lat":41.64832222222222,"lng":-95.46115555555556},{"type":"image","img":"20220523-photo4","timestamp":1653291831000,"lat":41.64832222222222,"lng":-95.46115555555556},{"type":"image","img":"20220523-photo5","timestamp":1653292120000,"lat":41.645922222222225,"lng":-95.45975},{"type":"image","img":"20220523-photo6","timestamp":1653292290000,"lat":41.64586944444444,"lng":-95.45889444444445},{"type":"image","img":"20220523-photo7","timestamp":1653337654000,"lat":41.61540277777778,"lng":-94.01229166666667},{"type":"image","img":"20220523-photo8","timestamp":1653337703000,"lat":41.61540277777778,"lng":-94.01229166666667},{"type":"image","img":"20220523-photo9","timestamp":1653337703000,"lat":41.61540277777778,"lng":-94.01229166666667}],"time":47843000,"distance":153301.7640710921,"uphill":788,"pointCount":485,"categories":["all","recumbent","ToTheEastCoast","with-pictures"]},{"title":"Daily ride 2022-05-22 #51","description":"Day 20. Nebraska, Iowa. Motel. Welcome to Iowa.","tags":["recumbent","ToTheEastCoast"],"gpx":["track.gpx"],"date":"2022-05-22","hash":["4e0404ee11ab24eb68018d6df7b34b1af5d8612069f65a9b4ff9bd8178c0035b"],"id":"20220522","objects":[{"type":"image","img":"20220522-photo0","timestamp":1653216630000,"lat":41.051713888888884,"lng":-96.33836388888888},{"type":"image","img":"20220522-photo1","timestamp":1653228215000,"lat":41.212872222222224,"lng":-96.11709722222221},{"type":"image","img":"20220522-photo2","timestamp":1653236259000,"lat":41.245175,"lng":-95.98010000000001},{"type":"image","img":"20220522-photo3","timestamp":1653237404000,"lat":41.25386388888889,"lng":-95.94691111111112},{"type":"image","img":"20220522-photo4","timestamp":1653237491000,"lat":41.25622777777778,"lng":-95.9462388888889},{"type":"image","img":"20220522-photo5","timestamp":1653237733000,"lat":41.25651388888889,"lng":-95.937425},{"type":"image","img":"20220522-photo6","timestamp":1653238840000,"lat":41.266416666666665,"lng":-95.92358055555556},{"type":"image","img":"20220522-photo7","timestamp":1653238851000,"lat":41.266416666666665,"lng":-95.92358055555556},{"type":"image","img":"20220522-photo8","timestamp":1653239134000,"lat":41.26618611111111,"lng":-95.9243888888889},{"type":"image","img":"20220522-photo9","timestamp":1653239322000,"lat":41.26329166666667,"lng":-95.91763055555556},{"type":"image","img":"20220522-photo10","timestamp":1653239340000,"lat":41.26329166666667,"lng":-95.91763055555556},{"type":"image","img":"20220522-photo11","timestamp":1653239933000,"lat":41.250483333333335,"lng":-95.91640000000001}],"time":47864000,"distance":169977.07834040688,"uphill":341,"pointCount":520,"categories":["all","recumbent","ToTheEastCoast","with-pictures"]}]},"__N_SSG":true}