{"pageProps":{"siteDescription":"Description of local dev version","siteTitle":"Local dev version","currentPage":"11","categories":[{"id":"all","title":"All","count":70},{"id":"with-pictures","title":"With pictures or videos","count":49},{"id":"ToTheEastCoast","title":"ToTheEastCoast","count":39},{"id":"recumbent","title":"recumbent","count":38}],"pages":20,"category":"ToTheEastCoast","index":[{"title":"Daily ride 2022-05-21 #50","description":"Day 19. Nebraska. Motel. Reached the capital of Nebraska.","tags":["recumbent","ToTheEastCoast"],"gpx":["track.gpx"],"date":"2022-05-21","hash":["c414ef7a264f8611228235c807e49831f9b375ecd026b6ee79d61f4c0d644482"],"id":"20220521","objects":[{"type":"image","img":"20220521-photo0","timestamp":1653127705000,"lat":40.58260277777778,"lng":-98.05909444444444},{"type":"image","img":"20220521-photo1","timestamp":1653138907000,"lat":40.63652222222222,"lng":-97.58917222222222},{"type":"image","img":"20220521-photo2","timestamp":1653152086000,"lat":40.6487,"lng":-96.93114444444446},{"type":"image","img":"20220521-photo3","timestamp":1653152091000,"lat":40.65223888888889,"lng":-96.91649166666667},{"type":"image","img":"20220521-photo4","timestamp":1653154169000,"lat":40.68438611111111,"lng":-96.85705277777777},{"type":"image","img":"20220521-photo5","timestamp":1653155634000,"lat":40.73502777777778,"lng":-96.85381944444444},{"type":"image","img":"20220521-photo6","timestamp":1653156220000,"lat":40.74124444444445,"lng":-96.83669722222221},{"type":"image","img":"20220521-photo7","timestamp":1653161121000,"lat":40.809075,"lng":-96.70100555555555},{"type":"image","img":"20220521-photo8","timestamp":1653161187000,"lat":40.809127777777775,"lng":-96.69981944444444},{"type":"image","img":"20220521-photo9","timestamp":1653161228000,"lat":40.80949444444444,"lng":-96.69970555555555}],"time":44989000,"distance":176038.40616243187,"uphill":509,"pointCount":439,"categories":["all","recumbent","ToTheEastCoast","with-pictures"]},{"title":"Daily ride 2022-05-20 #49","description":"Day 18. Nebraska. Tent.","tags":["recumbent","ToTheEastCoast"],"gpx":["track.gpx"],"date":"2022-05-20","hash":["a73d4d9552ffb91db20a1743dc856f7435e92d1138ebfbdc2db68ab36b84b9ef"],"id":"20220520","objects":[{"type":"image","img":"20220520-photo0","timestamp":1653037369000,"lat":40.29591666666666,"lng":-99.89758055555556},{"type":"image","img":"20220520-photo1","timestamp":1653038324000,"lat":40.30579722222222,"lng":-99.88367500000001},{"type":"image","img":"20220520-photo2","timestamp":1653070759000,"lat":40.56795833333334,"lng":-98.75800833333334},{"type":"image","img":"20220520-photo3","timestamp":1653074219000,"lat":40.567863888888894,"lng":-98.58050277777778},{"type":"image","img":"20220520-photo4","timestamp":1653074219000,"lat":40.567863888888894,"lng":-98.58050277777778},{"type":"image","img":"20220520-photo5","timestamp":1653074223000,"lat":40.567863888888894,"lng":-98.58050277777778},{"type":"image","img":"20220520-photo6","timestamp":1653074223000,"lat":40.567863888888894,"lng":-98.58050277777778},{"type":"image","img":"20220520-photo7","timestamp":1653074752000,"lat":40.56830277777778,"lng":-98.55937777777777},{"type":"image","img":"20220520-photo8","timestamp":1653074752000,"lat":40.56830277777778,"lng":-98.55937777777777}],"time":38451000,"distance":152107.46431764166,"uphill":146,"pointCount":355,"categories":["all","recumbent","ToTheEastCoast","with-pictures"]}]},"__N_SSG":true}