{"pageProps":{"siteDescription":"Description of local dev version","siteTitle":"Local dev version","currentPage":"12","categories":[{"id":"all","title":"All","count":70},{"id":"with-pictures","title":"With pictures or videos","count":49},{"id":"ToTheEastCoast","title":"ToTheEastCoast","count":39},{"id":"recumbent","title":"recumbent","count":38}],"pages":20,"category":"ToTheEastCoast","index":[{"title":"Daily ride 2022-05-19 #48","description":"Day 17. Kansas. Tent.","tags":["recumbent","ToTheEastCoast"],"gpx":["track.gpx"],"date":"2022-05-19","hash":["7be648093aa0babe014e12d6c308988c8926be6dfb71dd869cbfdc376e115e1f"],"id":"20220519","objects":[{"type":"image","img":"20220519-photo0","timestamp":1652943719000,"lat":39.75846666666666,"lng":-101.73026666666667},{"type":"image","img":"20220519-photo1","timestamp":1652948383000,"lat":39.75626388888889,"lng":-101.53387777777778},{"type":"image","img":"20220519-photo2","timestamp":1652958272000,"lat":39.813044444444444,"lng":-101.04290277777777},{"type":"image","img":"20220519-photo3","timestamp":1652958308000,"lat":39.81307222222222,"lng":-101.04288333333334},{"type":"image","img":"20220519-photo4","timestamp":1652970473000,"lat":39.828700000000005,"lng":-100.62375555555555},{"type":"image","img":"20220519-photo5","timestamp":1652972453000,"lat":39.82807777777778,"lng":-100.52901666666666},{"type":"image","img":"20220519-photo6","timestamp":1652972735000,"lat":39.82794166666667,"lng":-100.52573888888888},{"type":"image","img":"20220519-photo7","timestamp":1652977603000,"lat":39.82801666666667,"lng":-100.30571666666667},{"type":"image","img":"20220519-photo8","timestamp":1652987160000,"lat":39.838861111111115,"lng":-99.88251944444444},{"type":"image","img":"20220519-photo9","timestamp":1652988975000,"lat":39.844572222222226,"lng":-99.88870277777778},{"type":"image","img":"20220519-photo10","timestamp":1652992104000,"lat":40.00188611111111,"lng":-99.89072222222222},{"type":"image","img":"20220519-photo11","timestamp":1652992354000,"lat":40.00293333333333,"lng":-99.89062222222223}],"time":47046000,"distance":196987.6345886426,"uphill":429,"pointCount":445,"categories":["all","recumbent","ToTheEastCoast","with-pictures"]},{"title":"Daily ride 2022-05-18 #47","description":"Day 16. Colorado. Tent.","tags":["recumbent","ToTheEastCoast"],"gpx":["track.gpx"],"date":"2022-05-18","hash":["9f38bbb3c756322b2ef43c58fbd009378eb119dc7503e9c75f3f6c736d2a9063"],"id":"20220518","objects":[{"type":"image","img":"20220518-photo0","timestamp":1652854540000,"lat":39.732725,"lng":-103.93457500000001},{"type":"image","img":"20220518-photo1","timestamp":1652854555000,"lat":39.732725,"lng":-103.93457500000001},{"type":"image","img":"20220518-photo2","timestamp":1652859814000,"lat":39.739875,"lng":-103.74288055555556},{"type":"image","img":"20220518-photo3","timestamp":1652891521000,"lat":39.658049999999996,"lng":-102.5168861111111},{"type":"image","img":"20220518-photo4","timestamp":1652896778000,"lat":39.70244166666667,"lng":-102.29261944444444},{"type":"image","img":"20220518-photo5","timestamp":1652898669000,"lat":39.746097222222225,"lng":-102.24412777777778},{"type":"image","img":"20220518-photo6","timestamp":1652902031000,"lat":39.74868611111111,"lng":-102.05515277777778},{"type":"image","img":"20220518-photo7","timestamp":1652902129000,"lat":39.75134166666667,"lng":-102.05013333333333}],"time":45113000,"distance":200187.81910314906,"uphill":305,"pointCount":426,"categories":["all","recumbent","ToTheEastCoast","with-pictures"]}]},"__N_SSG":true}