{"pageProps":{"siteDescription":"Description of local dev version","siteTitle":"Local dev version","currentPage":"13","categories":[{"id":"all","title":"All","count":70},{"id":"with-pictures","title":"With pictures or videos","count":49},{"id":"ToTheEastCoast","title":"ToTheEastCoast","count":39},{"id":"recumbent","title":"recumbent","count":38}],"pages":20,"category":"ToTheEastCoast","index":[{"title":"Daily ride 2022-05-17 #46","description":"Day 15. Colorado. Motel.","tags":["recumbent","ToTheEastCoast"],"gpx":["track.gpx"],"date":"2022-05-17","hash":["6678a7b7db90c22a64796b7876fb5e606fe807aa3e99ee9521f2b5561e64c8d1"],"id":"20220517","objects":[{"type":"image","img":"20220517-photo0","timestamp":1652783199000,"lat":40.10636111111111,"lng":-104.94176666666667},{"type":"image","img":"20220517-photo1","timestamp":1652788632000,"lat":39.94654722222222,"lng":-104.98620555555556},{"type":"image","img":"20220517-photo2","timestamp":1652789042000,"lat":39.94654166666666,"lng":-104.98619444444445},{"type":"image","img":"20220517-photo3","timestamp":1652789049000,"lat":39.94654166666666,"lng":-104.98619444444445},{"type":"image","img":"20220517-photo4","timestamp":1652794958000,"lat":39.83166666666667,"lng":-104.94874166666668},{"type":"image","img":"20220517-photo5","timestamp":1652800800000,"lat":39.74613333333333,"lng":-104.9875},{"type":"image","img":"20220517-photo6","timestamp":1652801065000,"lat":39.74051111111111,"lng":-104.9875888888889},{"type":"image","img":"20220517-photo7","timestamp":1652801231000,"lat":39.741216666666666,"lng":-104.98706666666666},{"type":"image","img":"20220517-photo8","timestamp":1652801723000,"lat":39.738533333333336,"lng":-104.9842},{"type":"image","img":"20220517-photo9","timestamp":1652803134000,"lat":39.75106111111111,"lng":-104.949}],"time":43878000,"distance":159658.58424678023,"uphill":380,"pointCount":438,"categories":["all","recumbent","ToTheEastCoast","with-pictures"]},{"title":"Daily ride 2022-05-16 #45","description":"Day 14. Wyoming, Colorado. Tent. I decided that I want to see Colorado, that is a little aside but sould be very interesting.","tags":["recumbent","ToTheEastCoast"],"gpx":["track.gpx"],"date":"2022-05-16","hash":["619c4e2b597aa7aec3078b6eeb12fa970a18185e05d2714f9a5b6c6cf7769947"],"id":"20220516","objects":[{"type":"image","img":"20220516-photo0","timestamp":1652680275000,"lat":41.250480555555555,"lng":-105.43420833333333},{"type":"image","img":"20220516-photo1","timestamp":1652695933000,"lat":41.134966666666664,"lng":-104.818075},{"type":"image","img":"20220516-photo2","timestamp":1652696184000,"lat":41.1397,"lng":-104.81991388888889},{"type":"image","img":"20220516-photo3","timestamp":1652701707000,"lat":41.141197222222225,"lng":-104.81932499999999},{"type":"image","img":"20220516-photo4","timestamp":1652706938000,"lat":40.99826111111111,"lng":-104.773125},{"type":"image","img":"20220516-photo5","timestamp":1652712565000,"lat":40.75877777777778,"lng":-104.791425},{"type":"image","img":"20220516-photo6","timestamp":1652715641000,"lat":40.64075555555556,"lng":-104.75390833333333},{"type":"image","img":"20220516-photo7","timestamp":1652716384000,"lat":40.60335277777778,"lng":-104.73969444444444},{"type":"image","img":"20220516-photo8","timestamp":1652716585000,"lat":40.58960277777778,"lng":-104.73576111111112},{"type":"image","img":"20220516-photo9","timestamp":1652728732000,"lat":40.452475,"lng":-105.08799722222221},{"type":"image","img":"20220516-photo10","timestamp":1652729373000,"lat":40.443797222222216,"lng":-105.09688055555556},{"type":"image","img":"20220516-photo11","timestamp":1652730163000,"lat":40.414341666666665,"lng":-105.09678888888888}],"time":53297000,"distance":228749.69680656923,"uphill":273,"pointCount":520,"categories":["all","recumbent","ToTheEastCoast","with-pictures"]}]},"__N_SSG":true}