{"pageProps":{"siteDescription":"Description of local dev version","siteTitle":"Local dev version","currentPage":"14","categories":[{"id":"all","title":"All","count":70},{"id":"with-pictures","title":"With pictures or videos","count":49},{"id":"ToTheEastCoast","title":"ToTheEastCoast","count":39},{"id":"recumbent","title":"recumbent","count":38}],"pages":20,"category":"ToTheEastCoast","index":[{"title":"To The East Coast #44","description":"Day 13. Wyoming. Tent.","tags":["recumbent","ToTheEastCoast"],"gpx":["track.gpx"],"date":"2022-05-15","hash":["bfd9dcc79465c14524593bfd3ae74ebf90ada6153f9c3a7e1bafc4f7a4de03f5"],"id":"20220515","objects":[{"type":"image","img":"20220515-photo0","timestamp":1652595994000,"lat":41.76838333333333,"lng":-106.95022222222222},{"type":"image","img":"20220515-photo1","timestamp":1652615883000,"lat":41.68389722222222,"lng":-106.37867777777777},{"type":"image","img":"20220515-photo2","timestamp":1652619040000,"lat":41.639002777777776,"lng":-106.29288333333334},{"type":"image","img":"20220515-photo3","timestamp":1652624767000,"lat":41.50376388888889,"lng":-106.05179444444444},{"type":"image","img":"20220515-photo4","timestamp":1652634526000,"lat":41.31121666666667,"lng":-105.58168888888889},{"type":"image","img":"20220515-photo5","timestamp":1652634874000,"lat":41.312444444444445,"lng":-105.57999444444444},{"type":"image","img":"20220515-photo6","timestamp":1652634879000,"lat":41.312444444444445,"lng":-105.57999444444444},{"type":"image","img":"20220515-photo7","timestamp":1652635191000,"lat":41.31004166666666,"lng":-105.57580555555555},{"type":"image","img":"20220515-photo8","timestamp":1652635539000,"lat":41.30946944444444,"lng":-105.56884722222222},{"type":"image","img":"20220515-photo9","timestamp":1652642797000,"lat":41.272166666666664,"lng":-105.48653055555556}],"time":44872000,"distance":156992.88316652228,"uphill":992,"pointCount":424,"categories":["all","recumbent","ToTheEastCoast","with-pictures"]},{"title":"To The East Coast #43","description":"Day 12. Wyoming. Motel. I'm The King Of I-80.","tags":["recumbent","ToTheEastCoast"],"gpx":["track.gpx"],"date":"2022-05-14","hash":["5e47baedd9c9c2c449c709cb169076a1e444646ab24986312ac10c84d90a2a53"],"id":"20220514","objects":[{"type":"image","img":"20220514-photo0","timestamp":1652511061000,"lat":41.58256111111111,"lng":-109.25666111111111},{"type":"image","img":"20220514-photo1","timestamp":1652521315000,"lat":41.65216111111111,"lng":-109.00521666666667},{"type":"image","img":"20220514-photo2","timestamp":1652530337000,"lat":41.647475,"lng":-108.59618055555555},{"type":"image","img":"20220514-photo3","timestamp":1652550219000,"lat":41.784727777777775,"lng":-107.26372222222223},{"type":"image","img":"20220514-photo4","timestamp":1652551218000,"lat":41.78731944444444,"lng":-107.24104722222222},{"type":"image","img":"20220514-photo5","timestamp":1652551223000,"lat":41.78731944444444,"lng":-107.24104722222222},{"type":"image","img":"20220514-photo6","timestamp":1652556296000,"lat":41.759908333333335,"lng":-106.99510555555555},{"type":"image","img":"20220514-photo7","timestamp":1652556303000,"lat":41.759908333333335,"lng":-106.99510555555555}],"time":41953000,"distance":207424.00175190612,"uphill":445,"pointCount":387,"categories":["all","recumbent","ToTheEastCoast","with-pictures"]}]},"__N_SSG":true}