{"pageProps":{"siteDescription":"Description of local dev version","siteTitle":"Local dev version","currentPage":"15","categories":[{"id":"all","title":"All","count":70},{"id":"with-pictures","title":"With pictures or videos","count":49},{"id":"ToTheEastCoast","title":"ToTheEastCoast","count":39},{"id":"recumbent","title":"recumbent","count":38}],"pages":20,"category":"ToTheEastCoast","index":[{"title":"To The East Coast #42","description":"Day 11. Wyoming. Tent. Moved along I-80, that is legal.","tags":["recumbent","ToTheEastCoast"],"gpx":["track.gpx"],"date":"2022-05-13","hash":["bd141d05ec7b792582be0f2fb87b7170b809cbde55f5b11780c14fea36124a80"],"id":"20220513","objects":[{"type":"image","img":"20220513-photo0","timestamp":1652421920000,"lat":41.016555555555556,"lng":-111.03324444444445},{"type":"image","img":"20220513-photo1","timestamp":1652425098000,"lat":41.01659444444444,"lng":-111.03325555555556},{"type":"image","img":"20220513-photo2","timestamp":1652425108000,"lat":41.01659444444444,"lng":-111.03325555555556},{"type":"image","img":"20220513-photo3","timestamp":1652425126000,"lat":41.01659444444444,"lng":-111.03325555555556},{"type":"image","img":"20220513-photo4","timestamp":1652448478000,"lat":41.29829722222222,"lng":-110.62629444444444},{"type":"image","img":"20220513-photo5","timestamp":1652452810000,"lat":41.31933333333334,"lng":-110.38974166666668},{"type":"image","img":"20220513-photo6","timestamp":1652452850000,"lat":41.31933333333334,"lng":-110.38974166666668},{"type":"image","img":"20220513-photo7","timestamp":1652453249000,"lat":41.316430555555556,"lng":-110.37490555555554},{"type":"image","img":"20220513-photo8","timestamp":1652456972000,"lat":41.409219444444446,"lng":-110.14376666666668},{"type":"image","img":"20220513-photo9","timestamp":1652464695000,"lat":41.542430555555555,"lng":-109.74464722222223},{"type":"image","img":"20220513-photo10","timestamp":1652468904000,"lat":41.544802777777775,"lng":-109.48114166666667},{"type":"image","img":"20220513-photo11","timestamp":1652469763000,"lat":41.530055555555556,"lng":-109.45716388888889}],"time":43302000,"distance":200760.79193756776,"uphill":1263,"pointCount":427,"categories":["all","recumbent","ToTheEastCoast","with-pictures"]},{"title":"To The East Coast #41","description":"Day 10. Utah. Motel. Reached Wyoming and on the state border got a gravel road. There are no people and roads in this state definitely, only wind","tags":["recumbent","ToTheEastCoast"],"gpx":["track.gpx"],"date":"2022-05-12","hash":["b1f0349cba0fbddbf6a87d749b47fa832a73f4692b384a170b033982af695e79"],"id":"20220512","objects":[{"type":"image","img":"20220512-photo0","timestamp":1652348675000,"lat":40.75851111111111,"lng":-111.89431111111112},{"type":"image","img":"20220512-photo1","timestamp":1652350910000,"lat":40.751977777777775,"lng":-111.85966388888889},{"type":"image","img":"20220512-photo2","timestamp":1652353124000,"lat":40.75096944444444,"lng":-111.814275},{"type":"image","img":"20220512-photo3","timestamp":1652360046000,"lat":40.7749,"lng":-111.71830277777778},{"type":"image","img":"20220512-photo4","timestamp":1652367189000,"lat":40.827983333333336,"lng":-111.65475},{"type":"image","img":"20220512-photo5","timestamp":1652369727000,"lat":40.879955555555554,"lng":-111.58062777777778},{"type":"image","img":"20220512-photo6","timestamp":1652375243000,"lat":40.99935833333333,"lng":-111.52225555555556},{"type":"image","img":"20220512-photo7","timestamp":1652375660000,"lat":41.01600277777778,"lng":-111.49777222222222},{"type":"image","img":"20220512-photo8","timestamp":1652376588000,"lat":40.99371111111111,"lng":-111.45870833333333},{"type":"image","img":"20220512-photo9","timestamp":1652377451000,"lat":40.972522222222224,"lng":-111.43838333333333},{"type":"image","img":"20220512-photo10","timestamp":1652378250000,"lat":40.96756666666667,"lng":-111.42891111111112},{"type":"image","img":"20220512-photo11","timestamp":1652381508000,"lat":40.92469722222222,"lng":-111.35360277777777},{"type":"image","img":"20220512-photo12","timestamp":1652381519000,"lat":40.92469722222222,"lng":-111.35360277777777}],"time":47866000,"distance":118304.10532337564,"uphill":3905,"pointCount":455,"categories":["all","recumbent","ToTheEastCoast","with-pictures"]}]},"__N_SSG":true}