{"pageProps":{"siteDescription":"Description of local dev version","siteTitle":"Local dev version","currentPage":"9","categories":[{"id":"all","title":"All","count":70},{"id":"with-pictures","title":"With pictures or videos","count":49},{"id":"ToTheEastCoast","title":"ToTheEastCoast","count":39},{"id":"recumbent","title":"recumbent","count":38}],"pages":20,"category":"ToTheEastCoast","index":[{"title":"Daily ride 2022-05-25 #54","description":"Day 23. Iowa. Tent. Iowa is the state of hills.","tags":["recumbent","ToTheEastCoast"],"gpx":["track.gpx"],"date":"2022-05-25","hash":["b97cf9276e990a28e484bbb32ef1299e78b5edcdd6d697ea1f5650c8e1f39cca"],"id":"20220525","objects":[{"type":"image","img":"20220525-photo0","timestamp":1653488084000,"lat":41.662549999999996,"lng":-91.54874722222222},{"type":"image","img":"20220525-photo1","timestamp":1653488089000,"lat":41.662549999999996,"lng":-91.54874722222222},{"type":"image","img":"20220525-photo2","timestamp":1653488455000,"lat":41.661325,"lng":-91.53817222222222},{"type":"image","img":"20220525-photo3","timestamp":1653488793000,"lat":41.65995833333333,"lng":-91.53600833333333},{"type":"image","img":"20220525-photo4","timestamp":1653488803000,"lat":41.65995833333333,"lng":-91.53600833333333},{"type":"image","img":"20220525-photo5","timestamp":1653499181000,"lat":41.569944444444445,"lng":-91.25950833333333},{"type":"image","img":"20220525-photo6","timestamp":1653502222000,"lat":41.56708611111112,"lng":-91.10560555555556},{"type":"image","img":"20220525-photo7","timestamp":1653502227000,"lat":41.56708611111112,"lng":-91.10560555555556},{"type":"image","img":"20220525-photo8","timestamp":1653502828000,"lat":41.56684444444445,"lng":-91.0837},{"type":"image","img":"20220525-photo9","timestamp":1653508148000,"lat":41.596852777777784,"lng":-90.87740833333332},{"type":"image","img":"20220525-photo10","timestamp":1653508316000,"lat":41.596775,"lng":-90.87048333333333}],"time":42302000,"distance":151249.20039304259,"uphill":761,"pointCount":370,"categories":["all","recumbent","ToTheEastCoast","with-pictures"]},{"title":"Daily ride 2022-05-24 #53","description":"Day 22. Iowa. Motel.","tags":["recumbent","ToTheEastCoast"],"gpx":["track.gpx"],"date":"2022-05-24","hash":["dcfb7f67a53051591789b85867714ff0c9688bd9dc9d0a54e52fcdc643bf2663"],"id":"20220524","objects":[{"type":"image","img":"20220524-photo0","timestamp":1653389341000,"lat":41.56641388888889,"lng":-93.66411111111111},{"type":"image","img":"20220524-photo1","timestamp":1653389344000,"lat":41.56641388888889,"lng":-93.66411111111111},{"type":"image","img":"20220524-photo2","timestamp":1653391014000,"lat":41.57463055555556,"lng":-93.63650833333334},{"type":"image","img":"20220524-photo3","timestamp":1653391709000,"lat":41.58133611111111,"lng":-93.62435277777777},{"type":"image","img":"20220524-photo4","timestamp":1653391871000,"lat":41.58370555555556,"lng":-93.62372777777777},{"type":"image","img":"20220524-photo5","timestamp":1653391978000,"lat":41.585975000000005,"lng":-93.62432222222222},{"type":"image","img":"20220524-photo6","timestamp":1653392005000,"lat":41.58614444444445,"lng":-93.62345833333333},{"type":"image","img":"20220524-photo7","timestamp":1653392884000,"lat":41.590275000000005,"lng":-93.60787222222221},{"type":"image","img":"20220524-photo8","timestamp":1653393226000,"lat":41.59134166666667,"lng":-93.60751111111111}],"time":55717000,"distance":155317.60356426888,"uphill":1230,"pointCount":460,"categories":["all","recumbent","ToTheEastCoast","with-pictures"]}]},"__N_SSG":true}