{"pageProps":{"siteDescription":"Description of local dev version","siteTitle":"Local dev version","currentPage":"13","categories":[{"id":"all","title":"All","count":70},{"id":"with-pictures","title":"With pictures or videos","count":49},{"id":"ToTheEastCoast","title":"ToTheEastCoast","count":39},{"id":"recumbent","title":"recumbent","count":38}],"pages":25,"category":"with-pictures","index":[{"title":"Daily ride 2022-05-12 #42","description":"Day 10. Utah. Motel. Reached Wyoming and on the state border got a gravel road. There are no people and roads in this state definitely, only wind","tags":["recumbent","ToTheEastCoast"],"gpx":["track.gpx"],"date":"2022-05-12","hash":["b1f0349cba0fbddbf6a87d749b47fa832a73f4692b384a170b033982af695e79"],"id":"20220512","objects":[{"type":"image","img":"20220512-photo0","timestamp":1652348675000,"lat":40.75851111111111,"lng":-111.89431111111112},{"type":"image","img":"20220512-photo1","timestamp":1652350910000,"lat":40.751977777777775,"lng":-111.85966388888889},{"type":"image","img":"20220512-photo2","timestamp":1652353124000,"lat":40.75096944444444,"lng":-111.814275},{"type":"image","img":"20220512-photo3","timestamp":1652360046000,"lat":40.7749,"lng":-111.71830277777778},{"type":"image","img":"20220512-photo4","timestamp":1652367189000,"lat":40.827983333333336,"lng":-111.65475},{"type":"image","img":"20220512-photo5","timestamp":1652369727000,"lat":40.879955555555554,"lng":-111.58062777777778},{"type":"image","img":"20220512-photo6","timestamp":1652375243000,"lat":40.99935833333333,"lng":-111.52225555555556},{"type":"image","img":"20220512-photo7","timestamp":1652375660000,"lat":41.01600277777778,"lng":-111.49777222222222},{"type":"image","img":"20220512-photo8","timestamp":1652376588000,"lat":40.99371111111111,"lng":-111.45870833333333},{"type":"image","img":"20220512-photo9","timestamp":1652377451000,"lat":40.972522222222224,"lng":-111.43838333333333},{"type":"image","img":"20220512-photo10","timestamp":1652378250000,"lat":40.96756666666667,"lng":-111.42891111111112},{"type":"image","img":"20220512-photo11","timestamp":1652381508000,"lat":40.92469722222222,"lng":-111.35360277777777},{"type":"image","img":"20220512-photo12","timestamp":1652381519000,"lat":40.92469722222222,"lng":-111.35360277777777}],"time":47866000,"distance":118304.10532337564,"uphill":3905,"pointCount":455,"categories":["all","recumbent","ToTheEastCoast","with-pictures"]},{"title":"Daily ride 2022-05-11 #41","description":"Day 9. Utah. I bought a new bike rack and also refilled my submimated food supplies in REI. Since it was a day for rest, I also grabed couple glasses of beer in a downtown pub.","tags":["recumbent","ToTheEastCoast"],"gpx":["track.gpx"],"date":"2022-05-11","hash":["3800d6ca932a62af347eb267c38474004028e1b1e23208723f2779b9a5ca3c4"],"id":"20220511","objects":[{"type":"image","img":"20220511-photo0","timestamp":1652263675000,"lat":40.38778333333333,"lng":-111.83049166666666},{"type":"image","img":"20220511-photo1","timestamp":1652265569000,"lat":40.46301770846614,"lng":-111.9343552896714},{"type":"image","img":"20220511-photo2","timestamp":1652270217000,"lat":40.48826666666667,"lng":-111.92629166666667},{"type":"image","img":"20220511-photo3","timestamp":1652277408000,"lat":40.558452777777774,"lng":-111.89276666666667},{"type":"image","img":"20220511-photo4","timestamp":1652298342000,"lat":40.76248888888889,"lng":-111.89386666666667},{"type":"image","img":"20220511-photo5","timestamp":1652298595000,"lat":40.76486944444444,"lng":-111.89306111111112},{"type":"image","img":"20220511-photo6","timestamp":1652298719000,"lat":40.76484722222222,"lng":-111.89291944444444},{"type":"image","img":"20220511-photo7","timestamp":1652299394000,"lat":40.76643055555556,"lng":-111.89153611111112},{"type":"image","img":"20220511-photo8","timestamp":1652299436000,"lat":40.76643055555556,"lng":-111.89153611111112},{"type":"image","img":"20220511-photo9","timestamp":1652302166000,"lat":40.76642777777778,"lng":-111.89127222222223},{"type":"image","img":"20220511-photo10","timestamp":1652302329000,"lat":40.765166666666666,"lng":-111.89106944444445},{"type":"image","img":"20220511-photo11","timestamp":1652302336000,"lat":40.765166666666666,"lng":-111.89106944444445}],"time":30986000,"distance":77424.51206638737,"uphill":872,"pointCount":317,"categories":["all","recumbent","ToTheEastCoast","with-pictures"]}]},"__N_SSG":true}