{"pageProps":{"siteDescription":"Description of local dev version","siteTitle":"Local dev version","currentPage":"18","categories":[{"id":"all","title":"All","count":70},{"id":"with-pictures","title":"With pictures or videos","count":49},{"id":"ToTheEastCoast","title":"ToTheEastCoast","count":39},{"id":"recumbent","title":"recumbent","count":38}],"pages":25,"category":"with-pictures","index":[{"title":"To Seattle #30","description":"Day 14. The bike was sent back to the home by Fedex for 450$ (incredible huge price, greater than I spent for entire trip)","gpx":["track.gpx"],"date":"2021-05-28","id":"20210528","objects":[{"type":"image","img":"20210528-photo0","timestamp":0,"lat":47.61789308,"lng":-122.35106474},{"type":"image","img":"20210528-photo1","timestamp":0,"lat":47.61901484,"lng":-122.34993656}],"time":20355000,"distance":42945.22170412886,"uphill":517,"pointCount":272,"tags":[],"categories":["all","with-pictures"]},{"title":"To Seattle #29","description":"Day 13","gpx":["track.gpx"],"date":"2021-05-27","id":"20210527","objects":[{"type":"image","img":"20210527-photo0","timestamp":0,"lat":47.0364908,"lng":-122.90060517},{"type":"image","img":"20210527-photo1","timestamp":0,"lat":47.0364908,"lng":-122.90060517}],"time":33831000,"distance":94318.09823864975,"uphill":188,"pointCount":490,"tags":[],"categories":["all","with-pictures"]}]},"__N_SSG":true}