{"pageProps":{"siteDescription":"Description of local dev version","siteTitle":"Local dev version","currentPage":"2","categories":[{"id":"all","title":"All","count":70},{"id":"with-pictures","title":"With pictures or videos","count":49},{"id":"ToTheEastCoast","title":"ToTheEastCoast","count":39},{"id":"recumbent","title":"recumbent","count":38}],"pages":25,"category":"with-pictures","index":[{"title":"Daily ride 2022-06-08 #68","description":"Day 37. New York. Tent.","tags":["recumbent","ToTheEastCoast"],"gpx":["track.gpx"],"date":"2022-06-08","hash":["e8ad2ce910d379e7d98ea9f475a7d159fb6aeeaaa3ef796ca8216aba36a6852a"],"id":"20220608","objects":[{"type":"image","img":"20220608-photo0","timestamp":1654672820000,"lat":42.95281666666667,"lng":-74.23841944444445},{"type":"image","img":"20220608-photo1","timestamp":1654672846000,"lat":42.95281666666667,"lng":-74.23841944444445},{"type":"image","img":"20220608-photo2","timestamp":1654672938000,"lat":42.95297777777778,"lng":-74.23850833333333},{"type":"image","img":"20220608-photo3","timestamp":1654674435000,"lat":42.94581944444444,"lng":-74.21302222222222},{"type":"image","img":"20220608-photo4","timestamp":1654675235000,"lat":42.93425833333333,"lng":-74.19930277777779},{"type":"image","img":"20220608-photo5","timestamp":1654681770000,"lat":42.866680555555554,"lng":-74.04008611111111},{"type":"image","img":"20220608-photo6","timestamp":1654683145000,"lat":42.83025555555556,"lng":-73.99277222222223},{"type":"image","img":"20220608-photo7","timestamp":1654683223000,"lat":42.82890833333334,"lng":-73.99147777777777},{"type":"image","img":"20220608-photo8","timestamp":1654683497000,"lat":42.822922222222225,"lng":-73.98758055555555},{"type":"image","img":"20220608-photo9","timestamp":1654683570000,"lat":42.822075000000005,"lng":-73.98723055555556},{"type":"image","img":"20220608-photo10","timestamp":1654683597000,"lat":42.822075000000005,"lng":-73.98723055555556},{"type":"image","img":"20220608-photo11","timestamp":1654684577000,"lat":42.81745555555556,"lng":-73.95210555555556},{"type":"image","img":"20220608-photo12","timestamp":1654684909000,"lat":42.81536111111111,"lng":-73.94767222222222},{"type":"image","img":"20220608-photo13","timestamp":1654685764000,"lat":42.813247222222216,"lng":-73.94675555555555},{"type":"image","img":"20220608-photo14","timestamp":1654703323000,"lat":42.65485555555556,"lng":-73.76238888888889},{"type":"image","img":"20220608-photo15","timestamp":1654703337000,"lat":42.654669444444444,"lng":-73.76215555555555},{"type":"image","img":"20220608-photo16","timestamp":1654703553000,"lat":42.65305277777777,"lng":-73.75959722222223},{"type":"image","img":"20220608-photo17","timestamp":1654703817000,"lat":42.65195833333333,"lng":-73.75605833333333},{"type":"image","img":"20220608-photo18","timestamp":1654704194000,"lat":42.65133888888889,"lng":-73.75513333333333},{"type":"image","img":"20220608-photo19","timestamp":1654704577000,"lat":42.64868333333333,"lng":-73.75086388888889},{"type":"image","img":"20220608-photo20","timestamp":1654704746000,"lat":42.645852777777776,"lng":-73.748375},{"type":"image","img":"20220608-photo21","timestamp":1654704922000,"lat":42.64318333333333,"lng":-73.74961111111111},{"type":"image","img":"20220608-photo22","timestamp":1654705378000,"lat":42.643475,"lng":-73.74818333333333},{"type":"image","img":"20220608-photo23","timestamp":1654705600000,"lat":42.63873611111111,"lng":-73.74708333333334},{"type":"image","img":"20220608-photo24","timestamp":1654708540000,"lat":42.53273611111111,"lng":-73.75567777777778}],"time":44522000,"distance":129477.56411833716,"uphill":503,"pointCount":422,"categories":["all","recumbent","ToTheEastCoast","with-pictures"]},{"title":"Daily ride 2022-06-07 #67","description":"Day 36. New York. Tent.","tags":["recumbent","ToTheEastCoast"],"gpx":["track.gpx"],"date":"2022-06-07","hash":["9960e65b7b9db5717636bbf3231c2f7b6416c18561ada53f1372f21d878bc591"],"id":"20220607","objects":[{"type":"image","img":"20220607-photo0","timestamp":1654585671000,"lat":43.724919444444446,"lng":-75.4682138888889},{"type":"image","img":"20220607-photo1","timestamp":1654594829000,"lat":43.49725277777778,"lng":-75.34402222222222}],"time":50730000,"distance":160194.39311568398,"uphill":919,"pointCount":446,"categories":["all","recumbent","ToTheEastCoast","with-pictures"]}]},"__N_SSG":true}