{"pageProps":{"siteDescription":"Description of local dev version","siteTitle":"Local dev version","currentPage":"21","categories":[{"id":"all","title":"All","count":70},{"id":"with-pictures","title":"With pictures or videos","count":49},{"id":"ToTheEastCoast","title":"ToTheEastCoast","count":39},{"id":"recumbent","title":"recumbent","count":38}],"pages":25,"category":"with-pictures","index":[{"title":"To Seattle #21","description":"Day 5. Uphill til 1800m, my personal record of altitude on a bike.","gpx":["track.gpx"],"date":"2021-05-19","id":"20210519","objects":[{"type":"image","img":"20210519-photo0","timestamp":0,"lat":40.50463165,"lng":-121.83489495},{"type":"image","img":"20210519-photo1","timestamp":0,"lat":40.51817638,"lng":-121.68623009},{"type":"image","img":"20210519-photo10","timestamp":0,"lat":40.98861927,"lng":-121.51379804},{"type":"image","img":"20210519-photo11","timestamp":0,"lat":40.99696919,"lng":-121.49640902},{"type":"image","img":"20210519-photo12","timestamp":0,"lat":40.99696919,"lng":-121.49640902},{"type":"image","img":"20210519-photo2","timestamp":0,"lat":40.53227303,"lng":-121.62943512},{"type":"image","img":"20210519-photo3","timestamp":0,"lat":40.56005489,"lng":-121.57665377},{"type":"image","img":"20210519-photo4","timestamp":0,"lat":40.56131436,"lng":-121.5761863},{"type":"image","img":"20210519-photo5","timestamp":0,"lat":40.56237183,"lng":-121.57572686},{"type":"image","img":"20210519-photo6","timestamp":0,"lat":40.97245552,"lng":-121.56363366},{"type":"image","img":"20210519-photo7","timestamp":0,"lat":40.97245552,"lng":-121.56363366},{"type":"image","img":"20210519-photo8","timestamp":0,"lat":40.97245552,"lng":-121.56363366},{"type":"image","img":"20210519-photo9","timestamp":0,"lat":40.98080268,"lng":-121.54682239}],"time":41515000,"distance":117384.65206480635,"uphill":1093,"pointCount":632,"tags":[],"categories":["all","with-pictures"]},{"title":"To Seattle #20","description":"Day 4. Tire corruption on a gravel road, uphill to 1km","gpx":["track.gpx"],"date":"2021-05-18","id":"20210518","objects":[{"type":"image","img":"20210518-photo0","timestamp":0,"lat":39.92752181,"lng":-122.19744308},{"type":"image","img":"20210518-photo1","timestamp":0,"lat":40.32373763,"lng":-122.06458669},{"type":"image","img":"20210518-photo2","timestamp":0,"lat":40.40477011,"lng":-121.99178789}],"time":40110000,"distance":93685.80922221683,"uphill":931,"pointCount":595,"tags":[],"categories":["all","with-pictures"]}]},"__N_SSG":true}