{"pageProps":{"siteDescription":"Description of local dev version","siteTitle":"Local dev version","currentPage":"23","categories":[{"id":"all","title":"All","count":70},{"id":"with-pictures","title":"With pictures or videos","count":49},{"id":"ToTheEastCoast","title":"ToTheEastCoast","count":39},{"id":"recumbent","title":"recumbent","count":38}],"pages":25,"category":"with-pictures","index":[{"title":"To Seattle #16","description":"Day 1. The first day wasn't lucky I spent 4 patches for flatten tire","gpx":["track.gpx"],"date":"2021-05-15","id":"20210515","objects":[{"type":"image","img":"20210515-photo0","timestamp":0,"lat":37.30109975,"lng":-122.01097021},{"type":"image","img":"20210515-photo1","timestamp":0,"lat":37.58916038,"lng":-121.95792147}],"time":45611000,"distance":153486.16847696507,"uphill":314,"pointCount":708,"tags":[],"categories":["all","with-pictures"]},{"title":"Around the Bay #7","description":"In fact, it was 225 km for 16 hours approximately. The next increasing daily distance is possible only for increasing average speed and reducing navigation time","gpx":["track.gpx"],"date":"2020-01-19","id":"20200119","objects":[{"type":"video","img":"20200119-e01","youtubeId":"M3b-awmlwPo","timestamp":0,"lat":37.418892,"lng":-122.068846},{"type":"video","img":"20200119-e02","youtubeId":"iGJs_mebwR0","timestamp":0,"lat":37.498277,"lng":-122.129517},{"type":"video","img":"20200119-e03","youtubeId":"-QmPSswgI_k","timestamp":0,"lat":37.50174,"lng":-122.124405},{"type":"video","img":"20200119-e04","youtubeId":"oxNSr7QdJ7s","timestamp":0,"lat":37.532813,"lng":-122.074315},{"type":"video","img":"20200119-e05","youtubeId":"5bdX3a7Supg","timestamp":0,"lat":37.633878,"lng":-122.152371},{"type":"video","img":"20200119-e06","youtubeId":"LB1vycQ2TvM","timestamp":0,"lat":37.665951,"lng":-122.16081},{"type":"video","img":"20200119-e07","youtubeId":"7l8yg2H2A2A","timestamp":0,"lat":37.644555,"lng":-122.153894},{"type":"video","img":"20200119-e08","youtubeId":"M7d2OHUi6gw","timestamp":0,"lat":37.671491,"lng":-122.162008},{"type":"video","img":"20200119-e09","youtubeId":"u9Pl1-olrjw","timestamp":0,"lat":37.729454,"lng":-122.20691},{"type":"video","img":"20200119-e10","youtubeId":"ATnF0cM8XCQ","timestamp":0,"lat":37.733401,"lng":-122.211404}],"time":57818000,"distance":210811.23088367286,"uphill":89,"pointCount":895,"tags":[],"categories":["all","with-pictures"]}]},"__N_SSG":true}