{"pageProps":{"siteDescription":"Description of local dev version","siteTitle":"Local dev version","currentPage":"16","categories":[{"id":"all","title":"All","count":70},{"id":"with-pictures","title":"With pictures or videos","count":49},{"id":"ToTheEastCoast","title":"ToTheEastCoast","count":39},{"id":"recumbent","title":"recumbent","count":38}],"pages":35,"category":"all","index":[{"title":"To The East Coast #40","description":"Day 9. Utah. I bought a new bike rack and also refilled my submimated food supplies in REI. Since it was a day for rest, I also grabed couple glasses of beer in a downtown pub.","tags":["recumbent","ToTheEastCoast"],"gpx":["track.gpx"],"date":"2022-05-11","hash":["3800d6ca932a62af347eb267c38474004028e1b1e23208723f2779b9a5ca3c4"],"id":"20220511","objects":[{"type":"image","img":"20220511-photo0","timestamp":1652263675000,"lat":40.38778333333333,"lng":-111.83049166666666},{"type":"image","img":"20220511-photo1","timestamp":1652265569000,"lat":40.46301770846614,"lng":-111.9343552896714},{"type":"image","img":"20220511-photo2","timestamp":1652270217000,"lat":40.48826666666667,"lng":-111.92629166666667},{"type":"image","img":"20220511-photo3","timestamp":1652277408000,"lat":40.558452777777774,"lng":-111.89276666666667},{"type":"image","img":"20220511-photo4","timestamp":1652298342000,"lat":40.76248888888889,"lng":-111.89386666666667},{"type":"image","img":"20220511-photo5","timestamp":1652298595000,"lat":40.76486944444444,"lng":-111.89306111111112},{"type":"image","img":"20220511-photo6","timestamp":1652298719000,"lat":40.76484722222222,"lng":-111.89291944444444},{"type":"image","img":"20220511-photo7","timestamp":1652299394000,"lat":40.76643055555556,"lng":-111.89153611111112},{"type":"image","img":"20220511-photo8","timestamp":1652299436000,"lat":40.76643055555556,"lng":-111.89153611111112},{"type":"image","img":"20220511-photo9","timestamp":1652302166000,"lat":40.76642777777778,"lng":-111.89127222222223},{"type":"image","img":"20220511-photo10","timestamp":1652302329000,"lat":40.765166666666666,"lng":-111.89106944444445},{"type":"image","img":"20220511-photo11","timestamp":1652302336000,"lat":40.765166666666666,"lng":-111.89106944444445}],"time":30986000,"distance":77424.51206638737,"uphill":872,"pointCount":317,"categories":["all","recumbent","ToTheEastCoast","with-pictures"]},{"title":"To The East Coast #39","description":"Day 8. Utah. Tent.","tags":["recumbent","ToTheEastCoast"],"gpx":["track.gpx"],"date":"2022-05-10","hash":["2c98fe470aca9ee5e6de46a75674bad582a59314b4ec718c5b269663308fae34"],"id":"20220510","objects":[{"type":"image","img":"20220510-photo0","timestamp":1652169707000,"lat":39.07886666666667,"lng":-113.48426666666667},{"type":"image","img":"20220510-photo1","timestamp":1652169750000,"lat":39.07886666666667,"lng":-113.48426666666667},{"type":"image","img":"20220510-photo2","timestamp":1652171851000,"lat":39.07897222222223,"lng":-113.48406111111112},{"type":"image","img":"20220510-photo3","timestamp":1652174371000,"lat":39.04962777777778,"lng":-113.41771111111112},{"type":"image","img":"20220510-photo4","timestamp":1652180114000,"lat":39.06568333333333,"lng":-113.23306111111111},{"type":"image","img":"20220510-photo5","timestamp":1652186457000,"lat":39.2519,"lng":-112.89462222222222},{"type":"image","img":"20220510-photo6","timestamp":1652190482000,"lat":39.329169444444446,"lng":-112.67188611111112},{"type":"image","img":"20220510-photo7","timestamp":1652191360000,"lat":39.33043888888889,"lng":-112.62167777777778},{"type":"image","img":"20220510-photo8","timestamp":1652191544000,"lat":39.33060555555556,"lng":-112.61545833333332},{"type":"image","img":"20220510-photo9","timestamp":1652208493000,"lat":39.80905,"lng":-112.14339444444445},{"type":"image","img":"20220510-photo10","timestamp":1652213180000,"lat":39.95462777777778,"lng":-112.11930555555556},{"type":"image","img":"20220510-photo11","timestamp":1652213236000,"lat":39.954994444444445,"lng":-112.11973888888888},{"type":"image","img":"20220510-photo12","timestamp":1652213246000,"lat":39.954994444444445,"lng":-112.11973888888888},{"type":"image","img":"20220510-photo13","timestamp":1652214155000,"lat":39.97005277777778,"lng":-112.06074722222222},{"type":"image","img":"20220510-photo14","timestamp":1652214882000,"lat":39.95180555555556,"lng":-111.96867222222222}],"time":54620000,"distance":244759.88784088087,"uphill":659,"pointCount":562,"categories":["all","recumbent","ToTheEastCoast","with-pictures"]}]},"__N_SSG":true}