{"pageProps":{"siteDescription":"Description of local dev version","siteTitle":"Local dev version","currentPage":"17","categories":[{"id":"all","title":"All","count":70},{"id":"with-pictures","title":"With pictures or videos","count":49},{"id":"ToTheEastCoast","title":"ToTheEastCoast","count":39},{"id":"recumbent","title":"recumbent","count":38}],"pages":35,"category":"all","index":[{"title":"To The East Coast #38","description":"Day 7. Nevada, Utah. Motel.","tags":["recumbent","ToTheEastCoast"],"gpx":["track.gpx"],"date":"2022-05-09","hash":["149d379dc69776a5cb14751a6308cab53854e523bd22edb9f50d3f652bfdcaa"],"id":"20220509","objects":[{"type":"image","img":"20220509-photo0","timestamp":1652088857000,"lat":39.220525,"lng":-114.857025},{"type":"image","img":"20220509-photo1","timestamp":1652100138000,"lat":39.03819444444444,"lng":-114.64956388888889},{"type":"image","img":"20220509-photo2","timestamp":1652100751000,"lat":39.03554166666667,"lng":-114.60653333333333},{"type":"image","img":"20220509-photo3","timestamp":1652101245000,"lat":39.02388055555556,"lng":-114.56045555555555},{"type":"image","img":"20220509-photo4","timestamp":1652114270000,"lat":39.143724999999996,"lng":-114.33710555555555},{"type":"image","img":"20220509-photo5","timestamp":1652114603000,"lat":39.139152777777774,"lng":-114.33205},{"type":"image","img":"20220509-photo6","timestamp":1652121292000,"lat":39.04989444444444,"lng":-113.95455},{"type":"image","img":"20220509-photo7","timestamp":1652122197000,"lat":39.04593055555555,"lng":-113.90292500000001}],"time":43538000,"distance":151065.74709801422,"uphill":981,"pointCount":417,"categories":["all","recumbent","ToTheEastCoast","with-pictures"]},{"title":"To The East Coast #37","description":"Day 6. Nevada. Tent.","tags":["recumbent","ToTheEastCoast"],"gpx":["track.gpx"],"date":"2022-05-08","hash":["6eedd4c2fe5124550842c20a90f490364db4c2008edf0f8711cdca5036077244"],"id":"20220508","objects":[{"type":"image","img":"20220508-photo0","timestamp":1651993673000,"lat":39.483975,"lng":-116.59221111111111},{"type":"image","img":"20220508-photo1","timestamp":1651993688000,"lat":39.483975,"lng":-116.59221111111111},{"type":"image","img":"20220508-photo2","timestamp":1651993705000,"lat":39.483975,"lng":-116.59221111111111},{"type":"image","img":"20220508-photo3","timestamp":1652004710000,"lat":39.57330277777778,"lng":-116.07809722222221},{"type":"image","img":"20220508-photo4","timestamp":1652006372000,"lat":39.55533888888888,"lng":-115.99570277777778},{"type":"image","img":"20220508-photo5","timestamp":1652009543000,"lat":39.512658333333334,"lng":-115.96105277777778},{"type":"image","img":"20220508-photo6","timestamp":1652009550000,"lat":39.512658333333334,"lng":-115.96105277777778},{"type":"image","img":"20220508-photo7","timestamp":1652009600000,"lat":39.512658333333334,"lng":-115.96105277777778},{"type":"image","img":"20220508-photo8","timestamp":1652009606000,"lat":39.511783333333334,"lng":-115.96059166666667},{"type":"image","img":"20220508-photo9","timestamp":1652014604000,"lat":39.45342222222222,"lng":-115.936175},{"type":"image","img":"20220508-photo10","timestamp":1652027798000,"lat":39.39778333333333,"lng":-115.47023333333334},{"type":"image","img":"20220508-photo11","timestamp":1652032832000,"lat":39.35913055555556,"lng":-115.3525611111111},{"type":"image","img":"20220508-photo12","timestamp":1652042652000,"lat":39.28275555555555,"lng":-114.96419444444444},{"type":"image","img":"20220508-photo13","timestamp":1652043590000,"lat":39.247841666666666,"lng":-114.89416944444446}],"time":43697000,"distance":184268.7071672844,"uphill":1171,"pointCount":412,"categories":["all","recumbent","ToTheEastCoast","with-pictures"]}]},"__N_SSG":true}