{"pageProps":{"siteDescription":"Description of local dev version","siteTitle":"Local dev version","currentPage":"18","categories":[{"id":"all","title":"All","count":70},{"id":"with-pictures","title":"With pictures or videos","count":49},{"id":"ToTheEastCoast","title":"ToTheEastCoast","count":39},{"id":"recumbent","title":"recumbent","count":38}],"pages":35,"category":"all","index":[{"title":"To The East Coast #36","description":"Day 5. Nevada. Tent.","tags":["recumbent","ToTheEastCoast"],"gpx":["track.gpx"],"date":"2022-05-07","hash":["3c178e035a24702c6b44f2294fcab3fe46ac417fd28100de996524f7c7def902"],"id":"20220507","objects":[{"type":"image","img":"20220507-photo0","timestamp":1651904269000,"lat":39.2904,"lng":-118.04742777777777},{"type":"image","img":"20220507-photo1","timestamp":1651915329000,"lat":39.50753531088604,"lng":-117.77122632964887},{"type":"image","img":"20220507-photo2","timestamp":1651920051000,"lat":39.57626666666667,"lng":-117.59782222222222},{"type":"image","img":"20220507-photo3","timestamp":1651929229000,"lat":39.504352777777775,"lng":-117.38210277777777},{"type":"image","img":"20220507-photo4","timestamp":1651930125000,"lat":39.47974444444445,"lng":-117.28091388888889},{"type":"image","img":"20220507-photo5","timestamp":1651938034000,"lat":39.49061388888889,"lng":-117.06883611111111},{"type":"image","img":"20220507-photo6","timestamp":1651938046000,"lat":39.49061388888889,"lng":-117.06883611111111},{"type":"image","img":"20220507-photo7","timestamp":1651938136000,"lat":39.490291666666664,"lng":-117.06841666666666}],"time":44924000,"distance":156545.91662921186,"uphill":1429,"pointCount":425,"categories":["all","recumbent","ToTheEastCoast","with-pictures"]},{"title":"To The East Coast #35","description":"Day 4. Nevada. Tent. Welcome To Nevada. High altitude, good state of roads,  and wind blowing to my back allowed me to reach a good average speed and  to ride more then 200 km. A huge advantage of Nevada is that the tent could be set up everywhere, all lands are not private (almost)","tags":["recumbent","ToTheEastCoast"],"gpx":["track.gpx"],"date":"2022-05-06","hash":["8281f4ab489d98c313385a85f46e80ebc6482f931199407f9945a7034218accd"],"id":"20220506","objects":[{"type":"image","img":"20220506-photo0","timestamp":1651817949000,"lat":38.76618333333333,"lng":-119.84521944444444},{"type":"image","img":"20220506-photo1","timestamp":1651819812000,"lat":38.766330555555555,"lng":-119.84539166666666},{"type":"image","img":"20220506-photo2","timestamp":1651823531000,"lat":38.91179722222222,"lng":-119.77914722222222},{"type":"image","img":"20220506-photo3","timestamp":1651826347000,"lat":38.96149722222223,"lng":-119.77846111111111},{"type":"image","img":"20220506-photo4","timestamp":1651840296000,"lat":39.370894444444446,"lng":-119.34840833333332},{"type":"image","img":"20220506-photo5","timestamp":1651840329000,"lat":39.371583333333334,"lng":-119.3463361111111},{"type":"image","img":"20220506-photo6","timestamp":1651843648000,"lat":39.44471944444444,"lng":-119.090775},{"type":"image","img":"20220506-photo7","timestamp":1651844089000,"lat":39.458125,"lng":-119.08259722222222},{"type":"image","img":"20220506-photo8","timestamp":1651853582000,"lat":39.46434166666667,"lng":-118.6809138888889},{"type":"image","img":"20220506-photo9","timestamp":1651858151000,"lat":39.29784166666666,"lng":-118.47068888888889},{"type":"image","img":"20220506-photo10","timestamp":1651862353000,"lat":39.27450555555556,"lng":-118.33212499999999},{"type":"image","img":"20220506-photo11","timestamp":1651869311000,"lat":39.29035833333333,"lng":-118.04748055555555}],"time":44910000,"distance":222641.2416935819,"uphill":679,"pointCount":407,"categories":["all","recumbent","ToTheEastCoast","with-pictures"]}]},"__N_SSG":true}