{"pageProps":{"siteDescription":"Description of local dev version","siteTitle":"Local dev version","currentPage":"19","categories":[{"id":"all","title":"All","count":70},{"id":"with-pictures","title":"With pictures or videos","count":49},{"id":"ToTheEastCoast","title":"ToTheEastCoast","count":39},{"id":"recumbent","title":"recumbent","count":38}],"pages":35,"category":"all","index":[{"title":"To The East Coast #34","description":"Day 3. California. Tent. That was hard to climb to 2500m which is my personal record of altitude reached with a bicycle. It is not surprising that in the mountains were cold and windy. The wind was like a storm, I spent a lot of effort and 30 mins for setting the tent up.","tags":["ToTheEastCoast","recumbent"],"gpx":["track.gpx"],"date":"2022-05-05","hash":["989ffb2440fcd9f9e776e8c48bdebdd32a09f634514d82c1565fb615f0f94737"],"id":"20220505","objects":[{"type":"image","img":"20220505-photo0","timestamp":1651733012000,"lat":38.42216388888889,"lng":-120.64256111111112},{"type":"image","img":"20220505-photo1","timestamp":1651766373000,"lat":38.625125,"lng":-120.19748055555556},{"type":"image","img":"20220505-photo2","timestamp":1651767267000,"lat":38.63344722222222,"lng":-120.17670555555556},{"type":"image","img":"20220505-photo3","timestamp":1651767278000,"lat":38.63344722222222,"lng":-120.17670555555556},{"type":"image","img":"20220505-photo4","timestamp":1651768736000,"lat":38.63798333333333,"lng":-120.14455833333334},{"type":"image","img":"20220505-photo5","timestamp":1651768967000,"lat":38.641422222222225,"lng":-120.13631666666667},{"type":"image","img":"20220505-photo6","timestamp":1651768995000,"lat":38.64161388888889,"lng":-120.13640000000001},{"type":"image","img":"20220505-photo7","timestamp":1651774909000,"lat":38.70348333333334,"lng":-120.06341666666667}],"time":51184000,"distance":104500.68126188731,"uphill":2367,"pointCount":465,"categories":["all","ToTheEastCoast","recumbent","with-pictures"]},{"title":"To The East Coast #33","description":"Day 2. California. Tent.","tags":["ToTheEastCoast","recumbent"],"gpx":["track.gpx"],"date":"2022-05-04","hash":["c197c71558e266de2af2fc0f63a133079996885da16da3715e1c6c7314d3433d"],"id":"20220504","objects":[{"type":"image","img":"20220504-photo0","timestamp":1651644102000,"lat":38.112991666666666,"lng":-121.69656388888889},{"type":"image","img":"20220504-photo1","timestamp":1651646803000,"lat":38.11271111111111,"lng":-121.69752222222223},{"type":"image","img":"20220504-photo2","timestamp":1651647808000,"lat":38.123,"lng":-121.69004722222222},{"type":"image","img":"20220504-photo3","timestamp":1651657229000,"lat":38.24261111111111,"lng":-121.51571388888888},{"type":"image","img":"20220504-photo4","timestamp":1651676255000,"lat":38.358830555555556,"lng":-120.93995555555556},{"type":"image","img":"20220504-photo5","timestamp":1651697294000,"lat":38.42283055555556,"lng":-120.64446111111111},{"type":"image","img":"20220504-photo6","timestamp":1651701074000,"lat":38.42276666666667,"lng":-120.64438611111112}],"time":42599000,"distance":121144.79786510556,"uphill":871,"pointCount":383,"categories":["all","ToTheEastCoast","recumbent","with-pictures"]}]},"__N_SSG":true}