{"pageProps":{"siteDescription":"Description of local dev version","siteTitle":"Local dev version","currentPage":"20","categories":[{"id":"all","title":"All","count":70},{"id":"with-pictures","title":"With pictures or videos","count":49},{"id":"ToTheEastCoast","title":"ToTheEastCoast","count":39},{"id":"recumbent","title":"recumbent","count":38}],"pages":35,"category":"all","index":[{"title":"To The East Coast #32","description":"Day 1. California. The route was the same as I made a year ago but in this time it was much faster and easier. Nothing special in the day, mostly flat. At the destination point a campground in Brannan Island State Park has suddenly been closed and  I used a road shoulder for camping.","tags":["ToTheEastCoast","recumbent"],"gpx":["track.gpx"],"date":"2022-05-03","hash":["1be36da908f585e05576544fb692bf60d8efe713b8d39456eb89a2c6d49597ef"],"id":"20220503","objects":[{"type":"image","img":"20220503-photo0","timestamp":1651573975000,"lat":37.32461944444445,"lng":-121.97915},{"type":"image","img":"20220503-photo1","timestamp":1651574600000,"lat":37.32692777777778,"lng":-121.97920555555555},{"type":"image","img":"20220503-photo2","timestamp":1651576626000,"lat":37.38424722222222,"lng":-121.96888611111112},{"type":"image","img":"20220503-photo3","timestamp":1651576654000,"lat":37.384433333333334,"lng":-121.96870277777778},{"type":"image","img":"20220503-photo4","timestamp":1651576659000,"lat":37.384433333333334,"lng":-121.96870277777778},{"type":"image","img":"20220503-photo5","timestamp":1651576766000,"lat":37.38855,"lng":-121.96847777777778},{"type":"image","img":"20220503-photo6","timestamp":1651576773000,"lat":37.38855,"lng":-121.96847777777778},{"type":"image","img":"20220503-photo7","timestamp":1651577014000,"lat":37.39655555555556,"lng":-121.96861111111112},{"type":"image","img":"20220503-photo8","timestamp":1651577092000,"lat":37.40051388888889,"lng":-121.97043333333333},{"type":"image","img":"20220503-photo9","timestamp":1651577222000,"lat":37.40303888888889,"lng":-121.97215277777778},{"type":"image","img":"20220503-photo10","timestamp":1651578768000,"lat":37.43313333333333,"lng":-121.92701666666667},{"type":"image","img":"20220503-photo11","timestamp":1651581774000,"lat":37.529669444444444,"lng":-121.95843333333333},{"type":"image","img":"20220503-photo12","timestamp":1651584487000,"lat":37.57560555555556,"lng":-121.9688},{"type":"image","img":"20220503-photo13","timestamp":1651590502000,"lat":37.68063055555555,"lng":-121.90583055555557},{"type":"image","img":"20220503-photo14","timestamp":1651591305000,"lat":37.68973611111111,"lng":-121.90286388888889},{"type":"image","img":"20220503-photo15","timestamp":1651604430000,"lat":38.019325,"lng":-121.98759166666667},{"type":"image","img":"20220503-photo16","timestamp":1651610259000,"lat":38.029713888888885,"lng":-121.75150277777777},{"type":"image","img":"20220503-photo17","timestamp":1651610287000,"lat":38.029713888888885,"lng":-121.75150277777777}],"time":40029000,"distance":140166.47742667835,"uphill":391,"pointCount":371,"categories":["all","ToTheEastCoast","recumbent","with-pictures"]},{"title":"To Seattle, All 15 days #31","description":null,"gpx":["track1.gpx","track2.gpx","track3.gpx","track4.gpx","track5.gpx","track6.gpx","track7.gpx","track8.gpx","track9.gpx","track10.gpx","track11.gpx","track12.gpx","track13.gpx","track14.gpx","track15.gpx"],"date":"2021-05-29","id":"20210529-all","objects":[],"time":595284000,"distance":1787670.8965024275,"uphill":8552,"pointCount":8885,"tags":[],"categories":["all"]}]},"__N_SSG":true}