{"pageProps":{"siteDescription":"Description of local dev version","siteTitle":"Local dev version","currentPage":"23","categories":[{"id":"all","title":"All","count":70},{"id":"with-pictures","title":"With pictures or videos","count":49},{"id":"ToTheEastCoast","title":"ToTheEastCoast","count":39},{"id":"recumbent","title":"recumbent","count":38}],"pages":35,"category":"all","index":[{"title":"To Seattle #26","description":"Day 11","gpx":["track.gpx"],"date":"2021-05-25","id":"20210525","objects":[{"type":"image","img":"20210525-photo0","timestamp":0,"lat":45.24970049,"lng":-122.8838175},{"type":"image","img":"20210525-photo1","timestamp":0,"lat":45.43516868,"lng":-122.65357962},{"type":"image","img":"20210525-photo10","timestamp":0,"lat":46.1030103,"lng":-122.96343004},{"type":"image","img":"20210525-photo2","timestamp":0,"lat":45.46442156,"lng":-122.66839541},{"type":"image","img":"20210525-photo3","timestamp":0,"lat":45.47909531,"lng":-122.67062843},{"type":"image","img":"20210525-photo4","timestamp":0,"lat":45.48634073,"lng":-122.67209531},{"type":"image","img":"20210525-photo5","timestamp":0,"lat":45.48634073,"lng":-122.67209531},{"type":"image","img":"20210525-photo6","timestamp":0,"lat":45.50204806,"lng":-122.67214441},{"type":"image","img":"20210525-photo7","timestamp":0,"lat":45.51572402,"lng":-122.6774336},{"type":"image","img":"20210525-photo8","timestamp":0,"lat":45.58101563,"lng":-122.7652316},{"type":"image","img":"20210525-photo9","timestamp":0,"lat":46.10112645,"lng":-122.96507687}],"time":44278000,"distance":142671.44980477513,"uphill":262,"pointCount":658,"tags":[],"categories":["all","with-pictures"]},{"title":"To Seattle #25","description":"Day 10","gpx":["track.gpx"],"date":"2021-05-24","id":"20210524","objects":[{"type":"image","img":"20210524-photo0","timestamp":0,"lat":44.63071877,"lng":-123.08707987},{"type":"image","img":"20210524-photo1","timestamp":0,"lat":44.77790988,"lng":-123.02529041},{"type":"image","img":"20210524-photo2","timestamp":0,"lat":44.84099865,"lng":-123.02536125},{"type":"image","img":"20210524-photo3","timestamp":0,"lat":44.84167478,"lng":-123.02579664},{"type":"image","img":"20210524-photo4","timestamp":0,"lat":45.19298198,"lng":-122.89624369}],"time":47889000,"distance":162862.90158392373,"uphill":608,"pointCount":720,"tags":[],"categories":["all","with-pictures"]}]},"__N_SSG":true}