{"pageProps":{"siteDescription":"Description of local dev version","siteTitle":"Local dev version","currentPage":"3","categories":[{"id":"all","title":"All","count":70},{"id":"with-pictures","title":"With pictures or videos","count":49},{"id":"ToTheEastCoast","title":"ToTheEastCoast","count":39},{"id":"recumbent","title":"recumbent","count":38}],"pages":35,"category":"all","index":[{"title":"Daily ride 2022-06-07 #66","description":"Day 36. New York. Tent.","tags":["recumbent","ToTheEastCoast"],"gpx":["track.gpx"],"date":"2022-06-07","hash":["9960e65b7b9db5717636bbf3231c2f7b6416c18561ada53f1372f21d878bc591"],"id":"20220607","objects":[{"type":"image","img":"20220607-photo0","timestamp":1654585671000,"lat":43.724919444444446,"lng":-75.4682138888889},{"type":"image","img":"20220607-photo1","timestamp":1654594829000,"lat":43.49725277777778,"lng":-75.34402222222222}],"time":50730000,"distance":160194.39311568398,"uphill":919,"pointCount":446,"categories":["all","recumbent","ToTheEastCoast","with-pictures"]},{"title":"Daily ride 2022-06-06 #65","description":"Day 35. New York. Tent.","tags":["recumbent","ToTheEastCoast"],"gpx":["track.gpx"],"date":"2022-06-06","hash":["2fcfd7077ebcb37017a4be11cda9f2b25ffba8f3e1c6c6bb16c888724181952b"],"id":"20220606","objects":[{"type":"image","img":"20220606-photo0","timestamp":1654493965000,"lat":44.29185277777778,"lng":-76.30979722222222},{"type":"image","img":"20220606-photo1","timestamp":1654499908000,"lat":44.32779722222222,"lng":-76.16448333333334},{"type":"image","img":"20220606-photo2","timestamp":1654530120000,"lat":43.974291666666666,"lng":-75.9090638888889}],"time":52529000,"distance":148641.22576592962,"uphill":1020,"pointCount":480,"categories":["all","recumbent","ToTheEastCoast","with-pictures"]}]},"__N_SSG":true}