{"pageProps":{"siteDescription":"Description of local dev version","siteTitle":"Local dev version","currentPage":"4","categories":[{"id":"all","title":"All","count":70},{"id":"with-pictures","title":"With pictures or videos","count":49},{"id":"ToTheEastCoast","title":"ToTheEastCoast","count":39},{"id":"recumbent","title":"recumbent","count":38}],"pages":35,"category":"all","index":[{"title":"Daily ride 2022-06-05 #64","description":"Day 34. Canada. Tent.","tags":["recumbent","ToTheEastCoast"],"gpx":["track.gpx"],"date":"2022-06-05","hash":["730c683b9a2057dd6e12cfc04a8c1358f7b1a4b41a98e7d36e3c3cb5f63086c3"],"id":"20220605","objects":[{"type":"image","img":"20220605-photo0","timestamp":1654412242000,"lat":43.975008333333335,"lng":-78.11253888888888},{"type":"image","img":"20220605-photo1","timestamp":1654431430000,"lat":44.102494444444446,"lng":-77.574225},{"type":"image","img":"20220605-photo2","timestamp":1654457322000,"lat":44.25833055555555,"lng":-76.56912222222222},{"type":"image","img":"20220605-photo3","timestamp":1654460234000,"lat":44.2327,"lng":-76.48941944444445}],"time":42753000,"distance":157898.80418933652,"uphill":693,"pointCount":379,"categories":["all","recumbent","ToTheEastCoast","with-pictures"]},{"title":"Daily ride 2022-06-04 #63","description":"Day 33. Canada. Motel.","tags":["recumbent","ToTheEastCoast"],"gpx":["track.gpx"],"date":"2022-06-04","hash":["54da699aa61a1dafbadd6833193d6da74795b9f4218c87a36c0a09c77098b56b"],"id":"20220604","objects":[{"type":"image","img":"20220604-photo0","timestamp":1654358789000,"lat":43.77551944444444,"lng":-79.13419444444445},{"type":"image","img":"20220604-photo1","timestamp":1654359126000,"lat":43.783905555555556,"lng":-79.125975},{"type":"image","img":"20220604-photo2","timestamp":1654359739000,"lat":43.79461111111111,"lng":-79.117725},{"type":"image","img":"20220604-photo3","timestamp":1654360750000,"lat":43.815580555555556,"lng":-79.09750277777778},{"type":"image","img":"20220604-photo4","timestamp":1654360763000,"lat":43.81557222222222,"lng":-79.09750555555556},{"type":"image","img":"20220604-photo5","timestamp":1654363598000,"lat":43.84411388888889,"lng":-79.01738611111111}],"time":44593000,"distance":143865.21368704876,"uphill":461,"pointCount":430,"categories":["all","recumbent","ToTheEastCoast","with-pictures"]}]},"__N_SSG":true}