{"pageProps":{"siteDescription":"Description of local dev version","siteTitle":"Local dev version","currentPage":"5","categories":[{"id":"all","title":"All","count":70},{"id":"with-pictures","title":"With pictures or videos","count":49},{"id":"ToTheEastCoast","title":"ToTheEastCoast","count":39},{"id":"recumbent","title":"recumbent","count":38}],"pages":35,"category":"all","index":[{"title":"Daily ride 2022-06-02 #62","description":"Day 31. Canada. Tent. I arrived in Toronto for drinking beers.","tags":["recumbent","ToTheEastCoast"],"gpx":["track.gpx"],"date":"2022-06-02","hash":["62402d1438bde652fda107ce453c15658d8833b67f7d5a3064b4adb903331308"],"id":"20220602","objects":[],"time":35461000,"distance":112585.19053275339,"uphill":203,"pointCount":341,"categories":["all","recumbent","ToTheEastCoast"]},{"title":"Daily ride 2022-06-01 #61","description":"Day 30. Canada. Tent.","tags":["recumbent","ToTheEastCoast"],"gpx":["track.gpx"],"date":"2022-06-01","hash":["3121c8ebf870be4b91a5eeb6eed59ad4f05bbf622bf2c53ef95ef941ac42044e"],"id":"20220601","objects":[],"time":46049000,"distance":175935.95571459684,"uphill":587,"pointCount":427,"categories":["all","recumbent","ToTheEastCoast"]}]},"__N_SSG":true}