{"pageProps":{"siteDescription":"Description of local dev version","siteTitle":"Local dev version","currentPage":"6","categories":[{"id":"all","title":"All","count":70},{"id":"with-pictures","title":"With pictures or videos","count":49},{"id":"ToTheEastCoast","title":"ToTheEastCoast","count":39},{"id":"recumbent","title":"recumbent","count":38}],"pages":35,"category":"all","index":[{"title":"Daily ride 2022-05-31 #60","description":"Day 29. Michigan, Canada. Motel.","tags":["recumbent","ToTheEastCoast"],"gpx":["track.gpx"],"date":"2022-05-31","hash":["7d3c9a8ae9f39e13fac0c226d038e45904a7f675db4e3dd72bcfbd5a1dc32b75"],"id":"20220531","objects":[],"time":43279000,"distance":167361.72546257536,"uphill":637,"pointCount":409,"categories":["all","recumbent","ToTheEastCoast"]},{"title":"Daily ride 2022-05-30 #59","description":"Day 28. Michigan. Tent.","tags":["recumbent","ToTheEastCoast"],"gpx":["track.gpx"],"date":"2022-05-30","hash":["f1c7fca54079a7b7d19106f604f0384631c6b5680763ec0d8e2268971f7262f0"],"id":"20220530","objects":[],"time":41274000,"distance":164155.33289892867,"uphill":498,"pointCount":375,"categories":["all","recumbent","ToTheEastCoast"]}]},"__N_SSG":true}