{"pageProps":{"siteDescription":"Description of local dev version","siteTitle":"Local dev version","currentPage":"7","categories":[{"id":"all","title":"All","count":70},{"id":"with-pictures","title":"With pictures or videos","count":49},{"id":"ToTheEastCoast","title":"ToTheEastCoast","count":39},{"id":"recumbent","title":"recumbent","count":38}],"pages":35,"category":"all","index":[{"title":"Daily ride 2022-05-29 #58","description":"Day 27. Michigan. Tent.","tags":["recumbent","ToTheEastCoast"],"gpx":["track.gpx"],"date":"2022-05-29","hash":["d38a5707b0b7a3b31f3069a0d75676b08d7c122c215238af7906e1dbccc7984e"],"id":"20220529","objects":[{"type":"image","img":"20220529-photo0","timestamp":1653812695000,"lat":41.94282777777777,"lng":-86.45843611111111},{"type":"image","img":"20220529-photo1","timestamp":1653828915000,"lat":41.911702777777776,"lng":-86.03486944444444},{"type":"image","img":"20220529-photo2","timestamp":1653829480000,"lat":41.91150555555556,"lng":-86.01335555555555},{"type":"image","img":"20220529-photo3","timestamp":1653829484000,"lat":41.91150555555556,"lng":-86.01335555555555},{"type":"image","img":"20220529-photo4","timestamp":1653836581000,"lat":41.925863888888884,"lng":-85.82668333333334},{"type":"image","img":"20220529-photo5","timestamp":1653836643000,"lat":41.92652222222222,"lng":-85.82271944444445},{"type":"image","img":"20220529-photo6","timestamp":1653836978000,"lat":41.92561388888889,"lng":-85.80920833333333},{"type":"image","img":"20220529-photo7","timestamp":1653838247000,"lat":41.925758333333334,"lng":-85.76819722222223},{"type":"image","img":"20220529-photo8","timestamp":1653847525000,"lat":42.00709722222222,"lng":-85.45418055555555},{"type":"image","img":"20220529-photo9","timestamp":1653853100000,"lat":42.06168611111111,"lng":-85.24485555555556}],"time":44627000,"distance":151374.80031650246,"uphill":696,"pointCount":392,"categories":["all","recumbent","ToTheEastCoast","with-pictures"]},{"title":"Daily ride 2022-05-28 #57","description":"Day 26. Illinois, Indiana, Michigan. Motel. Memorial Day in Chicago was Amazing","tags":["recumbent","ToTheEastCoast"],"gpx":["track.gpx"],"date":"2022-05-28","hash":["eec5e43ee194f23908845b027a4b2f2e87b7058aa2ef5e42fe7f8ffa7826d121"],"id":"20220528","objects":[{"type":"image","img":"20220528-photo0","timestamp":1653738059000,"lat":41.916888888888884,"lng":-87.6642638888889},{"type":"image","img":"20220528-photo1","timestamp":1653738067000,"lat":41.916888888888884,"lng":-87.6642638888889},{"type":"image","img":"20220528-photo2","timestamp":1653739046000,"lat":41.91509722222222,"lng":-87.6348388888889},{"type":"image","img":"20220528-photo3","timestamp":1653740164000,"lat":41.88887222222222,"lng":-87.62954444444443},{"type":"image","img":"20220528-photo4","timestamp":1653740341000,"lat":41.886919444444445,"lng":-87.62958888888888},{"type":"image","img":"20220528-photo5","timestamp":1653740713000,"lat":41.884569444444445,"lng":-87.62934722222222},{"type":"image","img":"20220528-photo6","timestamp":1653741457000,"lat":41.88305833333333,"lng":-87.62821666666666},{"type":"image","img":"20220528-photo7","timestamp":1653742400000,"lat":41.88281111111111,"lng":-87.62940833333333},{"type":"image","img":"20220528-photo8","timestamp":1653743000000,"lat":41.87275,"lng":-87.62911388888888},{"type":"image","img":"20220528-photo9","timestamp":1653743965000,"lat":41.86813333333333,"lng":-87.61498333333333},{"type":"image","img":"20220528-photo10","timestamp":1653745218000,"lat":41.82965,"lng":-87.60394444444444},{"type":"image","img":"20220528-photo11","timestamp":1653751856000,"lat":41.67315,"lng":-87.47835277777779},{"type":"image","img":"20220528-photo12","timestamp":1653752109000,"lat":41.667202777777774,"lng":-87.47000833333334},{"type":"image","img":"20220528-photo13","timestamp":1653755442000,"lat":41.601930555555555,"lng":-87.36101111111111},{"type":"image","img":"20220528-photo14","timestamp":1653766305000,"lat":41.70653055555556,"lng":-86.92818333333334},{"type":"image","img":"20220528-photo15","timestamp":1653766936000,"lat":41.71196666666667,"lng":-86.91831388888889},{"type":"image","img":"20220528-photo16","timestamp":1653766981000,"lat":41.71196666666667,"lng":-86.91831388888889},{"type":"image","img":"20220528-photo17","timestamp":1653767465000,"lat":41.72111666666667,"lng":-86.90610000000001},{"type":"image","img":"20220528-photo18","timestamp":1653767668000,"lat":41.72418888888889,"lng":-86.90280833333334},{"type":"image","img":"20220528-photo19","timestamp":1653768119000,"lat":41.72797222222223,"lng":-86.89758055555556},{"type":"image","img":"20220528-photo20","timestamp":1653769456000,"lat":41.74438055555556,"lng":-86.8595861111111},{"type":"image","img":"20220528-photo21","timestamp":1653769775000,"lat":41.747675,"lng":-86.85179444444444},{"type":"image","img":"20220528-photo22","timestamp":1653775451000,"lat":41.77591388888889,"lng":-86.77853055555555}],"time":45407000,"distance":150264.30081653147,"uphill":377,"pointCount":435,"categories":["all","recumbent","ToTheEastCoast","with-pictures"]}]},"__N_SSG":true}