{"pageProps":{"siteDescription":"Description of local dev version","siteTitle":"Local dev version","currentPage":"8","categories":[{"id":"all","title":"All","count":70},{"id":"with-pictures","title":"With pictures or videos","count":49},{"id":"ToTheEastCoast","title":"ToTheEastCoast","count":39},{"id":"recumbent","title":"recumbent","count":38}],"pages":35,"category":"all","index":[{"title":"Daily ride 2022-05-27 #56","description":"Day 25. Illinois. Motel. Very close to Chicago","tags":["recumbent","ToTheEastCoast"],"gpx":["track.gpx"],"date":"2022-05-27","hash":["f0f3d69cdbda9b38e77428ad5b1815f945afed0701ae5448666dcf2b4bee5d9d"],"id":"20220527","objects":[{"type":"image","img":"20220527-photo0","timestamp":1653646260000,"lat":41.32369722222222,"lng":-89.12565555555555},{"type":"image","img":"20220527-photo1","timestamp":1653646421000,"lat":41.324761111111115,"lng":-89.12122222222222},{"type":"image","img":"20220527-photo2","timestamp":1653647970000,"lat":41.32653055555556,"lng":-89.09396111111111},{"type":"image","img":"20220527-photo3","timestamp":1653648168000,"lat":41.32712222222222,"lng":-89.09145277777777},{"type":"image","img":"20220527-photo4","timestamp":1653648775000,"lat":41.328186111111116,"lng":-89.07685277777777},{"type":"image","img":"20220527-photo5","timestamp":1653649691000,"lat":41.334983333333334,"lng":-89.05555555555556},{"type":"image","img":"20220527-photo6","timestamp":1653651530000,"lat":41.32835277777778,"lng":-89.01046944444444},{"type":"image","img":"20220527-photo7","timestamp":1653652401000,"lat":41.32372777777778,"lng":-88.98205555555556},{"type":"image","img":"20220527-photo8","timestamp":1653655470000,"lat":41.34317222222222,"lng":-88.84258055555556},{"type":"image","img":"20220527-photo9","timestamp":1653667034000,"lat":41.53491388888889,"lng":-88.57930555555555},{"type":"image","img":"20220527-photo10","timestamp":1653672939000,"lat":41.64286111111111,"lng":-88.4462388888889},{"type":"image","img":"20220527-photo11","timestamp":1653673377000,"lat":41.648775,"lng":-88.44564722222222},{"type":"image","img":"20220527-photo12","timestamp":1653675859000,"lat":41.685224999999996,"lng":-88.355325},{"type":"image","img":"20220527-photo13","timestamp":1653678973000,"lat":41.75807777777778,"lng":-88.31814722222222},{"type":"image","img":"20220527-photo14","timestamp":1653681858000,"lat":41.799530555555556,"lng":-88.2320888888889}],"time":50308000,"distance":157940.473196779,"uphill":605,"pointCount":468,"categories":["all","recumbent","ToTheEastCoast","with-pictures"]},{"title":"Daily ride 2022-05-26 #55","description":"Day 24. Illinois. Motel. I crossed Mississippi and now I'm in Illinois.","tags":["recumbent","ToTheEastCoast"],"gpx":["track.gpx"],"date":"2022-05-26","hash":["ca8eefd1ff81b69ca3ca1a9a67b133fd60ff683265fa19e28f319790169a80c6"],"id":"20220526","objects":[{"type":"image","img":"20220526-photo0","timestamp":1653558957000,"lat":41.53140833333333,"lng":-90.54490833333332},{"type":"image","img":"20220526-photo1","timestamp":1653561244000,"lat":41.531124999999996,"lng":-90.54536666666667},{"type":"image","img":"20220526-photo2","timestamp":1653562138000,"lat":41.52051111111111,"lng":-90.5688611111111},{"type":"image","img":"20220526-photo3","timestamp":1653562144000,"lat":41.52051111111111,"lng":-90.5688611111111},{"type":"image","img":"20220526-photo4","timestamp":1653562213000,"lat":41.52051111111111,"lng":-90.5688611111111},{"type":"image","img":"20220526-photo5","timestamp":1653562795000,"lat":41.51191388888889,"lng":-90.56571944444444},{"type":"image","img":"20220526-photo6","timestamp":1653563882000,"lat":41.50216388888889,"lng":-90.5493361111111},{"type":"image","img":"20220526-photo7","timestamp":1653563904000,"lat":41.502341666666666,"lng":-90.54928055555555},{"type":"image","img":"20220526-photo8","timestamp":1653564561000,"lat":41.49725277777778,"lng":-90.54274722222222},{"type":"image","img":"20220526-photo9","timestamp":1653564572000,"lat":41.49725277777778,"lng":-90.54274722222222},{"type":"image","img":"20220526-photo10","timestamp":1653564609000,"lat":41.49720277777778,"lng":-90.54281666666667},{"type":"image","img":"20220526-photo11","timestamp":1653572702000,"lat":41.47604166666667,"lng":-90.361775},{"type":"image","img":"20220526-photo12","timestamp":1653585906000,"lat":41.417608333333334,"lng":-90.06859166666666},{"type":"image","img":"20220526-photo13","timestamp":1653585913000,"lat":41.417608333333334,"lng":-90.06859166666666},{"type":"image","img":"20220526-photo14","timestamp":1653594518000,"lat":41.36533055555556,"lng":-89.67566666666667},{"type":"image","img":"20220526-photo15","timestamp":1653595361000,"lat":41.36538888888889,"lng":-89.62273055555555},{"type":"image","img":"20220526-photo16","timestamp":1653595466000,"lat":41.365375,"lng":-89.62210277777777}],"time":37708000,"distance":136847.36098356234,"uphill":764,"pointCount":348,"categories":["all","recumbent","ToTheEastCoast","with-pictures"]}]},"__N_SSG":true}