{"pageProps":{"siteDescription":"Description of local dev version","siteTitle":"Local dev version","currentPage":"5","categories":[{"id":"all","title":"All","count":31},{"id":"with-pictures","title":"With pictures or videos","count":15}],"pages":8,"category":"with-pictures","index":[{"title":"To Seattle #19","description":"Day 3","gpx":["track.gpx"],"date":"2021-05-17","id":"20210517","objects":[{"type":"image","img":"20210517-photo0","timestamp":0,"lat":39.19328415,"lng":-121.65996399},{"type":"image","img":"20210517-photo1","timestamp":0,"lat":39.48258734,"lng":-121.74478026}],"time":47750000,"distance":161376.7420239237,"uphill":67,"pointCount":711,"tags":[],"categories":["all","with-pictures"]},{"title":"To Seattle #18","description":"Day 2. To Sacromento","gpx":["track.gpx"],"date":"2021-05-16","id":"20210516","objects":[{"type":"image","img":"20210516-photo0","timestamp":0,"lat":38.1867639,"lng":-121.66270979},{"type":"image","img":"20210516-photo1","timestamp":0,"lat":38.20472719,"lng":-121.65515269},{"type":"image","img":"20210516-photo2","timestamp":0,"lat":38.20683203,"lng":-121.65580372},{"type":"image","img":"20210516-photo3","timestamp":0,"lat":38.25058253,"lng":-121.65613333},{"type":"image","img":"20210516-photo4","timestamp":0,"lat":38.25416576,"lng":-121.65513972},{"type":"image","img":"20210516-photo5","timestamp":0,"lat":38.55769554,"lng":-121.53046108},{"type":"image","img":"20210516-photo6","timestamp":0,"lat":38.90893669,"lng":-121.57114766}],"time":35942000,"distance":118502.16533537605,"uphill":60,"pointCount":540,"tags":[],"categories":["all","with-pictures"]}]},"__N_SSG":true}